days,ntrips,destination,km,5,10,15,20,30,45,60,120
weekday,1,home,0.5,0.0,0.024,0.0,0.0,0.0,0.0,0.0,0.0
weekday,1,home,1.0,0.005,0.029,0.019,0.014,0.0,0.0,0.0,0.0
weekday,1,home,2.0,0.0,0.019,0.029,0.024,0.005,0.0,0.0,0.0
weekday,1,home,5.0,0.0,0.043,0.124,0.114,0.052,0.014,0.0,0.0
weekday,1,home,10.0,0.0,0.0,0.014,0.081,0.095,0.057,0.0,0.0
weekday,1,home,20.0,0.0,0.0,0.0,0.024,0.043,0.071,0.01,0.0
weekday,1,home,50.0,0.0,0.0,0.0,0.0,0.014,0.038,0.024,0.0
weekday,1,home,100.0,0.0,0.0,0.0,0.0,0.0,0.0,0.014,0.0
weekday,1,home,200.0,0.0,0.0,0.0,0.0,0.0,0.0,0.0,0.0
weekday,1,work,0.5,0.007,0.0,0.0,0.0,0.0,0.0,0.0,0.0
weekday,1,work,1.0,0.0,0.026,0.0,0.0,0.0,0.0,0.0,0.0
weekday,1,work,2.0,0.0,0.0,0.02,0.013,0.0,0.0,0.0,0.0
weekday,1,work,5.0,0.0,0.013,0.072,0.112,0.026,0.013,0.0,0.0
weekday,1,work,10.0,0.0,0.007,0.02,0.112,0.118,0.079,0.02,0.0
weekday,1,work,20.0,0.0,0.0,0.0,0.039,0.079,0.059,0.007,0.0
weekday,1,work,50.0,0.0,0.0,0.0,0.0,0.02,0.118,0.013,0.0
weekday,1,work,100.0,0.0,0.0,0.0,0.0,0.0,0.0,0.007,0.0
weekday,1,work,200.0,0.0,0.0,0.0,0.0,0.0,0.0,0.0,0.0
weekday,1,leisure,0.5,0.0,0.01,0.0,0.0,0.0,0.0,0.0,0.0
weekday,1,leisure,1.0,0.01,0.029,0.01,0.0,0.0,0.0,0.0,0.0
weekday,1,leisure,2.0,0.01,0.0,0.01,0.038,0.0,0.0,0.0,0.0
weekday,1,leisure,5.0,0.0,0.029,0.135,0.038,0.058,0.01,0.0,0.0
weekday,1,leisure,10.0,0.0,0.0,0.01,0.087,0.067,0.144,0.0,0.0
weekday,1,leisure,20.0,0.0,0.0,0.0,0.038,0.029,0.135,0.0,0.0
weekday,1,leisure,50.0,0.0,0.0,0.0,0.0,0.0,0.067,0.038,0.0
weekday,1,leisure,100.0,0.0,0.0,0.0,0.0,0.0,0.0,0.0,0.0
weekday,1,leisure,200.0,0.0,0.0,0.0,0.0,0.0,0.0,0.0,0.0
weekday,1,errands,0.5,0.003,0.007,0.003,0.0,0.0,0.0,0.0,0.0
weekday,1,errands,1.0,0.007,0.03,0.023,0.013,0.0,0.0,0.0,0.0
weekday,1,errands,2.0,0.0,0.033,0.05,0.02,0.01,0.0,0.0,0.0
weekday,1,errands,5.0,0.0,0.017,0.142,0.116,0.079,0.053,0.0,0.0
weekday,1,errands,10.0,0.0,0.003,0.017,0.076,0.079,0.093,0.007,0.0
weekday,1,errands,20.0,0.0,0.0,0.0,0.013,0.033,0.036,0.003,0.0
weekday,1,errands,50.0,0.0,0.0,0.0,0.0,0.0,0.017,0.01,0.0
weekday,1,errands,100.0,0.0,0.0,0.0,0.0,0.0,0.0,0.007,0.0
weekday,1,errands,200.0,0.0,0.0,0.0,0.0,0.0,0.0,0.0,0.0
weekday,2,home,0.5,0.003,0.007,0.001,0.0,0.0,0.0,0.0,0.0
weekday,2,home,1.0,0.005,0.019,0.009,0.004,0.0,0.0,0.0,0.0
weekday,2,home,2.0,0.006,0.051,0.046,0.017,0.003,0.0,0.0,0.0
weekday,2,home,5.0,0.0,0.048,0.134,0.139,0.047,0.01,0.0,0.0
weekday,2,home,10.0,0.0,0.002,0.037,0.124,0.115,0.019,0.0,0.0
weekday,2,home,20.0,0.0,0.0,0.002,0.031,0.08,0.022,0.0,0.0
weekday,2,home,50.0,0.0,0.0,0.0,0.0,0.011,0.006,0.0,0.0
weekday,2,home,100.0,0.0,0.0,0.0,0.0,0.0,0.0,0.0,0.0
weekday,2,home,200.0,0.0,0.0,0.0,0.0,0.0,0.0,0.0,0.0
weekday,2,work,0.5,0.001,0.002,0.0,0.0,0.0,0.0,0.0,0.0
weekday,2,work,1.0,0.002,0.005,0.005,0.001,0.0,0.0,0.0,0.0
weekday,2,work,2.0,0.002,0.017,0.029,0.004,0.002,0.0,0.0,0.0
weekday,2,work,5.0,0.0,0.024,0.112,0.136,0.026,0.005,0.0,0.0
weekday,2,work,10.0,0.0,0.002,0.047,0.177,0.139,0.014,0.0,0.0
weekday,2,work,20.0,0.0,0.0,0.005,0.059,0.132,0.02,0.0,0.0
weekday,2,work,50.0,0.0,0.0,0.0,0.0,0.02,0.014,0.0,0.0
weekday,2,work,100.0,0.0,0.0,0.0,0.0,0.0,0.0,0.0,0.0
weekday,2,work,200.0,0.0,0.0,0.0,0.0,0.0,0.0,0.0,0.0
weekday,2,leisure,0.5,0.0,0.002,0.002,0.0,0.0,0.0,0.0,0.0
weekday,2,leisure,1.0,0.002,0.007,0.005,0.004,0.0,0.0,0.0,0.0
weekday,2,leisure,2.0,0.002,0.039,0.04,0.016,0.0,0.0,0.0,0.0
weekday,2,leisure,5.0,0.0,0.037,0.151,0.152,0.058,0.005,0.0,0.0
weekday,2,leisure,10.0,0.0,0.004,0.042,0.142,0.121,0.012,0.0,0.0
weekday,2,leisure,20.0,0.0,0.0,0.004,0.042,0.079,0.023,0.0,0.0
weekday,2,leisure,50.0,0.0,0.0,0.0,0.0,0.009,0.004,0.0,0.0
weekday,2,leisure,100.0,0.0,0.0,0.0,0.0,0.0,0.0,0.0,0.0
weekday,2,leisure,200.0,0.0,0.0,0.0,0.0,0.0,0.0,0.0,0.0
weekday,2,errands,0.5,0.006,0.011,0.003,0.0,0.0,0.0,0.0,0.0
weekday,2,errands,1.0,0.01,0.045,0.015,0.006,0.0,0.0,0.0,0.0
weekday,2,errands,2.0,0.01,0.078,0.071,0.032,0.005,0.0,0.0,0.0
weekday,2,errands,5.0,0.0,0.079,0.17,0.138,0.048,0.005,0.0,0.0
weekday,2,errands,10.0,0.0,0.001,0.042,0.075,0.069,0.013,0.001,0.0
weekday,2,errands,20.0,0.0,0.0,0.005,0.021,0.033,0.004,0.0,0.0
weekday,2,errands,50.0,0.0,0.0,0.0,0.0,0.003,0.002,0.0,0.0
weekday,2,errands,100.0,0.0,0.0,0.0,0.0,0.0,0.0,0.0,0.0
weekday,2,errands,200.0,0.0,0.0,0.0,0.0,0.0,0.0,0.0,0.0
weekday,3,home,0.5,0.006,0.021,0.006,0.0,0.0,0.0,0.0,0.0
weekday,3,home,1.0,0.011,0.063,0.015,0.006,0.0,0.0,0.0,0.0
weekday,3,home,2.0,0.012,0.066,0.067,0.02,0.005,0.0,0.0,0.0
weekday,3,home,5.0,0.0,0.068,0.19,0.113,0.027,0.001,0.0,0.0
weekday,3,home,10.0,0.0,0.006,0.042,0.123,0.047,0.005,0.0,0.0
weekday,3,home,20.0,0.0,0.0,0.004,0.03,0.031,0.006,0.0,0.0
weekday,3,home,50.0,0.0,0.0,0.0,0.0,0.004,0.001,0.0,0.0
weekday,3,home,100.0,0.0,0.0,0.0,0.0,0.0,0.0,0.0,0.0
weekday,3,home,200.0,0.0,0.0,0.0,0.0,0.0,0.0,0.0,0.0
weekday,3,work,0.5,0.003,0.003,0.003,0.0,0.0,0.0,0.0,0.0
weekday,3,work,1.0,0.006,0.022,0.014,0.0,0.0,0.0,0.0,0.0
weekday,3,work,2.0,0.003,0.039,0.019,0.011,0.0,0.0,0.0,0.0
weekday,3,work,5.0,0.0,0.042,0.156,0.128,0.033,0.003,0.0,0.0
weekday,3,work,10.0,0.0,0.003,0.086,0.175,0.078,0.003,0.0,0.0
weekday,3,work,20.0,0.0,0.0,0.003,0.061,0.072,0.008,0.0,0.0
weekday,3,work,50.0,0.0,0.0,0.0,0.0,0.011,0.014,0.0,0.0
weekday,3,work,100.0,0.0,0.0,0.0,0.0,0.0,0.0,0.0,0.0
weekday,3,work,200.0,0.0,0.0,0.0,0.0,0.0,0.0,0.0,0.0
weekday,3,leisure,0.5,0.0,0.015,0.005,0.0,0.0,0.0,0.0,0.0
weekday,3,leisure,1.0,0.0,0.02,0.034,0.0,0.0,0.0,0.0,0.0
weekday,3,leisure,2.0,0.0,0.044,0.039,0.005,0.0,0.0,0.0,0.0
weekday,3,leisure,5.0,0.0,0.044,0.205,0.161,0.024,0.0,0.0,0.0
weekday,3,leisure,10.0,0.0,0.005,0.078,0.161,0.093,0.01,0.0,0.0
weekday,3,leisure,20.0,0.0,0.0,0.0,0.02,0.024,0.01,0.0,0.0
weekday,3,leisure,50.0,0.0,0.0,0.0,0.0,0.005,0.0,0.0,0.0
weekday,3,leisure,100.0,0.0,0.0,0.0,0.0,0.0,0.0,0.0,0.0
weekday,3,leisure,200.0,0.0,0.0,0.0,0.0,0.0,0.0,0.0,0.0
weekday,3,errands,0.5,0.008,0.022,0.009,0.0,0.0,0.0,0.0,0.0
weekday,3,errands,1.0,0.012,0.067,0.029,0.004,0.0,0.0,0.0,0.0
weekday,3,errands,2.0,0.009,0.077,0.073,0.03,0.001,0.0,0.0,0.0
weekday,3,errands,5.0,0.0,0.069,0.193,0.128,0.029,0.001,0.0,0.0
weekday,3,errands,10.0,0.0,0.004,0.052,0.085,0.041,0.007,0.0,0.0
weekday,3,errands,20.0,0.0,0.0,0.005,0.018,0.021,0.007,0.0,0.0
weekday,3,errands,50.0,0.0,0.0,0.0,0.0,0.001,0.002,0.0,0.0
weekday,3,errands,100.0,0.0,0.0,0.0,0.0,0.0,0.0,0.0,0.0
weekday,3,errands,200.0,0.0,0.0,0.0,0.0,0.0,0.0,0.0,0.0
weekday,4,home,0.5,0.01,0.024,0.003,0.0,0.0,0.0,0.0,0.0
weekday,4,home,1.0,0.014,0.076,0.011,0.008,0.0,0.0,0.0,0.0
weekday,4,home,2.0,0.007,0.116,0.075,0.008,0.0,0.0,0.0,0.0
weekday,4,home,5.0,0.0,0.096,0.226,0.083,0.017,0.0,0.0,0.0
weekday,4,home,10.0,0.0,0.008,0.072,0.076,0.027,0.0,0.0,0.0
weekday,4,home,20.0,0.0,0.0,0.003,0.022,0.017,0.001,0.0,0.0
weekday,4,home,50.0,0.0,0.0,0.0,0.0,0.001,0.0,0.0,0.0
weekday,4,home,100.0,0.0,0.0,0.0,0.0,0.0,0.0,0.0,0.0
weekday,4,home,200.0,0.0,0.0,0.0,0.0,0.0,0.0,0.0,0.0
weekday,4,work,0.5,0.008,0.011,0.0,0.0,0.0,0.0,0.0,0.0
weekday,4,work,1.0,0.011,0.019,0.008,0.0,0.0,0.0,0.0,0.0
weekday,4,work,2.0,0.0,0.054,0.038,0.004,0.0,0.0,0.0,0.0
weekday,4,work,5.0,0.0,0.1,0.226,0.088,0.034,0.0,0.0,0.0
weekday,4,work,10.0,0.0,0.004,0.13,0.107,0.065,0.0,0.0,0.0
weekday,4,work,20.0,0.0,0.0,0.0,0.031,0.057,0.004,0.0,0.0
weekday,4,work,50.0,0.0,0.0,0.0,0.0,0.0,0.0,0.0,0.0
weekday,4,work,100.0,0.0,0.0,0.0,0.0,0.0,0.0,0.0,0.0
weekday,4,work,200.0,0.0,0.0,0.0,0.0,0.0,0.0,0.0,0.0
weekday,4,leisure,0.5,0.0,0.0,0.0,0.0,0.0,0.0,0.0,0.0
weekday,4,leisure,1.0,0.0,0.059,0.032,0.005,0.0,0.0,0.0,0.0
weekday,4,leisure,2.0,0.016,0.096,0.053,0.005,0.0,0.0,0.0,0.0
weekday,4,leisure,5.0,0.0,0.08,0.246,0.102,0.005,0.0,0.0,0.0
weekday,4,leisure,10.0,0.0,0.011,0.091,0.112,0.021,0.005,0.0,0.0
weekday,4,leisure,20.0,0.0,0.0,0.005,0.021,0.021,0.0,0.0,0.0
weekday,4,leisure,50.0,0.0,0.0,0.0,0.0,0.011,0.0,0.0,0.0
weekday,4,leisure,100.0,0.0,0.0,0.0,0.0,0.0,0.0,0.0,0.0
weekday,4,leisure,200.0,0.0,0.0,0.0,0.0,0.0,0.0,0.0,0.0
weekday,4,errands,0.5,0.02,0.027,0.002,0.0,0.0,0.0,0.0,0.0
weekday,4,errands,1.0,0.025,0.084,0.023,0.003,0.0,0.0,0.0,0.0
weekday,4,errands,2.0,0.007,0.116,0.098,0.01,0.002,0.0,0.0,0.0
weekday,4,errands,5.0,0.0,0.09,0.231,0.095,0.016,0.0,0.0,0.0
weekday,4,errands,10.0,0.0,0.007,0.036,0.053,0.024,0.001,0.0,0.0
weekday,4,errands,20.0,0.0,0.0,0.001,0.012,0.012,0.0,0.0,0.0
weekday,4,errands,50.0,0.0,0.0,0.0,0.0,0.001,0.002,0.0,0.0
weekday,4,errands,100.0,0.0,0.0,0.0,0.0,0.0,0.0,0.0,0.0
weekday,4,errands,200.0,0.0,0.0,0.0,0.0,0.0,0.0,0.0,0.0
weekday,5,home,0.5,0.02,0.02,0.0,0.0,0.0,0.0,0.0,0.0
weekday,5,home,1.0,0.016,0.1,0.008,0.004,0.0,0.0,0.0,0.0
weekday,5,home,2.0,0.008,0.124,0.06,0.012,0.0,0.0,0.0,0.0
weekday,5,home,5.0,0.0,0.124,0.276,0.064,0.008,0.0,0.0,0.0
weekday,5,home,10.0,0.0,0.02,0.056,0.044,0.016,0.0,0.0,0.0
weekday,5,home,20.0,0.0,0.0,0.004,0.012,0.004,0.0,0.0,0.0
weekday,5,home,50.0,0.0,0.0,0.0,0.0,0.0,0.0,0.0,0.0
weekday,5,home,100.0,0.0,0.0,0.0,0.0,0.0,0.0,0.0,0.0
weekday,5,home,200.0,0.0,0.0,0.0,0.0,0.0,0.0,0.0,0.0
weekday,5,work,0.5,0.022,0.0,0.0,0.0,0.0,0.0,0.0,0.0
weekday,5,work,1.0,0.011,0.075,0.0,0.0,0.0,0.0,0.0,0.0
weekday,5,work,2.0,0.0,0.118,0.086,0.011,0.0,0.0,0.0,0.0
weekday,5,work,5.0,0.0,0.075,0.161,0.086,0.011,0.0,0.0,0.0
weekday,5,work,10.0,0.0,0.032,0.097,0.108,0.065,0.0,0.0,0.0
weekday,5,work,20.0,0.0,0.0,0.0,0.022,0.011,0.0,0.0,0.0
weekday,5,work,50.0,0.0,0.0,0.0,0.0,0.011,0.0,0.0,0.0
weekday,5,work,100.0,0.0,0.0,0.0,0.0,0.0,0.0,0.0,0.0
weekday,5,work,200.0,0.0,0.0,0.0,0.0,0.0,0.0,0.0,0.0
weekday,5,leisure,0.5,0.014,0.0,0.0,0.0,0.0,0.0,0.0,0.0
weekday,5,leisure,1.0,0.029,0.071,0.014,0.0,0.0,0.0,0.0,0.0
weekday,5,leisure,2.0,0.014,0.086,0.071,0.0,0.0,0.0,0.0,0.0
weekday,5,leisure,5.0,0.0,0.1,0.314,0.071,0.014,0.0,0.0,0.0
weekday,5,leisure,10.0,0.0,0.0,0.086,0.043,0.029,0.0,0.0,0.0
weekday,5,leisure,20.0,0.0,0.0,0.0,0.014,0.029,0.0,0.0,0.0
weekday,5,leisure,50.0,0.0,0.0,0.0,0.0,0.0,0.0,0.0,0.0
weekday,5,leisure,100.0,0.0,0.0,0.0,0.0,0.0,0.0,0.0,0.0
weekday,5,leisure,200.0,0.0,0.0,0.0,0.0,0.0,0.0,0.0,0.0
weekday,5,errands,0.5,0.024,0.031,0.003,0.0,0.0,0.0,0.0,0.0
weekday,5,errands,1.0,0.017,0.156,0.021,0.0,0.0,0.0,0.0,0.0
weekday,5,errands,2.0,0.014,0.18,0.083,0.0,0.0,0.0,0.0,0.0
weekday,5,errands,5.0,0.0,0.138,0.183,0.038,0.003,0.0,0.0,0.0
weekday,5,errands,10.0,0.0,0.0,0.042,0.038,0.01,0.0,0.0,0.0
weekday,5,errands,20.0,0.0,0.0,0.003,0.01,0.003,0.0,0.0,0.0
weekday,5,errands,50.0,0.0,0.0,0.0,0.0,0.0,0.0,0.0,0.0
weekday,5,errands,100.0,0.0,0.0,0.0,0.0,0.0,0.0,0.0,0.0
weekday,5,errands,200.0,0.0,0.0,0.0,0.0,0.0,0.0,0.0,0.0
saturday,1,home,0.5,0.0,0.0,0.0,0.0,0.0,0.0,0.0,0.0
saturday,1,home,1.0,0.0,0.012,0.0,0.0,0.0,0.0,0.0,0.0
saturday,1,home,2.0,0.0,0.012,0.0,0.012,0.0,0.0,0.0,0.0
saturday,1,home,5.0,0.0,0.036,0.096,0.036,0.036,0.012,0.0,0.0
saturday,1,home,10.0,0.0,0.012,0.012,0.06,0.048,0.036,0.0,0.0
saturday,1,home,20.0,0.0,0.0,0.0,0.024,0.048,0.024,0.012,0.0
saturday,1,home,50.0,0.0,0.0,0.0,0.0,0.024,0.084,0.024,0.0
saturday,1,home,100.0,0.0,0.0,0.0,0.0,0.0,0.0,0.024,0.084
saturday,1,home,200.0,0.0,0.0,0.0,0.0,0.0,0.0,0.0,0.229
sunday,1,home,0.5,0.0,0.022,0.0,0.0,0.0,0.0,0.0,0.0
sunday,1,home,1.0,0.0,0.007,0.0,0.007,0.0,0.0,0.0,0.0
sunday,1,home,2.0,0.0,0.015,0.022,0.007,0.0,0.0,0.0,0.0
sunday,1,home,5.0,0.0,0.022,0.044,0.044,0.007,0.015,0.0,0.0
sunday,1,home,10.0,0.0,0.0,0.015,0.044,0.015,0.022,0.0,0.0
sunday,1,home,20.0,0.0,0.0,0.0,0.015,0.067,0.037,0.0,0.0
sunday,1,home,50.0,0.0,0.0,0.0,0.0,0.015,0.059,0.052,0.0
sunday,1,home,100.0,0.0,0.0,0.0,0.0,0.0,0.0,0.015,0.119
sunday,1,home,200.0,0.0,0.0,0.0,0.0,0.0,0.0,0.0,0.311
saturday,1,work,0.5,0.0,0.0,0.0,0.0,0.0,0.0,0.0,0.0
saturday,1,work,1.0,0.0,0.0,0.0,0.0,0.0,0.0,0.0,0.0
saturday,1,work,2.0,0.0,0.0,0.083,0.0,0.0,0.0,0.0,0.0
saturday,1,work,5.0,0.0,0.0,0.0,0.083,0.083,0.083,0.0,0.0
saturday,1,work,10.0,0.0,0.0,0.0,0.0,0.083,0.083,0.0,0.0
saturday,1,work,20.0,0.0,0.0,0.0,0.0,0.083,0.167,0.0,0.0
saturday,1,work,50.0,0.0,0.0,0.0,0.0,0.0,0.083,0.0,0.0
saturday,1,work,100.0,0.0,0.0,0.0,0.0,0.0,0.0,0.0,0.083
saturday,1,work,200.0,0.0,0.0,0.0,0.0,0.0,0.0,0.0,0.083
sunday,1,work,0.5,0.0,0.0,0.0,0.0,0.0,0.0,0.0,0.0
sunday,1,work,1.0,0.0,0.1,0.0,0.0,0.0,0.0,0.0,0.0
sunday,1,work,2.0,0.0,0.0,0.0,0.0,0.0,0.0,0.0,0.0
sunday,1,work,5.0,0.0,0.0,0.0,0.1,0.0,0.0,0.0,0.0
sunday,1,work,10.0,0.0,0.0,0.0,0.0,0.2,0.0,0.0,0.0
sunday,1,work,20.0,0.0,0.0,0.0,0.1,0.0,0.1,0.0,0.0
sunday,1,work,50.0,0.0,0.0,0.0,0.0,0.0,0.1,0.0,0.0
sunday,1,work,100.0,0.0,0.0,0.0,0.0,0.0,0.0,0.0,0.1
sunday,1,work,200.0,0.0,0.0,0.0,0.0,0.0,0.0,0.0,0.2
saturday,1,leisure,0.5,0.0,0.0,0.0,0.0,0.0,0.0,0.0,0.0
saturday,1,leisure,1.0,0.013,0.0,0.013,0.0,0.0,0.0,0.0,0.0
saturday,1,leisure,2.0,0.013,0.0,0.013,0.0,0.0,0.0,0.0,0.0
saturday,1,leisure,5.0,0.0,0.013,0.026,0.039,0.0,0.0,0.0,0.0
saturday,1,leisure,10.0,0.0,0.0,0.039,0.079,0.026,0.026,0.026,0.0
saturday,1,leisure,20.0,0.0,0.0,0.0,0.0,0.026,0.145,0.0,0.0
saturday,1,leisure,50.0,0.0,0.0,0.0,0.0,0.0,0.079,0.026,0.0
saturday,1,leisure,100.0,0.0,0.0,0.0,0.0,0.0,0.0,0.026,0.092
saturday,1,leisure,200.0,0.0,0.0,0.0,0.0,0.0,0.0,0.0,0.276
sunday,1,leisure,0.5,0.0,0.014,0.0,0.0,0.0,0.0,0.0,0.0
sunday,1,leisure,1.0,0.0,0.014,0.0,0.029,0.0,0.0,0.0,0.0
sunday,1,leisure,2.0,0.014,0.0,0.029,0.0,0.0,0.0,0.0,0.0
sunday,1,leisure,5.0,0.0,0.043,0.029,0.086,0.029,0.014,0.0,0.0
sunday,1,leisure,10.0,0.0,0.0,0.0,0.086,0.043,0.029,0.0,0.0
sunday,1,leisure,20.0,0.0,0.0,0.0,0.014,0.043,0.057,0.014,0.0
sunday,1,leisure,50.0,0.0,0.0,0.0,0.0,0.0,0.029,0.043,0.0
sunday,1,leisure,100.0,0.0,0.0,0.0,0.0,0.0,0.0,0.0,0.114
sunday,1,leisure,200.0,0.0,0.0,0.0,0.0,0.0,0.0,0.0,0.229
saturday,1,errands,0.5,0.0,0.024,0.0,0.0,0.0,0.0,0.0,0.0
saturday,1,errands,1.0,0.0,0.048,0.012,0.012,0.0,0.0,0.0,0.0
saturday,1,errands,2.0,0.012,0.048,0.012,0.012,0.0,0.0,0.0,0.0
saturday,1,errands,5.0,0.0,0.048,0.133,0.084,0.036,0.024,0.0,0.0
saturday,1,errands,10.0,0.0,0.0,0.024,0.036,0.096,0.048,0.024,0.0
saturday,1,errands,20.0,0.0,0.0,0.0,0.012,0.012,0.072,0.0,0.0
saturday,1,errands,50.0,0.0,0.0,0.0,0.0,0.012,0.024,0.024,0.0
saturday,1,errands,100.0,0.0,0.0,0.0,0.0,0.0,0.0,0.012,0.06
saturday,1,errands,200.0,0.0,0.0,0.0,0.0,0.0,0.0,0.0,0.036
sunday,1,errands,0.5,0.0,0.0,0.0,0.0,0.0,0.0,0.0,0.0
sunday,1,errands,1.0,0.0,0.0,0.0,0.0,0.0,0.0,0.0,0.0
sunday,1,errands,2.0,0.0,0.067,0.033,0.0,0.0,0.0,0.0,0.0
sunday,1,errands,5.0,0.0,0.0,0.133,0.067,0.033,0.033,0.0,0.0
sunday,1,errands,10.0,0.0,0.0,0.0,0.0,0.067,0.033,0.0,0.0
sunday,1,errands,20.0,0.0,0.0,0.0,0.033,0.033,0.1,0.0,0.0
sunday,1,errands,50.0,0.0,0.0,0.0,0.0,0.0,0.067,0.067,0.0
sunday,1,errands,100.0,0.0,0.0,0.0,0.0,0.0,0.0,0.0,0.067
sunday,1,errands,200.0,0.0,0.0,0.0,0.0,0.0,0.0,0.0,0.167
saturday,2,home,0.5,0.002,0.01,0.002,0.0,0.0,0.0,0.0,0.0
saturday,2,home,1.0,0.007,0.036,0.01,0.002,0.0,0.0,0.0,0.0
saturday,2,home,2.0,0.007,0.044,0.04,0.015,0.002,0.0,0.0,0.0
saturday,2,home,5.0,0.0,0.051,0.133,0.092,0.025,0.005,0.0,0.0
saturday,2,home,10.0,0.0,0.004,0.036,0.08,0.07,0.037,0.006,0.0
saturday,2,home,20.0,0.0,0.0,0.002,0.031,0.037,0.049,0.007,0.0
saturday,2,home,50.0,0.0,0.0,0.0,0.0,0.017,0.056,0.019,0.0
saturday,2,home,100.0,0.0,0.0,0.0,0.0,0.0,0.0,0.012,0.027
saturday,2,home,200.0,0.0,0.0,0.0,0.0,0.0,0.0,0.0,0.021
sunday,2,home,0.5,0.001,0.004,0.0,0.0,0.0,0.0,0.0,0.0
sunday,2,home,1.0,0.001,0.012,0.004,0.002,0.0,0.0,0.0,0.0
sunday,2,home,2.0,0.007,0.033,0.027,0.006,0.002,0.0,0.0,0.0
sunday,2,home,5.0,0.0,0.036,0.089,0.087,0.019,0.016,0.0,0.0
sunday,2,home,10.0,0.0,0.002,0.05,0.088,0.07,0.027,0.002,0.0
sunday,2,home,20.0,0.0,0.0,0.002,0.028,0.075,0.068,0.006,0.0
sunday,2,home,50.0,0.0,0.0,0.0,0.0,0.016,0.08,0.03,0.0
sunday,2,home,100.0,0.0,0.0,0.0,0.0,0.0,0.0,0.01,0.046
sunday,2,home,200.0,0.0,0.0,0.0,0.0,0.0,0.0,0.0,0.053
saturday,2,work,0.5,0.0,0.011,0.0,0.0,0.0,0.0,0.0,0.0
saturday,2,work,1.0,0.0,0.0,0.0,0.0,0.0,0.0,0.0,0.0
saturday,2,work,2.0,0.0,0.011,0.0,0.0,0.0,0.0,0.0,0.0
saturday,2,work,5.0,0.0,0.022,0.109,0.054,0.011,0.043,0.0,0.0
saturday,2,work,10.0,0.0,0.0,0.033,0.12,0.12,0.054,0.0,0.0
saturday,2,work,20.0,0.0,0.0,0.0,0.022,0.087,0.054,0.022,0.0
saturday,2,work,50.0,0.0,0.0,0.0,0.0,0.011,0.141,0.022,0.0
saturday,2,work,100.0,0.0,0.0,0.0,0.0,0.0,0.0,0.0,0.043
saturday,2,work,200.0,0.0,0.0,0.0,0.0,0.0,0.0,0.0,0.011
sunday,2,work,0.5,0.0,0.0,0.0,0.0,0.0,0.0,0.0,0.0
sunday,2,work,1.0,0.0,0.0,0.0,0.0,0.0,0.0,0.0,0.0
sunday,2,work,2.0,0.0,0.017,0.017,0.0,0.0,0.0,0.0,0.0
sunday,2,work,5.0,0.0,0.068,0.102,0.136,0.0,0.0,0.0,0.0
sunday,2,work,10.0,0.0,0.017,0.034,0.102,0.034,0.034,0.0,0.0
sunday,2,work,20.0,0.0,0.0,0.0,0.034,0.119,0.051,0.0,0.0
sunday,2,work,50.0,0.0,0.0,0.0,0.0,0.034,0.136,0.017,0.0
sunday,2,work,100.0,0.0,0.0,0.0,0.0,0.0,0.0,0.0,0.034
sunday,2,work,200.0,0.0,0.0,0.0,0.0,0.0,0.0,0.0,0.017
saturday,2,leisure,0.5,0.0,0.004,0.004,0.0,0.0,0.0,0.0,0.0
saturday,2,leisure,1.0,0.008,0.011,0.011,0.011,0.0,0.0,0.0,0.0
saturday,2,leisure,2.0,0.0,0.034,0.015,0.004,0.004,0.0,0.0,0.0
saturday,2,leisure,5.0,0.0,0.004,0.106,0.053,0.046,0.015,0.0,0.0
saturday,2,leisure,10.0,0.0,0.004,0.015,0.087,0.057,0.023,0.004,0.0
saturday,2,leisure,20.0,0.0,0.0,0.0,0.042,0.068,0.084,0.008,0.0
saturday,2,leisure,50.0,0.0,0.0,0.0,0.0,0.019,0.091,0.027,0.0
saturday,2,leisure,100.0,0.0,0.0,0.0,0.0,0.0,0.0,0.027,0.057
saturday,2,leisure,200.0,0.0,0.0,0.0,0.0,0.0,0.0,0.0,0.057
sunday,2,leisure,0.5,0.0,0.006,0.0,0.0,0.0,0.0,0.0,0.0
sunday,2,leisure,1.0,0.0,0.002,0.002,0.0,0.0,0.0,0.0,0.0
sunday,2,leisure,2.0,0.004,0.014,0.012,0.008,0.002,0.0,0.0,0.0
sunday,2,leisure,5.0,0.0,0.039,0.087,0.08,0.031,0.014,0.0,0.0
sunday,2,leisure,10.0,0.0,0.002,0.031,0.105,0.068,0.029,0.006,0.0
sunday,2,leisure,20.0,0.0,0.0,0.008,0.029,0.078,0.087,0.002,0.0
sunday,2,leisure,50.0,0.0,0.0,0.0,0.0,0.012,0.103,0.054,0.0
sunday,2,leisure,100.0,0.0,0.0,0.0,0.0,0.0,0.0,0.021,0.047
sunday,2,leisure,200.0,0.0,0.0,0.0,0.0,0.0,0.0,0.0,0.014
saturday,2,errands,0.5,0.002,0.018,0.005,0.0,0.0,0.0,0.0,0.0
saturday,2,errands,1.0,0.013,0.043,0.01,0.007,0.0,0.0,0.0,0.0
saturday,2,errands,2.0,0.01,0.047,0.062,0.015,0.002,0.0,0.0,0.0
saturday,2,errands,5.0,0.0,0.073,0.14,0.105,0.012,0.008,0.0,0.0
saturday,2,errands,10.0,0.0,0.007,0.035,0.082,0.073,0.025,0.01,0.0
saturday,2,errands,20.0,0.0,0.0,0.003,0.013,0.037,0.03,0.007,0.0
saturday,2,errands,50.0,0.0,0.0,0.0,0.0,0.008,0.043,0.017,0.0
saturday,2,errands,100.0,0.0,0.0,0.0,0.0,0.0,0.0,0.002,0.025
saturday,2,errands,200.0,0.0,0.0,0.0,0.0,0.0,0.0,0.0,0.013
sunday,2,errands,0.5,0.003,0.017,0.0,0.0,0.0,0.0,0.0,0.0
sunday,2,errands,1.0,0.003,0.017,0.01,0.0,0.0,0.0,0.0,0.0
sunday,2,errands,2.0,0.007,0.055,0.058,0.007,0.003,0.0,0.0,0.0
sunday,2,errands,5.0,0.0,0.041,0.082,0.072,0.021,0.003,0.0,0.0
sunday,2,errands,10.0,0.0,0.003,0.045,0.076,0.089,0.038,0.0,0.0
sunday,2,errands,20.0,0.0,0.0,0.0,0.034,0.072,0.041,0.003,0.0
sunday,2,errands,50.0,0.0,0.0,0.0,0.0,0.007,0.052,0.031,0.0
sunday,2,errands,100.0,0.0,0.0,0.0,0.0,0.0,0.0,0.014,0.045
sunday,2,errands,200.0,0.0,0.0,0.0,0.0,0.0,0.0,0.0,0.048
saturday,3,home,0.5,0.009,0.012,0.0,0.0,0.0,0.0,0.0,0.0
saturday,3,home,1.0,0.003,0.031,0.009,0.0,0.0,0.0,0.0,0.0
saturday,3,home,2.0,0.003,0.076,0.046,0.015,0.006,0.0,0.0,0.0
saturday,3,home,5.0,0.0,0.067,0.135,0.089,0.012,0.009,0.0,0.0
saturday,3,home,10.0,0.0,0.003,0.031,0.083,0.08,0.024,0.003,0.0
saturday,3,home,20.0,0.0,0.0,0.003,0.015,0.067,0.037,0.006,0.0
saturday,3,home,50.0,0.0,0.0,0.0,0.0,0.012,0.04,0.015,0.0
saturday,3,home,100.0,0.0,0.0,0.0,0.0,0.0,0.0,0.006,0.031
saturday,3,home,200.0,0.0,0.0,0.0,0.0,0.0,0.0,0.0,0.021
sunday,3,home,0.5,0.004,0.008,0.0,0.0,0.0,0.0,0.0,0.0
sunday,3,home,1.0,0.0,0.021,0.008,0.0,0.0,0.0,0.0,0.0
sunday,3,home,2.0,0.004,0.042,0.021,0.0,0.0,0.0,0.0,0.0
sunday,3,home,5.0,0.0,0.042,0.093,0.089,0.03,0.004,0.0,0.0
sunday,3,home,10.0,0.0,0.008,0.063,0.114,0.068,0.013,0.0,0.0
sunday,3,home,20.0,0.0,0.0,0.0,0.021,0.034,0.068,0.013,0.0
sunday,3,home,50.0,0.0,0.0,0.0,0.0,0.013,0.08,0.025,0.0
sunday,3,home,100.0,0.0,0.0,0.0,0.0,0.0,0.0,0.021,0.042
sunday,3,home,200.0,0.0,0.0,0.0,0.0,0.0,0.0,0.0,0.051
saturday,3,work,0.5,0.0,0.0,0.0,0.0,0.0,0.0,0.0,0.0
saturday,3,work,1.0,0.0,0.025,0.0,0.0,0.0,0.0,0.0,0.0
saturday,3,work,2.0,0.0,0.025,0.025,0.025,0.0,0.0,0.0,0.0
saturday,3,work,5.0,0.0,0.025,0.15,0.125,0.025,0.025,0.0,0.0
saturday,3,work,10.0,0.0,0.0,0.05,0.075,0.125,0.05,0.025,0.0
saturday,3,work,20.0,0.0,0.0,0.0,0.0,0.05,0.025,0.0,0.0
saturday,3,work,50.0,0.0,0.0,0.0,0.0,0.0,0.1,0.0,0.0
saturday,3,work,100.0,0.0,0.0,0.0,0.0,0.0,0.0,0.025,0.025
saturday,3,work,200.0,0.0,0.0,0.0,0.0,0.0,0.0,0.0,0.0
sunday,3,work,0.5,0.0,0.0,0.0,0.0,0.0,0.0,0.0,0.0
sunday,3,work,1.0,0.0,0.0,0.0,0.0,0.0,0.0,0.0,0.0
sunday,3,work,2.0,0.0,0.0,0.0,0.0,0.0,0.0,0.0,0.0
sunday,3,work,5.0,0.0,0.0,0.15,0.1,0.0,0.0,0.0,0.0
sunday,3,work,10.0,0.0,0.0,0.05,0.25,0.15,0.0,0.0,0.0
sunday,3,work,20.0,0.0,0.0,0.0,0.1,0.0,0.0,0.0,0.0
sunday,3,work,50.0,0.0,0.0,0.0,0.0,0.0,0.05,0.0,0.0
sunday,3,work,100.0,0.0,0.0,0.0,0.0,0.0,0.0,0.0,0.1
sunday,3,work,200.0,0.0,0.0,0.0,0.0,0.0,0.0,0.0,0.05
saturday,3,leisure,0.5,0.0,0.0,0.006,0.0,0.0,0.0,0.0,0.0
saturday,3,leisure,1.0,0.006,0.0,0.018,0.0,0.0,0.0,0.0,0.0
saturday,3,leisure,2.0,0.012,0.036,0.012,0.018,0.006,0.0,0.0,0.0
saturday,3,leisure,5.0,0.0,0.012,0.072,0.054,0.024,0.006,0.0,0.0
saturday,3,leisure,10.0,0.0,0.0,0.054,0.06,0.102,0.018,0.006,0.0
saturday,3,leisure,20.0,0.0,0.0,0.0,0.03,0.096,0.054,0.006,0.0
saturday,3,leisure,50.0,0.0,0.0,0.0,0.0,0.018,0.096,0.03,0.0
saturday,3,leisure,100.0,0.0,0.0,0.0,0.0,0.0,0.0,0.006,0.06
saturday,3,leisure,200.0,0.0,0.0,0.0,0.0,0.0,0.0,0.0,0.078
sunday,3,leisure,0.5,0.0,0.018,0.006,0.0,0.0,0.0,0.0,0.0
sunday,3,leisure,1.0,0.006,0.006,0.006,0.0,0.0,0.0,0.0,0.0
sunday,3,leisure,2.0,0.0,0.042,0.012,0.0,0.0,0.0,0.0,0.0
sunday,3,leisure,5.0,0.0,0.042,0.078,0.078,0.024,0.0,0.0,0.0
sunday,3,leisure,10.0,0.0,0.006,0.024,0.084,0.06,0.03,0.0,0.0
sunday,3,leisure,20.0,0.0,0.0,0.012,0.024,0.06,0.108,0.006,0.0
sunday,3,leisure,50.0,0.0,0.0,0.0,0.0,0.018,0.096,0.06,0.0
sunday,3,leisure,100.0,0.0,0.0,0.0,0.0,0.0,0.0,0.018,0.036
sunday,3,leisure,200.0,0.0,0.0,0.0,0.0,0.0,0.0,0.0,0.036
saturday,3,errands,0.5,0.002,0.007,0.005,0.0,0.0,0.0,0.0,0.0
saturday,3,errands,1.0,0.01,0.037,0.015,0.007,0.0,0.0,0.0,0.0
saturday,3,errands,2.0,0.007,0.067,0.055,0.012,0.002,0.0,0.0,0.0
saturday,3,errands,5.0,0.0,0.08,0.144,0.117,0.015,0.017,0.0,0.0
saturday,3,errands,10.0,0.0,0.002,0.04,0.06,0.057,0.025,0.002,0.0
saturday,3,errands,20.0,0.0,0.0,0.0,0.012,0.057,0.05,0.012,0.0
saturday,3,errands,50.0,0.0,0.0,0.0,0.0,0.007,0.035,0.012,0.0
saturday,3,errands,100.0,0.0,0.0,0.0,0.0,0.0,0.0,0.002,0.015
saturday,3,errands,200.0,0.0,0.0,0.0,0.0,0.0,0.0,0.0,0.007
sunday,3,errands,0.5,0.0,0.007,0.0,0.0,0.0,0.0,0.0,0.0
sunday,3,errands,1.0,0.0,0.014,0.007,0.007,0.0,0.0,0.0,0.0
sunday,3,errands,2.0,0.0,0.072,0.014,0.0,0.0,0.0,0.0,0.0
sunday,3,errands,5.0,0.0,0.051,0.145,0.08,0.007,0.014,0.0,0.0
sunday,3,errands,10.0,0.0,0.014,0.072,0.116,0.022,0.007,0.014,0.0
sunday,3,errands,20.0,0.0,0.0,0.0,0.022,0.065,0.029,0.007,0.0
sunday,3,errands,50.0,0.0,0.0,0.0,0.0,0.029,0.043,0.036,0.0
sunday,3,errands,100.0,0.0,0.0,0.0,0.0,0.0,0.0,0.022,0.036
sunday,3,errands,200.0,0.0,0.0,0.0,0.0,0.0,0.0,0.0,0.043
saturday,4,home,0.5,0.004,0.013,0.0,0.0,0.0,0.0,0.0,0.0
saturday,4,home,1.0,0.011,0.038,0.011,0.005,0.0,0.0,0.0,0.0
saturday,4,home,2.0,0.018,0.059,0.059,0.023,0.011,0.0,0.0,0.0
saturday,4,home,5.0,0.0,0.091,0.107,0.081,0.014,0.014,0.0,0.0
saturday,4,home,10.0,0.0,0.004,0.038,0.106,0.061,0.03,0.002,0.0
saturday,4,home,20.0,0.0,0.0,0.004,0.014,0.052,0.036,0.0,0.0
saturday,4,home,50.0,0.0,0.0,0.0,0.0,0.014,0.034,0.007,0.0
saturday,4,home,100.0,0.0,0.0,0.0,0.0,0.0,0.0,0.005,0.02
saturday,4,home,200.0,0.0,0.0,0.0,0.0,0.0,0.0,0.0,0.016
sunday,4,home,0.5,0.003,0.0,0.0,0.0,0.0,0.0,0.0,0.0
sunday,4,home,1.0,0.0,0.033,0.0,0.0,0.0,0.0,0.0,0.0
sunday,4,home,2.0,0.0,0.064,0.033,0.003,0.003,0.0,0.0,0.0
sunday,4,home,5.0,0.0,0.047,0.114,0.1,0.027,0.003,0.0,0.0
sunday,4,home,10.0,0.0,0.003,0.06,0.06,0.064,0.027,0.0,0.0
sunday,4,home,20.0,0.0,0.0,0.0,0.02,0.08,0.077,0.0,0.0
sunday,4,home,50.0,0.0,0.0,0.0,0.0,0.017,0.084,0.013,0.0
sunday,4,home,100.0,0.0,0.0,0.0,0.0,0.0,0.0,0.007,0.027
sunday,4,home,200.0,0.0,0.0,0.0,0.0,0.0,0.0,0.0,0.03
saturday,4,work,0.5,0.0,0.0,0.0,0.0,0.0,0.0,0.0,0.0
saturday,4,work,1.0,0.0,0.0,0.0,0.0,0.0,0.0,0.0,0.0
saturday,4,work,2.0,0.0,0.0,0.019,0.0,0.0,0.0,0.0,0.0
saturday,4,work,5.0,0.0,0.019,0.113,0.038,0.0,0.0,0.0,0.0
saturday,4,work,10.0,0.0,0.0,0.057,0.226,0.038,0.038,0.0,0.0
saturday,4,work,20.0,0.0,0.0,0.019,0.038,0.038,0.057,0.0,0.0
saturday,4,work,50.0,0.0,0.0,0.0,0.0,0.113,0.038,0.057,0.0
saturday,4,work,100.0,0.0,0.0,0.0,0.0,0.0,0.0,0.0,0.075
saturday,4,work,200.0,0.0,0.0,0.0,0.0,0.0,0.0,0.0,0.019
sunday,4,work,0.5,0.063,0.0,0.0,0.0,0.0,0.0,0.0,0.0
sunday,4,work,1.0,0.0,0.0,0.0,0.0,0.0,0.0,0.0,0.0
sunday,4,work,2.0,0.0,0.063,0.0,0.0,0.0,0.0,0.0,0.0
sunday,4,work,5.0,0.0,0.0,0.063,0.188,0.063,0.0,0.0,0.0
sunday,4,work,10.0,0.0,0.0,0.0,0.063,0.063,0.0,0.0,0.0
sunday,4,work,20.0,0.0,0.0,0.0,0.0,0.063,0.063,0.0,0.0
sunday,4,work,50.0,0.0,0.0,0.0,0.0,0.0,0.125,0.063,0.0
sunday,4,work,100.0,0.0,0.0,0.0,0.0,0.0,0.0,0.0,0.0
sunday,4,work,200.0,0.0,0.0,0.0,0.0,0.0,0.0,0.0,0.125
saturday,4,leisure,0.5,0.0,0.009,0.0,0.0,0.0,0.0,0.0,0.0
saturday,4,leisure,1.0,0.0,0.028,0.014,0.0,0.0,0.0,0.0,0.0
saturday,4,leisure,2.0,0.009,0.042,0.047,0.014,0.005,0.0,0.0,0.0
saturday,4,leisure,5.0,0.0,0.047,0.107,0.088,0.023,0.005,0.0,0.0
saturday,4,leisure,10.0,0.0,0.0,0.051,0.112,0.056,0.023,0.0,0.0
saturday,4,leisure,20.0,0.0,0.0,0.005,0.037,0.074,0.033,0.009,0.0
saturday,4,leisure,50.0,0.0,0.0,0.0,0.0,0.009,0.07,0.019,0.0
saturday,4,leisure,100.0,0.0,0.0,0.0,0.0,0.0,0.0,0.014,0.028
saturday,4,leisure,200.0,0.0,0.0,0.0,0.0,0.0,0.0,0.0,0.023
sunday,4,leisure,0.5,0.0,0.005,0.0,0.0,0.0,0.0,0.0,0.0
sunday,4,leisure,1.0,0.0,0.025,0.005,0.0,0.0,0.0,0.0,0.0
sunday,4,leisure,2.0,0.0,0.065,0.01,0.015,0.0,0.0,0.0,0.0
sunday,4,leisure,5.0,0.0,0.045,0.114,0.075,0.035,0.01,0.0,0.0
sunday,4,leisure,10.0,0.0,0.0,0.035,0.045,0.065,0.01,0.01,0.0
sunday,4,leisure,20.0,0.0,0.0,0.0,0.02,0.09,0.109,0.005,0.0
sunday,4,leisure,50.0,0.0,0.0,0.0,0.0,0.01,0.09,0.035,0.0
sunday,4,leisure,100.0,0.0,0.0,0.0,0.0,0.0,0.0,0.025,0.03
sunday,4,leisure,200.0,0.0,0.0,0.0,0.0,0.0,0.0,0.0,0.02
saturday,4,errands,0.5,0.0,0.018,0.0,0.0,0.0,0.0,0.0,0.0
saturday,4,errands,1.0,0.009,0.048,0.011,0.005,0.0,0.0,0.0,0.0
saturday,4,errands,2.0,0.018,0.08,0.046,0.022,0.0,0.0,0.0,0.0
saturday,4,errands,5.0,0.0,0.084,0.128,0.095,0.022,0.015,0.0,0.0
saturday,4,errands,10.0,0.0,0.005,0.04,0.091,0.057,0.031,0.002,0.0
saturday,4,errands,20.0,0.0,0.0,0.004,0.024,0.044,0.02,0.005,0.0
saturday,4,errands,50.0,0.0,0.0,0.0,0.0,0.004,0.024,0.015,0.0
saturday,4,errands,100.0,0.0,0.0,0.0,0.0,0.0,0.0,0.007,0.016
saturday,4,errands,200.0,0.0,0.0,0.0,0.0,0.0,0.0,0.0,0.009
sunday,4,errands,0.5,0.0,0.017,0.0,0.0,0.0,0.0,0.0,0.0
sunday,4,errands,1.0,0.0,0.056,0.006,0.006,0.0,0.0,0.0,0.0
sunday,4,errands,2.0,0.006,0.073,0.022,0.017,0.0,0.0,0.0,0.0
sunday,4,errands,5.0,0.0,0.045,0.117,0.101,0.028,0.006,0.0,0.0
sunday,4,errands,10.0,0.0,0.022,0.056,0.073,0.045,0.006,0.0,0.0
sunday,4,errands,20.0,0.0,0.0,0.0,0.028,0.095,0.034,0.006,0.0
sunday,4,errands,50.0,0.0,0.0,0.0,0.0,0.022,0.039,0.022,0.0
sunday,4,errands,100.0,0.0,0.0,0.0,0.0,0.0,0.0,0.011,0.022
sunday,4,errands,200.0,0.0,0.0,0.0,0.0,0.0,0.0,0.0,0.022
saturday,5,home,0.5,0.006,0.006,0.0,0.0,0.0,0.0,0.0,0.0
saturday,5,home,1.0,0.006,0.066,0.018,0.012,0.0,0.0,0.0,0.0
saturday,5,home,2.0,0.012,0.06,0.024,0.0,0.0,0.0,0.0,0.0
saturday,5,home,5.0,0.0,0.042,0.163,0.102,0.024,0.006,0.0,0.0
saturday,5,home,10.0,0.0,0.006,0.06,0.06,0.042,0.018,0.006,0.0
saturday,5,home,20.0,0.0,0.0,0.0,0.042,0.048,0.036,0.006,0.0
saturday,5,home,50.0,0.0,0.0,0.0,0.0,0.006,0.048,0.042,0.0
saturday,5,home,100.0,0.0,0.0,0.0,0.0,0.0,0.0,0.012,0.018
saturday,5,home,200.0,0.0,0.0,0.0,0.0,0.0,0.0,0.0,0.0
sunday,5,home,0.5,0.0,0.0,0.0,0.0,0.0,0.0,0.0,0.0
sunday,5,home,1.0,0.0,0.031,0.0,0.0,0.0,0.0,0.0,0.0
sunday,5,home,2.0,0.016,0.078,0.031,0.0,0.0,0.0,0.0,0.0
sunday,5,home,5.0,0.0,0.031,0.109,0.141,0.016,0.016,0.0,0.0
sunday,5,home,10.0,0.0,0.0,0.047,0.094,0.094,0.016,0.0,0.0
sunday,5,home,20.0,0.0,0.0,0.0,0.031,0.078,0.0,0.0,0.0
sunday,5,home,50.0,0.0,0.0,0.0,0.0,0.016,0.062,0.016,0.0
sunday,5,home,100.0,0.0,0.0,0.0,0.0,0.0,0.0,0.0,0.047
sunday,5,home,200.0,0.0,0.0,0.0,0.0,0.0,0.0,0.0,0.031
saturday,5,work,0.5,0.0,0.043,0.0,0.0,0.0,0.0,0.0,0.0
saturday,5,work,1.0,0.0,0.0,0.0,0.0,0.0,0.0,0.0,0.0
saturday,5,work,2.0,0.0,0.217,0.0,0.0,0.0,0.0,0.0,0.0
saturday,5,work,5.0,0.0,0.043,0.043,0.043,0.0,0.043,0.0,0.0
saturday,5,work,10.0,0.0,0.0,0.043,0.087,0.087,0.087,0.0,0.0
saturday,5,work,20.0,0.0,0.0,0.0,0.043,0.087,0.043,0.043,0.0
saturday,5,work,50.0,0.0,0.0,0.0,0.0,0.0,0.0,0.0,0.0
saturday,5,work,100.0,0.0,0.0,0.0,0.0,0.0,0.0,0.043,0.0
saturday,5,work,200.0,0.0,0.0,0.0,0.0,0.0,0.0,0.0,0.0
sunday,5,work,0.5,0.0,0.0,0.0,0.0,0.0,0.0,0.0,0.0
sunday,5,work,1.0,0.0,0.0,0.0,0.0,0.0,0.0,0.0,0.0
sunday,5,work,2.0,0.0,0.0,0.0,0.0,0.0,0.0,0.0,0.0
sunday,5,work,5.0,0.0,0.0,0.111,0.111,0.222,0.0,0.0,0.0
sunday,5,work,10.0,0.0,0.0,0.0,0.111,0.111,0.0,0.0,0.0
sunday,5,work,20.0,0.0,0.0,0.0,0.222,0.0,0.0,0.0,0.0
sunday,5,work,50.0,0.0,0.0,0.0,0.0,0.0,0.111,0.0,0.0
sunday,5,work,100.0,0.0,0.0,0.0,0.0,0.0,0.0,0.0,0.0
sunday,5,work,200.0,0.0,0.0,0.0,0.0,0.0,0.0,0.0,0.0
saturday,5,leisure,0.5,0.0,0.0,0.0,0.0,0.0,0.0,0.0,0.0
saturday,5,leisure,1.0,0.0,0.043,0.0,0.014,0.0,0.0,0.0,0.0
saturday,5,leisure,2.0,0.0,0.072,0.0,0.0,0.0,0.0,0.0,0.0
saturday,5,leisure,5.0,0.0,0.029,0.087,0.116,0.014,0.029,0.0,0.0
saturday,5,leisure,10.0,0.0,0.0,0.043,0.072,0.072,0.0,0.0,0.0
saturday,5,leisure,20.0,0.0,0.0,0.029,0.058,0.072,0.043,0.0,0.0
saturday,5,leisure,50.0,0.0,0.0,0.0,0.0,0.0,0.101,0.0,0.0
saturday,5,leisure,100.0,0.0,0.0,0.0,0.0,0.0,0.0,0.0,0.029
saturday,5,leisure,200.0,0.0,0.0,0.0,0.0,0.0,0.0,0.0,0.072
sunday,5,leisure,0.5,0.0,0.0,0.0,0.0,0.0,0.0,0.0,0.0
sunday,5,leisure,1.0,0.0,0.027,0.0,0.0,0.0,0.0,0.0,0.0
sunday,5,leisure,2.0,0.0,0.027,0.067,0.013,0.0,0.0,0.0,0.0
sunday,5,leisure,5.0,0.0,0.027,0.133,0.093,0.013,0.027,0.0,0.0
sunday,5,leisure,10.0,0.0,0.0,0.08,0.053,0.067,0.053,0.0,0.0
sunday,5,leisure,20.0,0.0,0.0,0.0,0.093,0.08,0.013,0.0,0.0
sunday,5,leisure,50.0,0.0,0.0,0.0,0.0,0.0,0.053,0.04,0.0
sunday,5,leisure,100.0,0.0,0.0,0.0,0.0,0.0,0.0,0.0,0.027
sunday,5,leisure,200.0,0.0,0.0,0.0,0.0,0.0,0.0,0.0,0.013
saturday,5,errands,0.5,0.011,0.0,0.0,0.0,0.0,0.0,0.0,0.0
saturday,5,errands,1.0,0.022,0.083,0.0,0.004,0.0,0.0,0.0,0.0
saturday,5,errands,2.0,0.007,0.09,0.036,0.007,0.004,0.0,0.0,0.0
saturday,5,errands,5.0,0.0,0.083,0.122,0.061,0.022,0.007,0.0,0.0
saturday,5,errands,10.0,0.0,0.004,0.05,0.112,0.061,0.018,0.004,0.0
saturday,5,errands,20.0,0.0,0.0,0.004,0.004,0.047,0.022,0.011,0.0
saturday,5,errands,50.0,0.0,0.0,0.0,0.0,0.011,0.04,0.025,0.0
saturday,5,errands,100.0,0.0,0.0,0.0,0.0,0.0,0.0,0.011,0.014
saturday,5,errands,200.0,0.0,0.0,0.0,0.0,0.0,0.0,0.0,0.007
sunday,5,errands,0.5,0.0,0.0,0.0,0.0,0.0,0.0,0.0,0.0
sunday,5,errands,1.0,0.0,0.033,0.0,0.0,0.0,0.0,0.0,0.0
sunday,5,errands,2.0,0.017,0.117,0.083,0.0,0.0,0.0,0.0,0.0
sunday,5,errands,5.0,0.0,0.117,0.117,0.083,0.017,0.017,0.0,0.0
sunday,5,errands,10.0,0.0,0.0,0.017,0.083,0.05,0.017,0.0,0.0
sunday,5,errands,20.0,0.0,0.0,0.0,0.083,0.017,0.05,0.0,0.0
sunday,5,errands,50.0,0.0,0.0,0.0,0.0,0.0,0.017,0.033,0.0
sunday,5,errands,100.0,0.0,0.0,0.0,0.0,0.0,0.0,0.0,0.017
sunday,5,errands,200.0,0.0,0.0,0.0,0.0,0.0,0.0,0.0,0.017
