days,ntrips,destination,km,5,10,15,20,30,45,60,120
weekday,1,home,0.5,0.0,0.0,0.0,0.0,0.0,0.0,0.0,0.0
weekday,1,home,1.0,0.0,0.0,0.0,0.0,0.0,0.0,0.0,0.0
weekday,1,home,2.0,0.0,0.0,0.0,0.0,0.0,0.0,0.0,0.0
weekday,1,home,5.0,0.0,0.0,0.0,0.0,0.0,0.032,0.0,0.0
weekday,1,home,10.0,0.0,0.0,0.0,0.0,0.0,0.0,0.0,0.0
weekday,1,home,20.0,0.0,0.0,0.0,0.0,0.0,0.0,0.0,0.0
weekday,1,home,50.0,0.0,0.0,0.0,0.0,0.0,0.0,0.0,0.0
weekday,1,home,100.0,0.0,0.0,0.0,0.0,0.0,0.0,0.0,0.065
weekday,1,home,200.0,0.0,0.0,0.0,0.0,0.0,0.0,0.0,0.903
weekday,1,work,0.5,0.0,0.0,0.0,0.0,0.0,0.0,0.0,0.0
weekday,1,work,1.0,0.0,0.0,0.0,0.0,0.0,0.0,0.0,0.0
weekday,1,work,2.0,0.0,0.0,0.0,0.0,0.0,0.0,0.0,0.0
weekday,1,work,5.0,0.0,0.0,0.0,0.0,0.0,0.0,0.0,0.0
weekday,1,work,10.0,0.0,0.0,0.0,0.0,0.0,0.0,0.0,0.0
weekday,1,work,20.0,0.0,0.0,0.0,0.0,0.0,0.0,0.0,0.0
weekday,1,work,50.0,0.0,0.0,0.0,0.0,0.0,0.0,0.0,0.0
weekday,1,work,100.0,0.0,0.0,0.0,0.0,0.0,0.0,0.0,0.2
weekday,1,work,200.0,0.0,0.0,0.0,0.0,0.0,0.0,0.0,0.8
weekday,1,leisure,0.5,0.0,0.0,0.0,0.0,0.0,0.0,0.0,0.0
weekday,1,leisure,1.0,0.0,0.0,0.0,0.0,0.0,0.0,0.0,0.0
weekday,1,leisure,2.0,0.0,0.0,0.0,0.0,0.0,0.0,0.0,0.0
weekday,1,leisure,5.0,0.0,0.0,0.0,0.0,0.0,0.0,0.0,0.0
weekday,1,leisure,10.0,0.0,0.0,0.0,0.0,0.0,0.0,0.0,0.0
weekday,1,leisure,20.0,0.0,0.0,0.0,0.0,0.0,0.0,0.0,0.0
weekday,1,leisure,50.0,0.0,0.0,0.0,0.0,0.0,0.0,0.0,0.0
weekday,1,leisure,100.0,0.0,0.0,0.0,0.0,0.0,0.0,0.0,0.1
weekday,1,leisure,200.0,0.0,0.0,0.0,0.0,0.0,0.0,0.0,0.9
weekday,1,errands,0.5,0.0,0.0,0.0,0.0,0.0,0.0,0.0,0.0
weekday,1,errands,1.0,0.0,0.0,0.0,0.0,0.0,0.0,0.0,0.0
weekday,1,errands,2.0,0.0,0.0,0.0,0.0,0.0,0.0,0.0,0.0
weekday,1,errands,5.0,0.0,0.0,0.0,0.0,0.0,0.0,0.0,0.0
weekday,1,errands,10.0,0.0,0.0,0.0,0.0,0.0,0.0,0.0,0.0
weekday,1,errands,20.0,0.0,0.0,0.0,0.0,0.0,0.0,0.0,0.0
weekday,1,errands,50.0,0.0,0.0,0.0,0.0,0.0,0.0,0.0,0.0
weekday,1,errands,100.0,0.0,0.0,0.0,0.0,0.0,0.0,0.0,0.364
weekday,1,errands,200.0,0.0,0.0,0.0,0.0,0.0,0.0,0.0,0.636
weekday,2,home,0.5,0.0,0.006,0.0,0.0,0.0,0.0,0.0,0.0
weekday,2,home,1.0,0.0,0.0,0.0,0.006,0.0,0.0,0.0,0.0
weekday,2,home,2.0,0.0,0.0,0.0,0.0,0.0,0.0,0.0,0.0
weekday,2,home,5.0,0.0,0.0,0.012,0.018,0.012,0.006,0.0,0.0
weekday,2,home,10.0,0.0,0.0,0.006,0.012,0.006,0.006,0.0,0.0
weekday,2,home,20.0,0.0,0.0,0.0,0.012,0.012,0.012,0.006,0.0
weekday,2,home,50.0,0.0,0.0,0.0,0.0,0.0,0.018,0.018,0.0
weekday,2,home,100.0,0.0,0.0,0.0,0.0,0.0,0.0,0.006,0.297
weekday,2,home,200.0,0.0,0.0,0.0,0.0,0.0,0.0,0.0,0.527
weekday,2,work,0.5,0.0,0.0,0.0,0.0,0.0,0.0,0.0,0.0
weekday,2,work,1.0,0.0,0.0,0.0,0.0,0.0,0.0,0.0,0.0
weekday,2,work,2.0,0.0,0.0,0.0,0.0,0.0,0.0,0.0,0.0
weekday,2,work,5.0,0.0,0.0,0.0,0.01,0.0,0.0,0.0,0.0
weekday,2,work,10.0,0.0,0.0,0.01,0.0,0.019,0.0,0.0,0.0
weekday,2,work,20.0,0.0,0.0,0.0,0.019,0.01,0.019,0.0,0.0
weekday,2,work,50.0,0.0,0.0,0.0,0.0,0.0,0.0,0.019,0.0
weekday,2,work,100.0,0.0,0.0,0.0,0.0,0.0,0.0,0.0,0.34
weekday,2,work,200.0,0.0,0.0,0.0,0.0,0.0,0.0,0.0,0.553
weekday,2,leisure,0.5,0.0,0.0,0.0,0.0,0.0,0.0,0.0,0.0
weekday,2,leisure,1.0,0.0,0.0,0.0,0.0,0.0,0.0,0.0,0.0
weekday,2,leisure,2.0,0.0,0.0,0.0,0.0,0.0,0.0,0.0,0.0
weekday,2,leisure,5.0,0.0,0.0,0.0,0.0,0.0,0.0,0.0,0.0
weekday,2,leisure,10.0,0.0,0.0,0.0,0.0,0.024,0.024,0.0,0.0
weekday,2,leisure,20.0,0.0,0.0,0.024,0.0,0.0,0.0,0.024,0.0
weekday,2,leisure,50.0,0.0,0.0,0.0,0.0,0.0,0.0,0.0,0.0
weekday,2,leisure,100.0,0.0,0.0,0.0,0.0,0.0,0.0,0.0,0.22
weekday,2,leisure,200.0,0.0,0.0,0.0,0.0,0.0,0.0,0.0,0.683
weekday,2,errands,0.5,0.0,0.0,0.0,0.0,0.0,0.0,0.0,0.0
weekday,2,errands,1.0,0.0,0.0,0.0,0.0,0.0,0.0,0.0,0.0
weekday,2,errands,2.0,0.0,0.017,0.0,0.0,0.0,0.0,0.0,0.0
weekday,2,errands,5.0,0.0,0.0,0.017,0.017,0.052,0.086,0.0,0.0
weekday,2,errands,10.0,0.0,0.0,0.017,0.0,0.017,0.0,0.0,0.0
weekday,2,errands,20.0,0.0,0.0,0.0,0.0,0.0,0.017,0.0,0.0
weekday,2,errands,50.0,0.0,0.0,0.0,0.0,0.0,0.017,0.034,0.0
weekday,2,errands,100.0,0.0,0.0,0.0,0.0,0.0,0.0,0.0,0.293
weekday,2,errands,200.0,0.0,0.0,0.0,0.0,0.0,0.0,0.0,0.414
weekday,3,home,0.5,0.0,0.0,0.0,0.0,0.0,0.0,0.0,0.0
weekday,3,home,1.0,0.0,0.01,0.0,0.01,0.0,0.0,0.0,0.0
weekday,3,home,2.0,0.01,0.03,0.0,0.01,0.0,0.0,0.0,0.0
weekday,3,home,5.0,0.0,0.02,0.04,0.03,0.01,0.02,0.0,0.0
weekday,3,home,10.0,0.0,0.0,0.051,0.03,0.02,0.04,0.0,0.0
weekday,3,home,20.0,0.0,0.0,0.01,0.03,0.02,0.051,0.01,0.0
weekday,3,home,50.0,0.0,0.0,0.0,0.0,0.01,0.071,0.061,0.0
weekday,3,home,100.0,0.0,0.0,0.0,0.0,0.0,0.0,0.02,0.172
weekday,3,home,200.0,0.0,0.0,0.0,0.0,0.0,0.0,0.0,0.212
weekday,3,work,0.5,0.0,0.0,0.0,0.0,0.0,0.0,0.0,0.0
weekday,3,work,1.0,0.0,0.0,0.0,0.0,0.0,0.0,0.0,0.0
weekday,3,work,2.0,0.0,0.025,0.0,0.0,0.0,0.0,0.0,0.0
weekday,3,work,5.0,0.0,0.012,0.0,0.038,0.025,0.0,0.0,0.0
weekday,3,work,10.0,0.0,0.012,0.0,0.025,0.038,0.025,0.0,0.0
weekday,3,work,20.0,0.0,0.0,0.012,0.0,0.025,0.05,0.025,0.0
weekday,3,work,50.0,0.0,0.0,0.0,0.0,0.025,0.075,0.05,0.0
weekday,3,work,100.0,0.0,0.0,0.0,0.0,0.0,0.0,0.038,0.3
weekday,3,work,200.0,0.0,0.0,0.0,0.0,0.0,0.0,0.0,0.2
weekday,3,leisure,0.5,0.0,0.0,0.0,0.0,0.0,0.0,0.0,0.0
weekday,3,leisure,1.0,0.0,0.027,0.0,0.0,0.0,0.0,0.0,0.0
weekday,3,leisure,2.0,0.0,0.0,0.0,0.0,0.0,0.0,0.0,0.0
weekday,3,leisure,5.0,0.0,0.027,0.027,0.027,0.0,0.0,0.0,0.0
weekday,3,leisure,10.0,0.0,0.0,0.027,0.027,0.054,0.0,0.0,0.0
weekday,3,leisure,20.0,0.0,0.0,0.0,0.0,0.081,0.027,0.0,0.0
weekday,3,leisure,50.0,0.0,0.0,0.0,0.0,0.0,0.081,0.162,0.0
weekday,3,leisure,100.0,0.0,0.0,0.0,0.0,0.0,0.0,0.0,0.135
weekday,3,leisure,200.0,0.0,0.0,0.0,0.0,0.0,0.0,0.0,0.297
weekday,3,errands,0.5,0.0,0.0,0.0,0.0,0.0,0.0,0.0,0.0
weekday,3,errands,1.0,0.0,0.0,0.0,0.0,0.0,0.0,0.0,0.0
weekday,3,errands,2.0,0.0,0.049,0.033,0.016,0.0,0.0,0.0,0.0
weekday,3,errands,5.0,0.0,0.016,0.066,0.033,0.049,0.016,0.0,0.0
weekday,3,errands,10.0,0.0,0.0,0.033,0.033,0.016,0.033,0.033,0.0
weekday,3,errands,20.0,0.0,0.0,0.0,0.016,0.066,0.016,0.016,0.0
weekday,3,errands,50.0,0.0,0.0,0.0,0.0,0.0,0.033,0.016,0.0
weekday,3,errands,100.0,0.0,0.0,0.0,0.0,0.0,0.0,0.016,0.197
weekday,3,errands,200.0,0.0,0.0,0.0,0.0,0.0,0.0,0.0,0.197
weekday,4,home,0.5,0.0,0.0,0.004,0.0,0.0,0.0,0.0,0.0
weekday,4,home,1.0,0.0,0.008,0.0,0.0,0.0,0.0,0.0,0.0
weekday,4,home,2.0,0.008,0.016,0.029,0.008,0.004,0.0,0.0,0.0
weekday,4,home,5.0,0.0,0.012,0.115,0.049,0.008,0.004,0.0,0.0
weekday,4,home,10.0,0.0,0.004,0.021,0.062,0.033,0.037,0.0,0.0
weekday,4,home,20.0,0.0,0.0,0.0,0.004,0.037,0.086,0.025,0.0
weekday,4,home,50.0,0.0,0.0,0.0,0.0,0.016,0.066,0.078,0.0
weekday,4,home,100.0,0.0,0.0,0.0,0.0,0.0,0.0,0.008,0.177
weekday,4,home,200.0,0.0,0.0,0.0,0.0,0.0,0.0,0.0,0.078
weekday,4,work,0.5,0.0,0.0,0.0,0.0,0.0,0.0,0.0,0.0
weekday,4,work,1.0,0.0,0.0,0.008,0.016,0.0,0.0,0.0,0.0
weekday,4,work,2.0,0.0,0.008,0.0,0.0,0.0,0.0,0.0,0.0
weekday,4,work,5.0,0.0,0.0,0.008,0.033,0.008,0.0,0.0,0.0
weekday,4,work,10.0,0.0,0.0,0.016,0.0,0.016,0.016,0.0,0.0
weekday,4,work,20.0,0.0,0.0,0.0,0.016,0.057,0.114,0.024,0.0
weekday,4,work,50.0,0.0,0.0,0.0,0.0,0.024,0.089,0.106,0.0
weekday,4,work,100.0,0.0,0.0,0.0,0.0,0.0,0.0,0.041,0.26
weekday,4,work,200.0,0.0,0.0,0.0,0.0,0.0,0.0,0.0,0.138
weekday,4,leisure,0.5,0.0,0.0,0.012,0.0,0.0,0.0,0.0,0.0
weekday,4,leisure,1.0,0.0,0.0,0.012,0.0,0.0,0.0,0.0,0.0
weekday,4,leisure,2.0,0.0,0.023,0.0,0.0,0.012,0.0,0.0,0.0
weekday,4,leisure,5.0,0.0,0.035,0.07,0.047,0.035,0.0,0.0,0.0
weekday,4,leisure,10.0,0.0,0.0,0.012,0.047,0.035,0.058,0.012,0.0
weekday,4,leisure,20.0,0.0,0.0,0.0,0.035,0.047,0.058,0.0,0.0
weekday,4,leisure,50.0,0.0,0.0,0.0,0.0,0.0,0.07,0.093,0.0
weekday,4,leisure,100.0,0.0,0.0,0.0,0.0,0.0,0.0,0.0,0.221
weekday,4,leisure,200.0,0.0,0.0,0.0,0.0,0.0,0.0,0.0,0.07
weekday,4,errands,0.5,0.0,0.0,0.007,0.0,0.0,0.0,0.0,0.0
weekday,4,errands,1.0,0.007,0.014,0.007,0.007,0.0,0.0,0.0,0.0
weekday,4,errands,2.0,0.007,0.048,0.054,0.0,0.0,0.0,0.0,0.0
weekday,4,errands,5.0,0.0,0.0,0.109,0.075,0.02,0.02,0.0,0.0
weekday,4,errands,10.0,0.0,0.007,0.02,0.068,0.02,0.041,0.007,0.0
weekday,4,errands,20.0,0.0,0.0,0.0,0.027,0.041,0.088,0.034,0.0
weekday,4,errands,50.0,0.0,0.0,0.0,0.0,0.014,0.054,0.061,0.0
weekday,4,errands,100.0,0.0,0.0,0.0,0.0,0.0,0.0,0.027,0.075
weekday,4,errands,200.0,0.0,0.0,0.0,0.0,0.0,0.0,0.0,0.041
weekday,5,home,0.5,0.0,0.009,0.0,0.0,0.0,0.0,0.0,0.0
weekday,5,home,1.0,0.0,0.0,0.0,0.0,0.0,0.0,0.0,0.0
weekday,5,home,2.0,0.0,0.028,0.028,0.019,0.0,0.0,0.0,0.0
weekday,5,home,5.0,0.0,0.046,0.074,0.074,0.037,0.037,0.0,0.0
weekday,5,home,10.0,0.0,0.019,0.056,0.065,0.028,0.037,0.0,0.0
weekday,5,home,20.0,0.0,0.0,0.0,0.019,0.074,0.037,0.019,0.0
weekday,5,home,50.0,0.0,0.0,0.0,0.0,0.0,0.056,0.074,0.0
weekday,5,home,100.0,0.0,0.0,0.0,0.0,0.0,0.0,0.019,0.093
weekday,5,home,200.0,0.0,0.0,0.0,0.0,0.0,0.0,0.0,0.056
weekday,5,work,0.5,0.0,0.0,0.0,0.0,0.0,0.0,0.0,0.0
weekday,5,work,1.0,0.0,0.0,0.0,0.014,0.0,0.0,0.0,0.0
weekday,5,work,2.0,0.0,0.0,0.029,0.014,0.0,0.0,0.0,0.0
weekday,5,work,5.0,0.0,0.0,0.057,0.029,0.014,0.014,0.0,0.0
weekday,5,work,10.0,0.0,0.0,0.0,0.057,0.0,0.0,0.0,0.0
weekday,5,work,20.0,0.0,0.0,0.0,0.014,0.043,0.029,0.029,0.0
weekday,5,work,50.0,0.0,0.0,0.0,0.0,0.114,0.129,0.086,0.0
weekday,5,work,100.0,0.0,0.0,0.0,0.0,0.0,0.0,0.071,0.129
weekday,5,work,200.0,0.0,0.0,0.0,0.0,0.0,0.0,0.0,0.129
weekday,5,leisure,0.5,0.0,0.0,0.0,0.0,0.0,0.0,0.0,0.0
weekday,5,leisure,1.0,0.0,0.0,0.0,0.0,0.0,0.0,0.0,0.0
weekday,5,leisure,2.0,0.0,0.0,0.067,0.0,0.0,0.0,0.0,0.0
weekday,5,leisure,5.0,0.0,0.033,0.033,0.033,0.033,0.033,0.0,0.0
weekday,5,leisure,10.0,0.0,0.033,0.067,0.0,0.1,0.033,0.067,0.0
weekday,5,leisure,20.0,0.0,0.0,0.0,0.0,0.033,0.033,0.0,0.0
weekday,5,leisure,50.0,0.0,0.0,0.0,0.0,0.0,0.1,0.033,0.0
weekday,5,leisure,100.0,0.0,0.0,0.0,0.0,0.0,0.0,0.0,0.1
weekday,5,leisure,200.0,0.0,0.0,0.0,0.0,0.0,0.0,0.0,0.167
weekday,5,errands,0.5,0.0,0.01,0.0,0.0,0.0,0.0,0.0,0.0
weekday,5,errands,1.0,0.0,0.029,0.0,0.0,0.0,0.0,0.0,0.0
weekday,5,errands,2.0,0.0,0.048,0.029,0.0,0.0,0.0,0.0,0.0
weekday,5,errands,5.0,0.0,0.038,0.086,0.019,0.029,0.01,0.0,0.0
weekday,5,errands,10.0,0.0,0.01,0.029,0.067,0.019,0.086,0.0,0.0
weekday,5,errands,20.0,0.0,0.0,0.0,0.038,0.076,0.067,0.0,0.0
weekday,5,errands,50.0,0.0,0.0,0.0,0.0,0.048,0.076,0.048,0.0
weekday,5,errands,100.0,0.0,0.0,0.0,0.0,0.0,0.0,0.01,0.124
weekday,5,errands,200.0,0.0,0.0,0.0,0.0,0.0,0.0,0.0,0.01
saturday,1,home,0.5,0.009,0.0,0.0,0.0,0.0,0.0,0.0,0.0
saturday,1,home,1.0,0.0,0.018,0.0,0.0,0.0,0.0,0.0,0.0
saturday,1,home,2.0,0.0,0.027,0.036,0.018,0.018,0.0,0.0,0.0
saturday,1,home,5.0,0.0,0.027,0.108,0.045,0.027,0.0,0.0,0.0
saturday,1,home,10.0,0.0,0.0,0.063,0.081,0.018,0.0,0.0,0.0
saturday,1,home,20.0,0.0,0.0,0.018,0.027,0.045,0.027,0.0,0.0
saturday,1,home,50.0,0.0,0.0,0.0,0.0,0.009,0.063,0.045,0.0
saturday,1,home,100.0,0.0,0.0,0.0,0.0,0.0,0.0,0.018,0.054
saturday,1,home,200.0,0.0,0.0,0.0,0.0,0.0,0.0,0.0,0.198
sunday,1,home,0.5,0.0,0.0,0.0,0.0,0.0,0.0,0.0,0.0
sunday,1,home,1.0,0.005,0.0,0.005,0.0,0.0,0.0,0.0,0.0
sunday,1,home,2.0,0.0,0.032,0.011,0.032,0.0,0.0,0.0,0.0
sunday,1,home,5.0,0.0,0.027,0.053,0.037,0.005,0.016,0.0,0.0
sunday,1,home,10.0,0.0,0.011,0.016,0.053,0.021,0.0,0.0,0.0
sunday,1,home,20.0,0.0,0.0,0.0,0.016,0.048,0.021,0.0,0.0
sunday,1,home,50.0,0.0,0.0,0.0,0.0,0.021,0.064,0.021,0.0
sunday,1,home,100.0,0.0,0.0,0.0,0.0,0.0,0.0,0.016,0.08
sunday,1,home,200.0,0.0,0.0,0.0,0.0,0.0,0.0,0.0,0.388
saturday,1,work,0.5,0.0,0.0,0.0,0.0,0.0,0.0,0.0,0.0
saturday,1,work,1.0,0.0,0.0,0.0,0.0,0.0,0.0,0.0,0.0
saturday,1,work,2.0,0.053,0.053,0.0,0.0,0.0,0.0,0.0,0.0
saturday,1,work,5.0,0.0,0.053,0.263,0.053,0.0,0.0,0.0,0.0
saturday,1,work,10.0,0.0,0.0,0.0,0.105,0.053,0.0,0.0,0.0
saturday,1,work,20.0,0.0,0.0,0.0,0.0,0.0,0.0,0.0,0.0
saturday,1,work,50.0,0.0,0.0,0.0,0.0,0.105,0.053,0.053,0.0
saturday,1,work,100.0,0.0,0.0,0.0,0.0,0.0,0.0,0.0,0.0
saturday,1,work,200.0,0.0,0.0,0.0,0.0,0.0,0.0,0.0,0.158
sunday,1,work,0.5,0.0,0.0,0.0,0.0,0.0,0.0,0.0,0.0
sunday,1,work,1.0,0.0,0.042,0.0,0.0,0.0,0.0,0.0,0.0
sunday,1,work,2.0,0.0,0.042,0.083,0.0,0.042,0.0,0.0,0.0
sunday,1,work,5.0,0.0,0.0,0.167,0.0,0.0,0.0,0.0,0.0
sunday,1,work,10.0,0.0,0.0,0.0,0.083,0.083,0.0,0.042,0.0
sunday,1,work,20.0,0.0,0.0,0.042,0.0,0.083,0.0,0.0,0.0
sunday,1,work,50.0,0.0,0.0,0.0,0.0,0.0,0.083,0.0,0.0
sunday,1,work,100.0,0.0,0.0,0.0,0.0,0.0,0.0,0.042,0.042
sunday,1,work,200.0,0.0,0.0,0.0,0.0,0.0,0.0,0.0,0.125
saturday,1,leisure,0.5,0.0,0.0,0.0,0.0,0.0,0.0,0.0,0.0
saturday,1,leisure,1.0,0.0,0.009,0.0,0.0,0.0,0.0,0.0,0.0
saturday,1,leisure,2.0,0.0,0.043,0.034,0.0,0.0,0.0,0.0,0.0
saturday,1,leisure,5.0,0.0,0.034,0.068,0.051,0.009,0.0,0.0,0.0
saturday,1,leisure,10.0,0.0,0.0,0.0,0.051,0.077,0.026,0.0,0.0
saturday,1,leisure,20.0,0.0,0.0,0.0,0.017,0.051,0.034,0.009,0.0
saturday,1,leisure,50.0,0.0,0.0,0.0,0.0,0.0,0.068,0.051,0.0
saturday,1,leisure,100.0,0.0,0.0,0.0,0.0,0.0,0.0,0.0,0.068
saturday,1,leisure,200.0,0.0,0.0,0.0,0.0,0.0,0.0,0.0,0.299
sunday,1,leisure,0.5,0.0,0.0,0.0,0.0,0.0,0.0,0.0,0.0
sunday,1,leisure,1.0,0.0,0.01,0.01,0.0,0.0,0.0,0.0,0.0
sunday,1,leisure,2.0,0.0,0.02,0.01,0.01,0.0,0.0,0.0,0.0
sunday,1,leisure,5.0,0.0,0.05,0.069,0.05,0.01,0.01,0.0,0.0
sunday,1,leisure,10.0,0.0,0.0,0.03,0.04,0.0,0.04,0.0,0.0
sunday,1,leisure,20.0,0.0,0.0,0.0,0.02,0.05,0.059,0.0,0.0
sunday,1,leisure,50.0,0.0,0.0,0.0,0.0,0.03,0.089,0.05,0.0
sunday,1,leisure,100.0,0.0,0.0,0.0,0.0,0.0,0.0,0.02,0.119
sunday,1,leisure,200.0,0.0,0.0,0.0,0.0,0.0,0.0,0.0,0.208
saturday,1,errands,0.5,0.008,0.0,0.0,0.0,0.0,0.0,0.0,0.0
saturday,1,errands,1.0,0.0,0.03,0.023,0.008,0.0,0.0,0.0,0.0
saturday,1,errands,2.0,0.0,0.075,0.113,0.008,0.0,0.0,0.0,0.0
saturday,1,errands,5.0,0.0,0.045,0.105,0.09,0.038,0.06,0.0,0.0
saturday,1,errands,10.0,0.0,0.008,0.03,0.053,0.023,0.06,0.008,0.0
saturday,1,errands,20.0,0.0,0.0,0.008,0.008,0.015,0.015,0.008,0.0
saturday,1,errands,50.0,0.0,0.0,0.0,0.0,0.03,0.03,0.008,0.0
saturday,1,errands,100.0,0.0,0.0,0.0,0.0,0.0,0.0,0.0,0.03
saturday,1,errands,200.0,0.0,0.0,0.0,0.0,0.0,0.0,0.0,0.068
sunday,1,errands,0.5,0.0,0.026,0.0,0.0,0.0,0.0,0.0,0.0
sunday,1,errands,1.0,0.0,0.039,0.0,0.013,0.0,0.0,0.0,0.0
sunday,1,errands,2.0,0.013,0.0,0.013,0.013,0.013,0.0,0.0,0.0
sunday,1,errands,5.0,0.0,0.078,0.117,0.065,0.013,0.013,0.0,0.0
sunday,1,errands,10.0,0.0,0.0,0.039,0.091,0.065,0.052,0.026,0.0
sunday,1,errands,20.0,0.0,0.0,0.0,0.013,0.065,0.026,0.0,0.0
sunday,1,errands,50.0,0.0,0.0,0.0,0.0,0.0,0.091,0.013,0.0
sunday,1,errands,100.0,0.0,0.0,0.0,0.0,0.0,0.0,0.0,0.039
sunday,1,errands,200.0,0.0,0.0,0.0,0.0,0.0,0.0,0.0,0.065
saturday,2,home,0.5,0.002,0.011,0.005,0.0,0.0,0.0,0.0,0.0
saturday,2,home,1.0,0.008,0.024,0.013,0.001,0.0,0.0,0.0,0.0
saturday,2,home,2.0,0.007,0.078,0.036,0.015,0.002,0.0,0.0,0.0
saturday,2,home,5.0,0.0,0.076,0.142,0.084,0.017,0.009,0.0,0.0
saturday,2,home,10.0,0.0,0.008,0.046,0.089,0.04,0.021,0.002,0.0
saturday,2,home,20.0,0.0,0.0,0.002,0.025,0.06,0.049,0.009,0.0
saturday,2,home,50.0,0.0,0.0,0.0,0.0,0.009,0.047,0.026,0.0
saturday,2,home,100.0,0.0,0.0,0.0,0.0,0.0,0.0,0.002,0.016
saturday,2,home,200.0,0.0,0.0,0.0,0.0,0.0,0.0,0.0,0.021
sunday,2,home,0.5,0.002,0.002,0.002,0.0,0.0,0.0,0.0,0.0
sunday,2,home,1.0,0.006,0.014,0.005,0.002,0.0,0.0,0.0,0.0
sunday,2,home,2.0,0.007,0.037,0.032,0.013,0.001,0.0,0.0,0.0
sunday,2,home,5.0,0.0,0.077,0.103,0.067,0.017,0.011,0.0,0.0
sunday,2,home,10.0,0.0,0.004,0.051,0.092,0.041,0.01,0.001,0.0
sunday,2,home,20.0,0.0,0.0,0.006,0.025,0.077,0.071,0.005,0.0
sunday,2,home,50.0,0.0,0.0,0.0,0.0,0.016,0.081,0.024,0.0
sunday,2,home,100.0,0.0,0.0,0.0,0.0,0.0,0.0,0.016,0.043
sunday,2,home,200.0,0.0,0.0,0.0,0.0,0.0,0.0,0.0,0.036
saturday,2,work,0.5,0.0,0.0,0.0,0.0,0.0,0.0,0.0,0.0
saturday,2,work,1.0,0.0,0.0,0.007,0.0,0.0,0.0,0.0,0.0
saturday,2,work,2.0,0.007,0.041,0.034,0.02,0.0,0.0,0.0,0.0
saturday,2,work,5.0,0.0,0.041,0.081,0.054,0.014,0.007,0.0,0.0
saturday,2,work,10.0,0.0,0.0,0.068,0.135,0.034,0.007,0.007,0.0
saturday,2,work,20.0,0.0,0.0,0.0,0.047,0.149,0.034,0.0,0.0
saturday,2,work,50.0,0.0,0.0,0.0,0.0,0.014,0.122,0.041,0.0
saturday,2,work,100.0,0.0,0.0,0.0,0.0,0.0,0.0,0.014,0.02
saturday,2,work,200.0,0.0,0.0,0.0,0.0,0.0,0.0,0.0,0.007
sunday,2,work,0.5,0.0,0.0,0.0,0.0,0.0,0.0,0.0,0.0
sunday,2,work,1.0,0.01,0.02,0.01,0.0,0.0,0.0,0.0,0.0
sunday,2,work,2.0,0.0,0.01,0.01,0.0,0.0,0.0,0.0,0.0
sunday,2,work,5.0,0.0,0.081,0.071,0.03,0.01,0.0,0.0,0.0
sunday,2,work,10.0,0.0,0.01,0.061,0.131,0.051,0.0,0.01,0.0
sunday,2,work,20.0,0.0,0.0,0.0,0.061,0.081,0.071,0.01,0.0
sunday,2,work,50.0,0.0,0.0,0.0,0.0,0.091,0.061,0.071,0.0
sunday,2,work,100.0,0.0,0.0,0.0,0.0,0.0,0.0,0.02,0.02
sunday,2,work,200.0,0.0,0.0,0.0,0.0,0.0,0.0,0.0,0.0
saturday,2,leisure,0.5,0.006,0.0,0.006,0.0,0.0,0.0,0.0,0.0
saturday,2,leisure,1.0,0.003,0.003,0.008,0.0,0.0,0.0,0.0,0.0
saturday,2,leisure,2.0,0.006,0.036,0.025,0.008,0.0,0.0,0.0,0.0
saturday,2,leisure,5.0,0.0,0.028,0.117,0.056,0.028,0.006,0.0,0.0
saturday,2,leisure,10.0,0.0,0.006,0.033,0.095,0.047,0.036,0.0,0.0
saturday,2,leisure,20.0,0.0,0.0,0.0,0.028,0.095,0.07,0.028,0.0
saturday,2,leisure,50.0,0.0,0.0,0.0,0.0,0.008,0.07,0.047,0.0
saturday,2,leisure,100.0,0.0,0.0,0.0,0.0,0.0,0.0,0.006,0.042
saturday,2,leisure,200.0,0.0,0.0,0.0,0.0,0.0,0.0,0.0,0.056
sunday,2,leisure,0.5,0.0,0.003,0.0,0.0,0.0,0.0,0.0,0.0
sunday,2,leisure,1.0,0.004,0.011,0.003,0.0,0.0,0.0,0.0,0.0
sunday,2,leisure,2.0,0.007,0.026,0.021,0.011,0.003,0.0,0.0,0.0
sunday,2,leisure,5.0,0.0,0.054,0.1,0.074,0.015,0.01,0.0,0.0
sunday,2,leisure,10.0,0.0,0.004,0.047,0.114,0.033,0.019,0.004,0.0
sunday,2,leisure,20.0,0.0,0.0,0.01,0.028,0.069,0.075,0.008,0.0
sunday,2,leisure,50.0,0.0,0.0,0.0,0.0,0.025,0.082,0.029,0.0
sunday,2,leisure,100.0,0.0,0.0,0.0,0.0,0.0,0.0,0.024,0.046
sunday,2,leisure,200.0,0.0,0.0,0.0,0.0,0.0,0.0,0.0,0.042
saturday,2,errands,0.5,0.005,0.013,0.007,0.0,0.0,0.0,0.0,0.0
saturday,2,errands,1.0,0.013,0.037,0.021,0.001,0.0,0.0,0.0,0.0
saturday,2,errands,2.0,0.009,0.084,0.049,0.011,0.005,0.0,0.0,0.0
saturday,2,errands,5.0,0.0,0.1,0.16,0.093,0.019,0.009,0.0,0.0
saturday,2,errands,10.0,0.0,0.01,0.055,0.076,0.037,0.019,0.001,0.0
saturday,2,errands,20.0,0.0,0.0,0.004,0.011,0.048,0.033,0.004,0.0
saturday,2,errands,50.0,0.0,0.0,0.0,0.0,0.01,0.03,0.007,0.0
saturday,2,errands,100.0,0.0,0.0,0.0,0.0,0.0,0.0,0.004,0.007
saturday,2,errands,200.0,0.0,0.0,0.0,0.0,0.0,0.0,0.0,0.007
sunday,2,errands,0.5,0.004,0.009,0.002,0.0,0.0,0.0,0.0,0.0
sunday,2,errands,1.0,0.011,0.018,0.007,0.007,0.0,0.0,0.0,0.0
sunday,2,errands,2.0,0.025,0.054,0.047,0.011,0.002,0.0,0.0,0.0
sunday,2,errands,5.0,0.0,0.087,0.114,0.076,0.013,0.004,0.0,0.0
sunday,2,errands,10.0,0.0,0.013,0.051,0.069,0.038,0.009,0.0,0.0
sunday,2,errands,20.0,0.0,0.0,0.004,0.022,0.063,0.06,0.004,0.0
sunday,2,errands,50.0,0.0,0.0,0.0,0.0,0.018,0.06,0.02,0.0
sunday,2,errands,100.0,0.0,0.0,0.0,0.0,0.0,0.0,0.002,0.04
sunday,2,errands,200.0,0.0,0.0,0.0,0.0,0.0,0.0,0.0,0.031
saturday,3,home,0.5,0.004,0.029,0.0,0.0,0.0,0.0,0.0,0.0
saturday,3,home,1.0,0.022,0.027,0.018,0.007,0.0,0.0,0.0,0.0
saturday,3,home,2.0,0.007,0.06,0.031,0.02,0.002,0.0,0.0,0.0
saturday,3,home,5.0,0.0,0.071,0.149,0.069,0.011,0.011,0.0,0.0
saturday,3,home,10.0,0.0,0.004,0.047,0.1,0.022,0.018,0.007,0.0
saturday,3,home,20.0,0.0,0.0,0.007,0.027,0.042,0.051,0.004,0.0
saturday,3,home,50.0,0.0,0.0,0.0,0.0,0.009,0.047,0.024,0.0
saturday,3,home,100.0,0.0,0.0,0.0,0.0,0.0,0.0,0.011,0.011
saturday,3,home,200.0,0.0,0.0,0.0,0.0,0.0,0.0,0.0,0.031
sunday,3,home,0.5,0.0,0.01,0.0,0.0,0.0,0.0,0.0,0.0
sunday,3,home,1.0,0.016,0.023,0.0,0.003,0.0,0.0,0.0,0.0
sunday,3,home,2.0,0.032,0.074,0.026,0.01,0.003,0.0,0.0,0.0
sunday,3,home,5.0,0.0,0.045,0.045,0.055,0.006,0.006,0.0,0.0
sunday,3,home,10.0,0.0,0.0,0.055,0.09,0.035,0.013,0.003,0.0
sunday,3,home,20.0,0.0,0.0,0.006,0.048,0.068,0.039,0.013,0.0
sunday,3,home,50.0,0.0,0.0,0.0,0.0,0.023,0.103,0.045,0.0
sunday,3,home,100.0,0.0,0.0,0.0,0.0,0.0,0.0,0.003,0.035
sunday,3,home,200.0,0.0,0.0,0.0,0.0,0.0,0.0,0.0,0.068
saturday,3,work,0.5,0.0,0.0,0.019,0.0,0.0,0.0,0.0,0.0
saturday,3,work,1.0,0.0,0.0,0.0,0.0,0.0,0.0,0.0,0.0
saturday,3,work,2.0,0.0,0.0,0.038,0.0,0.019,0.0,0.0,0.0
saturday,3,work,5.0,0.0,0.058,0.154,0.096,0.019,0.0,0.0,0.0
saturday,3,work,10.0,0.0,0.058,0.115,0.115,0.058,0.019,0.0,0.0
saturday,3,work,20.0,0.0,0.0,0.0,0.0,0.135,0.038,0.0,0.0
saturday,3,work,50.0,0.0,0.0,0.0,0.0,0.0,0.019,0.0,0.0
saturday,3,work,100.0,0.0,0.0,0.0,0.0,0.0,0.0,0.0,0.019
saturday,3,work,200.0,0.0,0.0,0.0,0.0,0.0,0.0,0.0,0.019
sunday,3,work,0.5,0.0,0.0,0.0,0.0,0.0,0.0,0.0,0.0
sunday,3,work,1.0,0.0,0.0,0.0,0.0,0.0,0.0,0.0,0.0
sunday,3,work,2.0,0.0,0.0,0.038,0.0,0.0,0.0,0.0,0.0
sunday,3,work,5.0,0.0,0.077,0.038,0.0,0.0,0.0,0.0,0.0
sunday,3,work,10.0,0.0,0.0,0.038,0.192,0.0,0.0,0.0,0.0
sunday,3,work,20.0,0.0,0.0,0.038,0.077,0.077,0.0,0.0,0.0
sunday,3,work,50.0,0.0,0.0,0.0,0.0,0.038,0.077,0.038,0.0
sunday,3,work,100.0,0.0,0.0,0.0,0.0,0.0,0.0,0.0,0.038
sunday,3,work,200.0,0.0,0.0,0.0,0.0,0.0,0.0,0.0,0.231
saturday,3,leisure,0.5,0.0,0.008,0.0,0.0,0.0,0.0,0.0,0.0
saturday,3,leisure,1.0,0.0,0.019,0.012,0.004,0.0,0.0,0.0,0.0
saturday,3,leisure,2.0,0.004,0.054,0.023,0.019,0.0,0.0,0.0,0.0
saturday,3,leisure,5.0,0.0,0.046,0.096,0.038,0.012,0.008,0.0,0.0
saturday,3,leisure,10.0,0.0,0.004,0.05,0.096,0.046,0.019,0.008,0.0
saturday,3,leisure,20.0,0.0,0.0,0.004,0.027,0.062,0.042,0.004,0.0
saturday,3,leisure,50.0,0.0,0.0,0.0,0.0,0.019,0.092,0.062,0.0
saturday,3,leisure,100.0,0.0,0.0,0.0,0.0,0.0,0.0,0.023,0.027
saturday,3,leisure,200.0,0.0,0.0,0.0,0.0,0.0,0.0,0.0,0.073
sunday,3,leisure,0.5,0.0,0.004,0.012,0.0,0.0,0.0,0.0,0.0
sunday,3,leisure,1.0,0.015,0.012,0.004,0.004,0.0,0.0,0.0,0.0
sunday,3,leisure,2.0,0.019,0.039,0.023,0.027,0.0,0.0,0.0,0.0
sunday,3,leisure,5.0,0.0,0.023,0.077,0.042,0.008,0.015,0.0,0.0
sunday,3,leisure,10.0,0.0,0.008,0.058,0.089,0.035,0.008,0.004,0.0
sunday,3,leisure,20.0,0.0,0.0,0.004,0.035,0.108,0.054,0.008,0.0
sunday,3,leisure,50.0,0.0,0.0,0.0,0.0,0.035,0.089,0.062,0.0
sunday,3,leisure,100.0,0.0,0.0,0.0,0.0,0.0,0.0,0.004,0.054
sunday,3,leisure,200.0,0.0,0.0,0.0,0.0,0.0,0.0,0.0,0.023
saturday,3,errands,0.5,0.017,0.022,0.003,0.0,0.0,0.0,0.0,0.0
saturday,3,errands,1.0,0.014,0.046,0.021,0.003,0.0,0.0,0.0,0.0
saturday,3,errands,2.0,0.01,0.07,0.062,0.015,0.005,0.0,0.0,0.0
saturday,3,errands,5.0,0.0,0.077,0.134,0.091,0.029,0.017,0.0,0.0
saturday,3,errands,10.0,0.0,0.022,0.045,0.089,0.031,0.012,0.003,0.0
saturday,3,errands,20.0,0.0,0.0,0.007,0.024,0.027,0.033,0.005,0.0
saturday,3,errands,50.0,0.0,0.0,0.0,0.0,0.01,0.022,0.017,0.0
saturday,3,errands,100.0,0.0,0.0,0.0,0.0,0.0,0.0,0.002,0.007
saturday,3,errands,200.0,0.0,0.0,0.0,0.0,0.0,0.0,0.0,0.007
sunday,3,errands,0.5,0.01,0.005,0.0,0.0,0.0,0.0,0.0,0.0
sunday,3,errands,1.0,0.014,0.029,0.0,0.0,0.0,0.0,0.0,0.0
sunday,3,errands,2.0,0.014,0.029,0.038,0.014,0.01,0.0,0.0,0.0
sunday,3,errands,5.0,0.0,0.024,0.114,0.052,0.024,0.019,0.0,0.0
sunday,3,errands,10.0,0.0,0.014,0.076,0.071,0.038,0.019,0.0,0.0
sunday,3,errands,20.0,0.0,0.0,0.0,0.043,0.09,0.052,0.005,0.0
sunday,3,errands,50.0,0.0,0.0,0.0,0.0,0.019,0.081,0.024,0.0
sunday,3,errands,100.0,0.0,0.0,0.0,0.0,0.0,0.0,0.01,0.014
sunday,3,errands,200.0,0.0,0.0,0.0,0.0,0.0,0.0,0.0,0.048
saturday,4,home,0.5,0.003,0.007,0.0,0.0,0.0,0.0,0.0,0.0
saturday,4,home,1.0,0.015,0.044,0.006,0.003,0.0,0.0,0.0,0.0
saturday,4,home,2.0,0.01,0.075,0.052,0.009,0.003,0.0,0.0,0.0
saturday,4,home,5.0,0.0,0.067,0.163,0.084,0.023,0.009,0.0,0.0
saturday,4,home,10.0,0.0,0.006,0.058,0.077,0.03,0.018,0.003,0.0
saturday,4,home,20.0,0.0,0.0,0.009,0.022,0.044,0.039,0.007,0.0
saturday,4,home,50.0,0.0,0.0,0.0,0.0,0.012,0.048,0.024,0.0
saturday,4,home,100.0,0.0,0.0,0.0,0.0,0.0,0.0,0.003,0.014
saturday,4,home,200.0,0.0,0.0,0.0,0.0,0.0,0.0,0.0,0.012
sunday,4,home,0.5,0.0,0.006,0.004,0.0,0.0,0.0,0.0,0.0
sunday,4,home,1.0,0.006,0.031,0.012,0.002,0.0,0.0,0.0,0.0
sunday,4,home,2.0,0.014,0.062,0.029,0.01,0.002,0.0,0.0,0.0
sunday,4,home,5.0,0.0,0.085,0.168,0.091,0.008,0.006,0.0,0.0
sunday,4,home,10.0,0.0,0.006,0.068,0.093,0.027,0.015,0.002,0.0
sunday,4,home,20.0,0.0,0.0,0.002,0.031,0.062,0.046,0.0,0.0
sunday,4,home,50.0,0.0,0.0,0.0,0.0,0.017,0.041,0.019,0.0
sunday,4,home,100.0,0.0,0.0,0.0,0.0,0.0,0.0,0.006,0.014
sunday,4,home,200.0,0.0,0.0,0.0,0.0,0.0,0.0,0.0,0.019
saturday,4,work,0.5,0.033,0.0,0.0,0.0,0.0,0.0,0.0,0.0
saturday,4,work,1.0,0.0,0.017,0.0,0.0,0.0,0.0,0.0,0.0
saturday,4,work,2.0,0.033,0.0,0.0,0.033,0.0,0.0,0.0,0.0
saturday,4,work,5.0,0.0,0.05,0.067,0.05,0.0,0.0,0.0,0.0
saturday,4,work,10.0,0.0,0.0,0.067,0.117,0.017,0.0,0.0,0.0
saturday,4,work,20.0,0.0,0.0,0.0,0.083,0.083,0.05,0.0,0.0
saturday,4,work,50.0,0.0,0.0,0.0,0.0,0.0,0.217,0.0,0.0
saturday,4,work,100.0,0.0,0.0,0.0,0.0,0.0,0.0,0.0,0.033
saturday,4,work,200.0,0.0,0.0,0.0,0.0,0.0,0.0,0.0,0.05
sunday,4,work,0.5,0.0,0.0,0.0,0.0,0.0,0.0,0.0,0.0
sunday,4,work,1.0,0.08,0.0,0.0,0.0,0.0,0.0,0.0,0.0
sunday,4,work,2.0,0.0,0.16,0.0,0.0,0.0,0.0,0.0,0.0
sunday,4,work,5.0,0.0,0.12,0.12,0.0,0.0,0.0,0.0,0.0
sunday,4,work,10.0,0.0,0.0,0.04,0.04,0.04,0.0,0.0,0.0
sunday,4,work,20.0,0.0,0.0,0.04,0.0,0.04,0.16,0.04,0.0
sunday,4,work,50.0,0.0,0.0,0.0,0.0,0.0,0.08,0.0,0.0
sunday,4,work,100.0,0.0,0.0,0.0,0.0,0.0,0.0,0.0,0.0
sunday,4,work,200.0,0.0,0.0,0.0,0.0,0.0,0.0,0.0,0.04
saturday,4,leisure,0.5,0.003,0.003,0.0,0.0,0.0,0.0,0.0,0.0
saturday,4,leisure,1.0,0.003,0.017,0.007,0.0,0.0,0.0,0.0,0.0
saturday,4,leisure,2.0,0.01,0.053,0.033,0.0,0.0,0.0,0.0,0.0
saturday,4,leisure,5.0,0.0,0.04,0.13,0.08,0.023,0.007,0.0,0.0
saturday,4,leisure,10.0,0.0,0.01,0.043,0.11,0.013,0.02,0.0,0.0
saturday,4,leisure,20.0,0.0,0.0,0.003,0.06,0.063,0.053,0.003,0.0
saturday,4,leisure,50.0,0.0,0.0,0.0,0.0,0.01,0.077,0.053,0.0
saturday,4,leisure,100.0,0.0,0.0,0.0,0.0,0.0,0.0,0.01,0.033
saturday,4,leisure,200.0,0.0,0.0,0.0,0.0,0.0,0.0,0.0,0.027
sunday,4,leisure,0.5,0.0,0.003,0.003,0.0,0.0,0.0,0.0,0.0
sunday,4,leisure,1.0,0.009,0.023,0.006,0.0,0.0,0.0,0.0,0.0
sunday,4,leisure,2.0,0.009,0.032,0.037,0.011,0.006,0.0,0.0,0.0
sunday,4,leisure,5.0,0.0,0.057,0.17,0.095,0.011,0.011,0.0,0.0
sunday,4,leisure,10.0,0.0,0.003,0.04,0.075,0.043,0.029,0.006,0.0
sunday,4,leisure,20.0,0.0,0.0,0.003,0.043,0.066,0.075,0.003,0.0
sunday,4,leisure,50.0,0.0,0.0,0.0,0.0,0.011,0.043,0.026,0.0
sunday,4,leisure,100.0,0.0,0.0,0.0,0.0,0.0,0.0,0.011,0.029
sunday,4,leisure,200.0,0.0,0.0,0.0,0.0,0.0,0.0,0.0,0.011
saturday,4,errands,0.5,0.004,0.013,0.001,0.0,0.0,0.0,0.0,0.0
saturday,4,errands,1.0,0.013,0.05,0.014,0.001,0.0,0.0,0.0,0.0
saturday,4,errands,2.0,0.012,0.105,0.065,0.012,0.005,0.0,0.0,0.0
saturday,4,errands,5.0,0.0,0.067,0.179,0.086,0.018,0.016,0.0,0.0
saturday,4,errands,10.0,0.0,0.005,0.043,0.056,0.047,0.007,0.0,0.0
saturday,4,errands,20.0,0.0,0.0,0.004,0.017,0.047,0.033,0.008,0.0
saturday,4,errands,50.0,0.0,0.0,0.0,0.0,0.008,0.027,0.013,0.0
saturday,4,errands,100.0,0.0,0.0,0.0,0.0,0.0,0.0,0.005,0.01
saturday,4,errands,200.0,0.0,0.0,0.0,0.0,0.0,0.0,0.0,0.01
sunday,4,errands,0.5,0.0,0.01,0.003,0.0,0.0,0.0,0.0,0.0
sunday,4,errands,1.0,0.01,0.032,0.006,0.0,0.0,0.0,0.0,0.0
sunday,4,errands,2.0,0.013,0.065,0.036,0.01,0.01,0.0,0.0,0.0
sunday,4,errands,5.0,0.0,0.091,0.162,0.087,0.019,0.003,0.0,0.0
sunday,4,errands,10.0,0.0,0.006,0.071,0.104,0.029,0.019,0.0,0.0
sunday,4,errands,20.0,0.0,0.0,0.006,0.006,0.045,0.049,0.006,0.0
sunday,4,errands,50.0,0.0,0.0,0.0,0.0,0.023,0.049,0.013,0.0
sunday,4,errands,100.0,0.0,0.0,0.0,0.0,0.0,0.0,0.003,0.006
sunday,4,errands,200.0,0.0,0.0,0.0,0.0,0.0,0.0,0.0,0.006
saturday,5,home,0.5,0.011,0.017,0.008,0.0,0.0,0.0,0.0,0.0
saturday,5,home,1.0,0.02,0.054,0.008,0.0,0.0,0.0,0.0,0.0
saturday,5,home,2.0,0.008,0.073,0.037,0.011,0.0,0.0,0.0,0.0
saturday,5,home,5.0,0.0,0.105,0.158,0.073,0.017,0.003,0.0,0.0
saturday,5,home,10.0,0.0,0.008,0.051,0.076,0.056,0.011,0.0,0.0
saturday,5,home,20.0,0.0,0.0,0.006,0.025,0.042,0.034,0.003,0.0
saturday,5,home,50.0,0.0,0.0,0.0,0.0,0.006,0.025,0.023,0.0
saturday,5,home,100.0,0.0,0.0,0.0,0.0,0.0,0.0,0.003,0.014
saturday,5,home,200.0,0.0,0.0,0.0,0.0,0.0,0.0,0.0,0.011
sunday,5,home,0.5,0.0,0.007,0.007,0.0,0.0,0.0,0.0,0.0
sunday,5,home,1.0,0.044,0.051,0.007,0.0,0.0,0.0,0.0,0.0
sunday,5,home,2.0,0.015,0.066,0.051,0.015,0.0,0.0,0.0,0.0
sunday,5,home,5.0,0.0,0.073,0.146,0.051,0.0,0.007,0.0,0.0
sunday,5,home,10.0,0.0,0.022,0.073,0.073,0.029,0.022,0.0,0.0
sunday,5,home,20.0,0.0,0.0,0.015,0.029,0.051,0.066,0.0,0.0
sunday,5,home,50.0,0.0,0.0,0.0,0.0,0.015,0.036,0.007,0.0
sunday,5,home,100.0,0.0,0.0,0.0,0.0,0.0,0.0,0.0,0.007
sunday,5,home,200.0,0.0,0.0,0.0,0.0,0.0,0.0,0.0,0.015
saturday,5,work,0.5,0.0,0.0,0.0,0.0,0.0,0.0,0.0,0.0
saturday,5,work,1.0,0.0,0.024,0.0,0.0,0.0,0.0,0.0,0.0
saturday,5,work,2.0,0.0,0.0,0.095,0.0,0.0,0.0,0.0,0.0
saturday,5,work,5.0,0.0,0.119,0.071,0.071,0.0,0.024,0.0,0.0
saturday,5,work,10.0,0.0,0.0,0.024,0.095,0.071,0.0,0.0,0.0
saturday,5,work,20.0,0.0,0.0,0.024,0.0,0.095,0.119,0.0,0.0
saturday,5,work,50.0,0.0,0.0,0.0,0.0,0.0,0.143,0.024,0.0
saturday,5,work,100.0,0.0,0.0,0.0,0.0,0.0,0.0,0.0,0.0
saturday,5,work,200.0,0.0,0.0,0.0,0.0,0.0,0.0,0.0,0.0
sunday,5,work,0.5,0.0,0.0,0.0,0.0,0.0,0.0,0.0,0.0
sunday,5,work,1.0,0.0,0.0,0.0,0.0,0.0,0.0,0.0,0.0
sunday,5,work,2.0,0.0,0.143,0.0,0.0,0.0,0.0,0.0,0.0
sunday,5,work,5.0,0.0,0.071,0.143,0.071,0.0,0.0,0.0,0.0
sunday,5,work,10.0,0.0,0.0,0.071,0.0,0.0,0.0,0.0,0.0
sunday,5,work,20.0,0.0,0.0,0.0,0.071,0.071,0.071,0.0,0.0
sunday,5,work,50.0,0.0,0.0,0.0,0.0,0.0,0.0,0.071,0.0
sunday,5,work,100.0,0.0,0.0,0.0,0.0,0.0,0.0,0.0,0.071
sunday,5,work,200.0,0.0,0.0,0.0,0.0,0.0,0.0,0.0,0.143
saturday,5,leisure,0.5,0.0,0.006,0.006,0.0,0.0,0.0,0.0,0.0
saturday,5,leisure,1.0,0.012,0.037,0.0,0.0,0.0,0.0,0.0,0.0
saturday,5,leisure,2.0,0.0,0.055,0.037,0.0,0.0,0.0,0.0,0.0
saturday,5,leisure,5.0,0.0,0.061,0.129,0.031,0.031,0.006,0.0,0.0
saturday,5,leisure,10.0,0.0,0.012,0.049,0.086,0.037,0.018,0.0,0.0
saturday,5,leisure,20.0,0.0,0.0,0.0,0.037,0.067,0.074,0.0,0.0
saturday,5,leisure,50.0,0.0,0.0,0.0,0.0,0.018,0.049,0.043,0.0
saturday,5,leisure,100.0,0.0,0.0,0.0,0.0,0.0,0.0,0.025,0.031
saturday,5,leisure,200.0,0.0,0.0,0.0,0.0,0.0,0.0,0.0,0.043
sunday,5,leisure,0.5,0.0,0.0,0.0,0.0,0.0,0.0,0.0,0.0
sunday,5,leisure,1.0,0.04,0.05,0.01,0.0,0.0,0.0,0.0,0.0
sunday,5,leisure,2.0,0.01,0.02,0.01,0.02,0.0,0.0,0.0,0.0
sunday,5,leisure,5.0,0.0,0.09,0.07,0.05,0.03,0.0,0.0,0.0
sunday,5,leisure,10.0,0.0,0.0,0.05,0.12,0.0,0.0,0.01,0.0
sunday,5,leisure,20.0,0.0,0.0,0.0,0.02,0.07,0.06,0.0,0.0
sunday,5,leisure,50.0,0.0,0.0,0.0,0.0,0.05,0.13,0.02,0.0
sunday,5,leisure,100.0,0.0,0.0,0.0,0.0,0.0,0.0,0.01,0.04
sunday,5,leisure,200.0,0.0,0.0,0.0,0.0,0.0,0.0,0.0,0.02
saturday,5,errands,0.5,0.006,0.02,0.014,0.0,0.0,0.0,0.0,0.0
saturday,5,errands,1.0,0.022,0.058,0.014,0.002,0.0,0.0,0.0,0.0
saturday,5,errands,2.0,0.016,0.114,0.054,0.024,0.002,0.0,0.0,0.0
saturday,5,errands,5.0,0.0,0.106,0.135,0.066,0.02,0.01,0.0,0.0
saturday,5,errands,10.0,0.0,0.008,0.046,0.07,0.04,0.012,0.002,0.0
saturday,5,errands,20.0,0.0,0.0,0.0,0.022,0.028,0.036,0.0,0.0
saturday,5,errands,50.0,0.0,0.0,0.0,0.0,0.008,0.022,0.008,0.0
saturday,5,errands,100.0,0.0,0.0,0.0,0.0,0.0,0.0,0.004,0.012
saturday,5,errands,200.0,0.0,0.0,0.0,0.0,0.0,0.0,0.0,0.002
sunday,5,errands,0.5,0.0,0.014,0.022,0.0,0.0,0.0,0.0,0.0
sunday,5,errands,1.0,0.029,0.014,0.014,0.0,0.0,0.0,0.0,0.0
sunday,5,errands,2.0,0.007,0.079,0.058,0.029,0.0,0.0,0.0,0.0
sunday,5,errands,5.0,0.0,0.072,0.086,0.029,0.007,0.007,0.0,0.0
sunday,5,errands,10.0,0.0,0.0,0.086,0.058,0.029,0.05,0.0,0.0
sunday,5,errands,20.0,0.0,0.0,0.022,0.05,0.072,0.029,0.0,0.0
sunday,5,errands,50.0,0.0,0.0,0.0,0.0,0.007,0.065,0.014,0.0
sunday,5,errands,100.0,0.0,0.0,0.0,0.0,0.0,0.0,0.014,0.014
sunday,5,errands,200.0,0.0,0.0,0.0,0.0,0.0,0.0,0.0,0.022
