days,ntrips,destination,km,5,10,15,20,30,45,60,120
weekday,1,home,0.5,0.021,0.011,0.0,0.0,0.0,0.0,0.0,0.0
weekday,1,home,1.0,0.0,0.011,0.021,0.005,0.0,0.0,0.0,0.0
weekday,1,home,2.0,0.005,0.021,0.026,0.016,0.005,0.0,0.0,0.0
weekday,1,home,5.0,0.0,0.021,0.1,0.116,0.068,0.037,0.0,0.0
weekday,1,home,10.0,0.0,0.0,0.011,0.063,0.095,0.111,0.0,0.0
weekday,1,home,20.0,0.0,0.0,0.0,0.011,0.042,0.111,0.0,0.0
weekday,1,home,50.0,0.0,0.0,0.0,0.0,0.021,0.042,0.011,0.0
weekday,1,home,100.0,0.0,0.0,0.0,0.0,0.0,0.0,0.0,0.0
weekday,1,home,200.0,0.0,0.0,0.0,0.0,0.0,0.0,0.0,0.0
weekday,1,work,0.5,0.0,0.0,0.0,0.0,0.0,0.0,0.0,0.0
weekday,1,work,1.0,0.0,0.007,0.007,0.007,0.0,0.0,0.0,0.0
weekday,1,work,2.0,0.0,0.007,0.041,0.007,0.007,0.0,0.0,0.0
weekday,1,work,5.0,0.0,0.02,0.041,0.109,0.048,0.02,0.0,0.0
weekday,1,work,10.0,0.0,0.0,0.02,0.095,0.102,0.109,0.0,0.0
weekday,1,work,20.0,0.0,0.0,0.007,0.014,0.129,0.109,0.0,0.0
weekday,1,work,50.0,0.0,0.0,0.0,0.0,0.02,0.068,0.007,0.0
weekday,1,work,100.0,0.0,0.0,0.0,0.0,0.0,0.0,0.0,0.0
weekday,1,work,200.0,0.0,0.0,0.0,0.0,0.0,0.0,0.0,0.0
weekday,1,leisure,0.5,0.0,0.0,0.02,0.0,0.0,0.0,0.0,0.0
weekday,1,leisure,1.0,0.0,0.01,0.01,0.0,0.0,0.0,0.0,0.0
weekday,1,leisure,2.0,0.0,0.01,0.02,0.03,0.01,0.0,0.0,0.0
weekday,1,leisure,5.0,0.0,0.01,0.089,0.119,0.069,0.03,0.0,0.0
weekday,1,leisure,10.0,0.0,0.0,0.0,0.109,0.059,0.099,0.0,0.0
weekday,1,leisure,20.0,0.0,0.0,0.0,0.0,0.089,0.04,0.0,0.0
weekday,1,leisure,50.0,0.0,0.0,0.0,0.0,0.03,0.129,0.02,0.0
weekday,1,leisure,100.0,0.0,0.0,0.0,0.0,0.0,0.0,0.0,0.0
weekday,1,leisure,200.0,0.0,0.0,0.0,0.0,0.0,0.0,0.0,0.0
weekday,1,errands,0.5,0.0,0.01,0.0,0.0,0.0,0.0,0.0,0.0
weekday,1,errands,1.0,0.005,0.039,0.019,0.014,0.0,0.0,0.0,0.0
weekday,1,errands,2.0,0.0,0.019,0.072,0.024,0.0,0.0,0.0,0.0
weekday,1,errands,5.0,0.0,0.048,0.13,0.164,0.039,0.019,0.0,0.0
weekday,1,errands,10.0,0.0,0.0,0.005,0.068,0.092,0.111,0.0,0.0
weekday,1,errands,20.0,0.0,0.0,0.005,0.0,0.034,0.043,0.005,0.0
weekday,1,errands,50.0,0.0,0.0,0.0,0.0,0.005,0.024,0.005,0.0
weekday,1,errands,100.0,0.0,0.0,0.0,0.0,0.0,0.0,0.0,0.0
weekday,1,errands,200.0,0.0,0.0,0.0,0.0,0.0,0.0,0.0,0.0
weekday,2,home,0.5,0.002,0.003,0.002,0.0,0.0,0.0,0.0,0.0
weekday,2,home,1.0,0.006,0.032,0.015,0.004,0.0,0.0,0.0,0.0
weekday,2,home,2.0,0.006,0.042,0.072,0.032,0.006,0.0,0.0,0.0
weekday,2,home,5.0,0.0,0.047,0.152,0.168,0.052,0.005,0.0,0.0
weekday,2,home,10.0,0.0,0.001,0.042,0.121,0.096,0.009,0.0,0.0
weekday,2,home,20.0,0.0,0.0,0.002,0.026,0.042,0.011,0.0,0.0
weekday,2,home,50.0,0.0,0.0,0.0,0.0,0.005,0.0,0.0,0.0
weekday,2,home,100.0,0.0,0.0,0.0,0.0,0.0,0.0,0.0,0.0
weekday,2,home,200.0,0.0,0.0,0.0,0.0,0.0,0.0,0.0,0.0
weekday,2,work,0.5,0.0,0.001,0.003,0.0,0.0,0.0,0.0,0.0
weekday,2,work,1.0,0.003,0.01,0.004,0.003,0.0,0.0,0.0,0.0
weekday,2,work,2.0,0.001,0.012,0.029,0.013,0.003,0.0,0.0,0.0
weekday,2,work,5.0,0.0,0.025,0.138,0.148,0.038,0.003,0.0,0.0
weekday,2,work,10.0,0.0,0.004,0.045,0.191,0.136,0.004,0.0,0.0
weekday,2,work,20.0,0.0,0.0,0.007,0.044,0.103,0.015,0.0,0.0
weekday,2,work,50.0,0.0,0.0,0.0,0.0,0.01,0.004,0.0,0.0
weekday,2,work,100.0,0.0,0.0,0.0,0.0,0.0,0.0,0.0,0.0
weekday,2,work,200.0,0.0,0.0,0.0,0.0,0.0,0.0,0.0,0.0
weekday,2,leisure,0.5,0.0,0.0,0.002,0.0,0.0,0.0,0.0,0.0
weekday,2,leisure,1.0,0.002,0.012,0.012,0.002,0.0,0.0,0.0,0.0
weekday,2,leisure,2.0,0.005,0.033,0.07,0.026,0.005,0.0,0.0,0.0
weekday,2,leisure,5.0,0.0,0.028,0.167,0.214,0.052,0.005,0.0,0.0
weekday,2,leisure,10.0,0.0,0.002,0.035,0.171,0.082,0.002,0.0,0.0
weekday,2,leisure,20.0,0.0,0.0,0.002,0.031,0.028,0.002,0.0,0.0
weekday,2,leisure,50.0,0.0,0.0,0.0,0.0,0.005,0.005,0.0,0.0
weekday,2,leisure,100.0,0.0,0.0,0.0,0.0,0.0,0.0,0.0,0.0
weekday,2,leisure,200.0,0.0,0.0,0.0,0.0,0.0,0.0,0.0,0.0
weekday,2,errands,0.5,0.004,0.007,0.003,0.0,0.0,0.0,0.0,0.0
weekday,2,errands,1.0,0.01,0.046,0.024,0.007,0.0,0.0,0.0,0.0
weekday,2,errands,2.0,0.012,0.077,0.099,0.031,0.006,0.0,0.0,0.0
weekday,2,errands,5.0,0.0,0.068,0.178,0.16,0.043,0.004,0.0,0.0
weekday,2,errands,10.0,0.0,0.004,0.038,0.078,0.053,0.006,0.0,0.0
weekday,2,errands,20.0,0.0,0.0,0.004,0.014,0.018,0.003,0.0,0.0
weekday,2,errands,50.0,0.0,0.0,0.0,0.0,0.002,0.001,0.0,0.0
weekday,2,errands,100.0,0.0,0.0,0.0,0.0,0.0,0.0,0.0,0.0
weekday,2,errands,200.0,0.0,0.0,0.0,0.0,0.0,0.0,0.0,0.0
weekday,3,home,0.5,0.014,0.033,0.009,0.0,0.0,0.0,0.0,0.0
weekday,3,home,1.0,0.019,0.082,0.035,0.005,0.0,0.0,0.0,0.0
weekday,3,home,2.0,0.019,0.108,0.094,0.03,0.002,0.0,0.0,0.0
weekday,3,home,5.0,0.0,0.049,0.183,0.115,0.021,0.0,0.0,0.0
weekday,3,home,10.0,0.0,0.002,0.028,0.091,0.04,0.0,0.0,0.0
weekday,3,home,20.0,0.0,0.0,0.002,0.007,0.009,0.002,0.0,0.0
weekday,3,home,50.0,0.0,0.0,0.0,0.0,0.0,0.0,0.0,0.0
weekday,3,home,100.0,0.0,0.0,0.0,0.0,0.0,0.0,0.0,0.0
weekday,3,home,200.0,0.0,0.0,0.0,0.0,0.0,0.0,0.0,0.0
weekday,3,work,0.5,0.0,0.012,0.0,0.0,0.0,0.0,0.0,0.0
weekday,3,work,1.0,0.0,0.012,0.0,0.006,0.0,0.0,0.0,0.0
weekday,3,work,2.0,0.006,0.073,0.061,0.018,0.0,0.0,0.0,0.0
weekday,3,work,5.0,0.0,0.037,0.22,0.183,0.024,0.0,0.0,0.0
weekday,3,work,10.0,0.0,0.006,0.079,0.152,0.049,0.0,0.0,0.0
weekday,3,work,20.0,0.0,0.0,0.0,0.018,0.03,0.006,0.0,0.0
weekday,3,work,50.0,0.0,0.0,0.0,0.0,0.0,0.006,0.0,0.0
weekday,3,work,100.0,0.0,0.0,0.0,0.0,0.0,0.0,0.0,0.0
weekday,3,work,200.0,0.0,0.0,0.0,0.0,0.0,0.0,0.0,0.0
weekday,3,leisure,0.5,0.0,0.031,0.0,0.0,0.0,0.0,0.0,0.0
weekday,3,leisure,1.0,0.031,0.062,0.0,0.0,0.0,0.0,0.0,0.0
weekday,3,leisure,2.0,0.0,0.115,0.052,0.021,0.0,0.0,0.0,0.0
weekday,3,leisure,5.0,0.0,0.042,0.187,0.177,0.021,0.01,0.0,0.0
weekday,3,leisure,10.0,0.0,0.01,0.052,0.094,0.031,0.0,0.0,0.0
weekday,3,leisure,20.0,0.0,0.0,0.01,0.021,0.021,0.0,0.0,0.0
weekday,3,leisure,50.0,0.0,0.0,0.0,0.0,0.0,0.01,0.0,0.0
weekday,3,leisure,100.0,0.0,0.0,0.0,0.0,0.0,0.0,0.0,0.0
weekday,3,leisure,200.0,0.0,0.0,0.0,0.0,0.0,0.0,0.0,0.0
weekday,3,errands,0.5,0.011,0.02,0.009,0.0,0.0,0.0,0.0,0.0
weekday,3,errands,1.0,0.011,0.074,0.03,0.011,0.0,0.0,0.0,0.0
weekday,3,errands,2.0,0.014,0.103,0.116,0.013,0.002,0.0,0.0,0.0
weekday,3,errands,5.0,0.0,0.061,0.158,0.131,0.028,0.002,0.0,0.0
weekday,3,errands,10.0,0.0,0.005,0.031,0.095,0.049,0.0,0.0,0.0
weekday,3,errands,20.0,0.0,0.0,0.002,0.006,0.016,0.002,0.0,0.0
weekday,3,errands,50.0,0.0,0.0,0.0,0.0,0.002,0.0,0.0,0.0
weekday,3,errands,100.0,0.0,0.0,0.0,0.0,0.0,0.0,0.0,0.0
weekday,3,errands,200.0,0.0,0.0,0.0,0.0,0.0,0.0,0.0,0.0
weekday,4,home,0.5,0.0,0.02,0.0,0.0,0.0,0.0,0.0,0.0
weekday,4,home,1.0,0.008,0.105,0.025,0.0,0.0,0.0,0.0,0.0
weekday,4,home,2.0,0.006,0.181,0.091,0.003,0.003,0.0,0.0,0.0
weekday,4,home,5.0,0.0,0.105,0.244,0.082,0.006,0.003,0.0,0.0
weekday,4,home,10.0,0.0,0.006,0.037,0.04,0.02,0.0,0.0,0.0
weekday,4,home,20.0,0.0,0.0,0.006,0.008,0.003,0.0,0.0,0.0
weekday,4,home,50.0,0.0,0.0,0.0,0.0,0.0,0.0,0.0,0.0
weekday,4,home,100.0,0.0,0.0,0.0,0.0,0.0,0.0,0.0,0.0
weekday,4,home,200.0,0.0,0.0,0.0,0.0,0.0,0.0,0.0,0.0
weekday,4,work,0.5,0.0,0.016,0.0,0.0,0.0,0.0,0.0,0.0
weekday,4,work,1.0,0.0,0.016,0.016,0.0,0.0,0.0,0.0,0.0
weekday,4,work,2.0,0.033,0.098,0.049,0.0,0.0,0.0,0.0,0.0
weekday,4,work,5.0,0.0,0.082,0.328,0.148,0.0,0.0,0.0,0.0
weekday,4,work,10.0,0.0,0.0,0.066,0.115,0.016,0.0,0.0,0.0
weekday,4,work,20.0,0.0,0.0,0.0,0.016,0.0,0.0,0.0,0.0
weekday,4,work,50.0,0.0,0.0,0.0,0.0,0.0,0.0,0.0,0.0
weekday,4,work,100.0,0.0,0.0,0.0,0.0,0.0,0.0,0.0,0.0
weekday,4,work,200.0,0.0,0.0,0.0,0.0,0.0,0.0,0.0,0.0
weekday,4,leisure,0.5,0.0,0.016,0.016,0.0,0.0,0.0,0.0,0.0
weekday,4,leisure,1.0,0.0,0.047,0.016,0.016,0.0,0.0,0.0,0.0
weekday,4,leisure,2.0,0.016,0.172,0.125,0.031,0.0,0.0,0.0,0.0
weekday,4,leisure,5.0,0.0,0.156,0.125,0.109,0.016,0.0,0.0,0.0
weekday,4,leisure,10.0,0.0,0.0,0.047,0.031,0.016,0.0,0.0,0.0
weekday,4,leisure,20.0,0.0,0.0,0.0,0.016,0.031,0.0,0.0,0.0
weekday,4,leisure,50.0,0.0,0.0,0.0,0.0,0.0,0.0,0.0,0.0
weekday,4,leisure,100.0,0.0,0.0,0.0,0.0,0.0,0.0,0.0,0.0
weekday,4,leisure,200.0,0.0,0.0,0.0,0.0,0.0,0.0,0.0,0.0
weekday,4,errands,0.5,0.005,0.032,0.008,0.0,0.0,0.0,0.0,0.0
weekday,4,errands,1.0,0.011,0.109,0.021,0.0,0.0,0.0,0.0,0.0
weekday,4,errands,2.0,0.019,0.202,0.08,0.013,0.0,0.0,0.0,0.0
weekday,4,errands,5.0,0.0,0.106,0.229,0.072,0.003,0.0,0.0,0.0
weekday,4,errands,10.0,0.0,0.005,0.032,0.029,0.013,0.0,0.0,0.0
weekday,4,errands,20.0,0.0,0.0,0.005,0.0,0.005,0.0,0.0,0.0
weekday,4,errands,50.0,0.0,0.0,0.0,0.0,0.0,0.0,0.0,0.0
weekday,4,errands,100.0,0.0,0.0,0.0,0.0,0.0,0.0,0.0,0.0
weekday,4,errands,200.0,0.0,0.0,0.0,0.0,0.0,0.0,0.0,0.0
weekday,5,home,0.5,0.016,0.048,0.0,0.0,0.0,0.0,0.0,0.0
weekday,5,home,1.0,0.048,0.113,0.0,0.0,0.0,0.0,0.0,0.0
weekday,5,home,2.0,0.032,0.194,0.081,0.016,0.0,0.0,0.0,0.0
weekday,5,home,5.0,0.0,0.129,0.226,0.0,0.0,0.0,0.0,0.0
weekday,5,home,10.0,0.0,0.016,0.032,0.032,0.0,0.0,0.0,0.0
weekday,5,home,20.0,0.0,0.0,0.0,0.016,0.0,0.0,0.0,0.0
weekday,5,home,50.0,0.0,0.0,0.0,0.0,0.0,0.0,0.0,0.0
weekday,5,home,100.0,0.0,0.0,0.0,0.0,0.0,0.0,0.0,0.0
weekday,5,home,200.0,0.0,0.0,0.0,0.0,0.0,0.0,0.0,0.0
weekday,5,work,0.5,0.0,0.0,0.0,0.0,0.0,0.0,0.0,0.0
weekday,5,work,1.0,0.0,0.0,0.0,0.0,0.0,0.0,0.0,0.0
weekday,5,work,2.0,0.0,0.1,0.0,0.0,0.0,0.0,0.0,0.0
weekday,5,work,5.0,0.0,0.0,0.4,0.0,0.0,0.0,0.0,0.0
weekday,5,work,10.0,0.0,0.0,0.2,0.3,0.0,0.0,0.0,0.0
weekday,5,work,20.0,0.0,0.0,0.0,0.0,0.0,0.0,0.0,0.0
weekday,5,work,50.0,0.0,0.0,0.0,0.0,0.0,0.0,0.0,0.0
weekday,5,work,100.0,0.0,0.0,0.0,0.0,0.0,0.0,0.0,0.0
weekday,5,work,200.0,0.0,0.0,0.0,0.0,0.0,0.0,0.0,0.0
weekday,5,leisure,0.5,0.0,0.0,0.0,0.0,0.0,0.0,0.0,0.0
weekday,5,leisure,1.0,0.0,0.0,0.0,0.0,0.0,0.0,0.0,0.0
weekday,5,leisure,2.0,0.0,0.0,0.143,0.0,0.0,0.0,0.0,0.0
weekday,5,leisure,5.0,0.0,0.357,0.286,0.071,0.0,0.0,0.0,0.0
weekday,5,leisure,10.0,0.0,0.071,0.0,0.0,0.0,0.0,0.0,0.0
weekday,5,leisure,20.0,0.0,0.0,0.071,0.0,0.0,0.0,0.0,0.0
weekday,5,leisure,50.0,0.0,0.0,0.0,0.0,0.0,0.0,0.0,0.0
weekday,5,leisure,100.0,0.0,0.0,0.0,0.0,0.0,0.0,0.0,0.0
weekday,5,leisure,200.0,0.0,0.0,0.0,0.0,0.0,0.0,0.0,0.0
weekday,5,errands,0.5,0.022,0.044,0.0,0.0,0.0,0.0,0.0,0.0
weekday,5,errands,1.0,0.033,0.066,0.011,0.0,0.0,0.0,0.0,0.0
weekday,5,errands,2.0,0.055,0.154,0.033,0.0,0.0,0.0,0.0,0.0
weekday,5,errands,5.0,0.0,0.121,0.231,0.055,0.0,0.0,0.0,0.0
weekday,5,errands,10.0,0.0,0.011,0.121,0.022,0.0,0.0,0.0,0.0
weekday,5,errands,20.0,0.0,0.0,0.0,0.022,0.0,0.0,0.0,0.0
weekday,5,errands,50.0,0.0,0.0,0.0,0.0,0.0,0.0,0.0,0.0
weekday,5,errands,100.0,0.0,0.0,0.0,0.0,0.0,0.0,0.0,0.0
weekday,5,errands,200.0,0.0,0.0,0.0,0.0,0.0,0.0,0.0,0.0
saturday,1,home,0.5,0.0,0.0,0.0,0.0,0.0,0.0,0.0,0.0
saturday,1,home,1.0,0.0,0.0,0.0,0.0,0.0,0.0,0.0,0.0
saturday,1,home,2.0,0.0,0.0,0.011,0.0,0.011,0.0,0.0,0.0
saturday,1,home,5.0,0.0,0.032,0.054,0.086,0.032,0.022,0.0,0.0
saturday,1,home,10.0,0.0,0.011,0.022,0.054,0.065,0.043,0.0,0.0
saturday,1,home,20.0,0.0,0.0,0.0,0.011,0.043,0.054,0.0,0.0
saturday,1,home,50.0,0.0,0.0,0.0,0.0,0.011,0.108,0.022,0.0
saturday,1,home,100.0,0.0,0.0,0.0,0.0,0.0,0.0,0.011,0.108
saturday,1,home,200.0,0.0,0.0,0.0,0.0,0.0,0.0,0.0,0.194
sunday,1,home,0.5,0.0,0.0,0.0,0.0,0.0,0.0,0.0,0.0
sunday,1,home,1.0,0.0,0.006,0.0,0.0,0.0,0.0,0.0,0.0
sunday,1,home,2.0,0.0,0.012,0.0,0.006,0.006,0.0,0.0,0.0
sunday,1,home,5.0,0.0,0.006,0.03,0.03,0.006,0.012,0.0,0.0
sunday,1,home,10.0,0.0,0.0,0.0,0.018,0.054,0.03,0.006,0.0
sunday,1,home,20.0,0.0,0.0,0.0,0.0,0.036,0.024,0.0,0.0
sunday,1,home,50.0,0.0,0.0,0.0,0.0,0.006,0.077,0.018,0.0
sunday,1,home,100.0,0.0,0.0,0.0,0.0,0.0,0.0,0.012,0.131
sunday,1,home,200.0,0.0,0.0,0.0,0.0,0.0,0.0,0.0,0.476
saturday,1,work,0.5,0.0,0.0,0.0,0.0,0.0,0.0,0.0,0.0
saturday,1,work,1.0,0.0,0.0,0.0,0.0,0.0,0.0,0.0,0.0
saturday,1,work,2.0,0.0,0.0,0.1,0.0,0.0,0.0,0.0,0.0
saturday,1,work,5.0,0.0,0.0,0.1,0.1,0.0,0.0,0.0,0.0
saturday,1,work,10.0,0.0,0.0,0.0,0.0,0.1,0.1,0.0,0.0
saturday,1,work,20.0,0.0,0.0,0.0,0.0,0.1,0.0,0.1,0.0
saturday,1,work,50.0,0.0,0.0,0.0,0.0,0.0,0.2,0.0,0.0
saturday,1,work,100.0,0.0,0.0,0.0,0.0,0.0,0.0,0.0,0.1
saturday,1,work,200.0,0.0,0.0,0.0,0.0,0.0,0.0,0.0,0.0
sunday,1,work,0.5,0.0,0.0,0.0,0.0,0.0,0.0,0.0,0.0
sunday,1,work,1.0,0.0,0.0,0.0,0.077,0.0,0.0,0.0,0.0
sunday,1,work,2.0,0.0,0.0,0.0,0.0,0.0,0.0,0.0,0.0
sunday,1,work,5.0,0.0,0.0,0.0,0.154,0.0,0.077,0.0,0.0
sunday,1,work,10.0,0.0,0.0,0.077,0.0,0.077,0.0,0.0,0.0
sunday,1,work,20.0,0.0,0.0,0.0,0.0,0.077,0.0,0.0,0.0
sunday,1,work,50.0,0.0,0.0,0.0,0.0,0.0,0.077,0.0,0.0
sunday,1,work,100.0,0.0,0.0,0.0,0.0,0.0,0.0,0.0,0.154
sunday,1,work,200.0,0.0,0.0,0.0,0.0,0.0,0.0,0.0,0.231
saturday,1,leisure,0.5,0.0,0.0,0.0,0.0,0.0,0.0,0.0,0.0
saturday,1,leisure,1.0,0.01,0.0,0.01,0.01,0.0,0.0,0.0,0.0
saturday,1,leisure,2.0,0.0,0.0,0.0,0.048,0.0,0.0,0.0,0.0
saturday,1,leisure,5.0,0.0,0.0,0.048,0.058,0.029,0.0,0.0,0.0
saturday,1,leisure,10.0,0.0,0.0,0.0,0.029,0.038,0.029,0.0,0.0
saturday,1,leisure,20.0,0.0,0.0,0.01,0.0,0.038,0.125,0.019,0.0
saturday,1,leisure,50.0,0.0,0.0,0.0,0.0,0.01,0.048,0.048,0.0
saturday,1,leisure,100.0,0.0,0.0,0.0,0.0,0.0,0.0,0.0,0.125
saturday,1,leisure,200.0,0.0,0.0,0.0,0.0,0.0,0.0,0.0,0.269
sunday,1,leisure,0.5,0.0,0.0,0.0,0.0,0.0,0.0,0.0,0.0
sunday,1,leisure,1.0,0.0,0.0,0.0,0.0,0.0,0.0,0.0,0.0
sunday,1,leisure,2.0,0.0,0.0,0.044,0.0,0.0,0.0,0.0,0.0
sunday,1,leisure,5.0,0.0,0.0,0.029,0.088,0.059,0.0,0.0,0.0
sunday,1,leisure,10.0,0.0,0.0,0.015,0.029,0.074,0.015,0.0,0.0
sunday,1,leisure,20.0,0.0,0.0,0.0,0.0,0.029,0.088,0.029,0.0
sunday,1,leisure,50.0,0.0,0.0,0.0,0.0,0.0,0.059,0.029,0.0
sunday,1,leisure,100.0,0.0,0.0,0.0,0.0,0.0,0.0,0.0,0.088
sunday,1,leisure,200.0,0.0,0.0,0.0,0.0,0.0,0.0,0.0,0.324
saturday,1,errands,0.5,0.0,0.0,0.0,0.0,0.0,0.0,0.0,0.0
saturday,1,errands,1.0,0.0,0.057,0.011,0.011,0.0,0.0,0.0,0.0
saturday,1,errands,2.0,0.011,0.034,0.068,0.034,0.023,0.0,0.0,0.0
saturday,1,errands,5.0,0.0,0.034,0.091,0.08,0.023,0.034,0.0,0.0
saturday,1,errands,10.0,0.0,0.0,0.023,0.068,0.08,0.068,0.0,0.0
saturday,1,errands,20.0,0.0,0.0,0.0,0.023,0.045,0.057,0.0,0.0
saturday,1,errands,50.0,0.0,0.0,0.0,0.0,0.0,0.011,0.0,0.0
saturday,1,errands,100.0,0.0,0.0,0.0,0.0,0.0,0.0,0.023,0.057
saturday,1,errands,200.0,0.0,0.0,0.0,0.0,0.0,0.0,0.0,0.034
sunday,1,errands,0.5,0.0,0.0,0.0,0.0,0.0,0.0,0.0,0.0
sunday,1,errands,1.0,0.027,0.0,0.0,0.0,0.0,0.0,0.0,0.0
sunday,1,errands,2.0,0.0,0.0,0.054,0.054,0.0,0.0,0.0,0.0
sunday,1,errands,5.0,0.0,0.0,0.135,0.054,0.081,0.0,0.0,0.0
sunday,1,errands,10.0,0.0,0.0,0.0,0.081,0.081,0.027,0.0,0.0
sunday,1,errands,20.0,0.0,0.0,0.0,0.054,0.054,0.081,0.054,0.0
sunday,1,errands,50.0,0.0,0.0,0.0,0.0,0.0,0.027,0.0,0.0
sunday,1,errands,100.0,0.0,0.0,0.0,0.0,0.0,0.0,0.027,0.054
sunday,1,errands,200.0,0.0,0.0,0.0,0.0,0.0,0.0,0.0,0.054
saturday,2,home,0.5,0.004,0.001,0.0,0.0,0.0,0.0,0.0,0.0
saturday,2,home,1.0,0.003,0.018,0.008,0.004,0.0,0.0,0.0,0.0
saturday,2,home,2.0,0.009,0.045,0.039,0.013,0.005,0.0,0.0,0.0
saturday,2,home,5.0,0.0,0.042,0.113,0.105,0.03,0.021,0.0,0.0
saturday,2,home,10.0,0.0,0.001,0.017,0.073,0.074,0.049,0.004,0.0
saturday,2,home,20.0,0.0,0.0,0.001,0.018,0.039,0.074,0.01,0.0
saturday,2,home,50.0,0.0,0.0,0.0,0.0,0.01,0.057,0.019,0.0
saturday,2,home,100.0,0.0,0.0,0.0,0.0,0.0,0.0,0.014,0.036
saturday,2,home,200.0,0.0,0.0,0.0,0.0,0.0,0.0,0.0,0.042
sunday,2,home,0.5,0.0,0.0,0.001,0.0,0.0,0.0,0.0,0.0
sunday,2,home,1.0,0.0,0.012,0.004,0.0,0.0,0.0,0.0,0.0
sunday,2,home,2.0,0.007,0.012,0.014,0.012,0.004,0.0,0.0,0.0
sunday,2,home,5.0,0.0,0.03,0.071,0.085,0.034,0.013,0.0,0.0
sunday,2,home,10.0,0.0,0.005,0.021,0.058,0.087,0.07,0.004,0.0
sunday,2,home,20.0,0.0,0.0,0.0,0.02,0.076,0.073,0.012,0.0
sunday,2,home,50.0,0.0,0.0,0.0,0.0,0.007,0.085,0.049,0.0
sunday,2,home,100.0,0.0,0.0,0.0,0.0,0.0,0.0,0.013,0.063
sunday,2,home,200.0,0.0,0.0,0.0,0.0,0.0,0.0,0.0,0.059
saturday,2,work,0.5,0.0,0.0,0.0,0.0,0.0,0.0,0.0,0.0
saturday,2,work,1.0,0.0,0.013,0.0,0.0,0.0,0.0,0.0,0.0
saturday,2,work,2.0,0.0,0.013,0.025,0.0,0.0,0.0,0.0,0.0
saturday,2,work,5.0,0.0,0.025,0.089,0.051,0.013,0.025,0.0,0.0
saturday,2,work,10.0,0.0,0.0,0.038,0.063,0.101,0.038,0.0,0.0
saturday,2,work,20.0,0.0,0.0,0.0,0.013,0.089,0.114,0.013,0.0
saturday,2,work,50.0,0.0,0.0,0.0,0.0,0.051,0.089,0.089,0.0
saturday,2,work,100.0,0.0,0.0,0.0,0.0,0.0,0.0,0.0,0.013
saturday,2,work,200.0,0.0,0.0,0.0,0.0,0.0,0.0,0.0,0.038
sunday,2,work,0.5,0.0,0.019,0.0,0.0,0.0,0.0,0.0,0.0
sunday,2,work,1.0,0.0,0.019,0.0,0.019,0.0,0.0,0.0,0.0
sunday,2,work,2.0,0.019,0.0,0.0,0.0,0.019,0.0,0.0,0.0
sunday,2,work,5.0,0.0,0.0,0.038,0.115,0.058,0.0,0.0,0.0
sunday,2,work,10.0,0.0,0.019,0.038,0.077,0.038,0.058,0.0,0.0
sunday,2,work,20.0,0.0,0.0,0.0,0.019,0.115,0.115,0.019,0.0
sunday,2,work,50.0,0.0,0.0,0.0,0.0,0.019,0.077,0.019,0.0
sunday,2,work,100.0,0.0,0.0,0.0,0.0,0.0,0.0,0.019,0.0
sunday,2,work,200.0,0.0,0.0,0.0,0.0,0.0,0.0,0.0,0.058
saturday,2,leisure,0.5,0.0,0.0,0.0,0.0,0.0,0.0,0.0,0.0
saturday,2,leisure,1.0,0.0,0.007,0.01,0.003,0.0,0.0,0.0,0.0
saturday,2,leisure,2.0,0.003,0.017,0.026,0.0,0.0,0.0,0.0,0.0
saturday,2,leisure,5.0,0.0,0.03,0.063,0.046,0.046,0.01,0.0,0.0
saturday,2,leisure,10.0,0.0,0.0,0.01,0.05,0.053,0.026,0.003,0.0
saturday,2,leisure,20.0,0.0,0.0,0.007,0.01,0.073,0.109,0.023,0.0
saturday,2,leisure,50.0,0.0,0.0,0.0,0.0,0.017,0.123,0.04,0.0
saturday,2,leisure,100.0,0.0,0.0,0.0,0.0,0.0,0.0,0.026,0.07
saturday,2,leisure,200.0,0.0,0.0,0.0,0.0,0.0,0.0,0.0,0.099
sunday,2,leisure,0.5,0.002,0.0,0.0,0.0,0.0,0.0,0.0,0.0
sunday,2,leisure,1.0,0.0,0.002,0.002,0.0,0.0,0.0,0.0,0.0
sunday,2,leisure,2.0,0.004,0.016,0.014,0.014,0.002,0.0,0.0,0.0
sunday,2,leisure,5.0,0.0,0.02,0.068,0.084,0.034,0.012,0.0,0.0
sunday,2,leisure,10.0,0.0,0.006,0.028,0.054,0.07,0.072,0.0,0.0
sunday,2,leisure,20.0,0.0,0.0,0.0,0.018,0.078,0.088,0.014,0.0
sunday,2,leisure,50.0,0.0,0.0,0.0,0.0,0.006,0.092,0.06,0.0
sunday,2,leisure,100.0,0.0,0.0,0.0,0.0,0.0,0.0,0.02,0.076
sunday,2,leisure,200.0,0.0,0.0,0.0,0.0,0.0,0.0,0.0,0.046
saturday,2,errands,0.5,0.004,0.004,0.002,0.0,0.0,0.0,0.0,0.0
saturday,2,errands,1.0,0.006,0.025,0.013,0.002,0.0,0.0,0.0,0.0
saturday,2,errands,2.0,0.013,0.068,0.051,0.019,0.01,0.0,0.0,0.0
saturday,2,errands,5.0,0.0,0.059,0.169,0.116,0.029,0.021,0.0,0.0
saturday,2,errands,10.0,0.0,0.002,0.023,0.078,0.049,0.049,0.008,0.0
saturday,2,errands,20.0,0.0,0.0,0.006,0.01,0.027,0.029,0.01,0.0
saturday,2,errands,50.0,0.0,0.0,0.0,0.0,0.01,0.04,0.013,0.0
saturday,2,errands,100.0,0.0,0.0,0.0,0.0,0.0,0.0,0.004,0.017
saturday,2,errands,200.0,0.0,0.0,0.0,0.0,0.0,0.0,0.0,0.017
sunday,2,errands,0.5,0.0,0.0,0.0,0.0,0.0,0.0,0.0,0.0
sunday,2,errands,1.0,0.0,0.029,0.012,0.004,0.0,0.0,0.0,0.0
sunday,2,errands,2.0,0.008,0.025,0.025,0.021,0.004,0.0,0.0,0.0
sunday,2,errands,5.0,0.0,0.045,0.107,0.095,0.012,0.029,0.0,0.0
sunday,2,errands,10.0,0.0,0.004,0.025,0.054,0.095,0.058,0.008,0.0
sunday,2,errands,20.0,0.0,0.0,0.0,0.033,0.05,0.058,0.008,0.0
sunday,2,errands,50.0,0.0,0.0,0.0,0.0,0.012,0.025,0.029,0.0
sunday,2,errands,100.0,0.0,0.0,0.0,0.0,0.0,0.0,0.008,0.058
sunday,2,errands,200.0,0.0,0.0,0.0,0.0,0.0,0.0,0.0,0.058
saturday,3,home,0.5,0.01,0.017,0.003,0.0,0.0,0.0,0.0,0.0
saturday,3,home,1.0,0.003,0.027,0.003,0.01,0.0,0.0,0.0,0.0
saturday,3,home,2.0,0.007,0.043,0.047,0.02,0.003,0.0,0.0,0.0
saturday,3,home,5.0,0.0,0.037,0.093,0.117,0.017,0.02,0.0,0.0
saturday,3,home,10.0,0.0,0.003,0.037,0.09,0.063,0.04,0.0,0.0
saturday,3,home,20.0,0.0,0.0,0.0,0.007,0.047,0.07,0.007,0.0
saturday,3,home,50.0,0.0,0.0,0.0,0.0,0.017,0.057,0.027,0.0
saturday,3,home,100.0,0.0,0.0,0.0,0.0,0.0,0.0,0.013,0.013
saturday,3,home,200.0,0.0,0.0,0.0,0.0,0.0,0.0,0.0,0.033
sunday,3,home,0.5,0.005,0.0,0.005,0.0,0.0,0.0,0.0,0.0
sunday,3,home,1.0,0.005,0.01,0.01,0.0,0.0,0.0,0.0,0.0
sunday,3,home,2.0,0.0,0.024,0.019,0.0,0.005,0.0,0.0,0.0
sunday,3,home,5.0,0.0,0.044,0.083,0.049,0.024,0.005,0.0,0.0
sunday,3,home,10.0,0.0,0.0,0.049,0.053,0.112,0.024,0.01,0.0
sunday,3,home,20.0,0.0,0.0,0.0,0.005,0.063,0.107,0.005,0.0
sunday,3,home,50.0,0.0,0.0,0.0,0.0,0.005,0.073,0.034,0.0
sunday,3,home,100.0,0.0,0.0,0.0,0.0,0.0,0.0,0.005,0.097
sunday,3,home,200.0,0.0,0.0,0.0,0.0,0.0,0.0,0.0,0.073
saturday,3,work,0.5,0.0,0.0,0.0,0.0,0.0,0.0,0.0,0.0
saturday,3,work,1.0,0.0,0.0,0.0,0.0,0.0,0.0,0.0,0.0
saturday,3,work,2.0,0.025,0.0,0.0,0.05,0.0,0.0,0.0,0.0
saturday,3,work,5.0,0.0,0.075,0.05,0.1,0.05,0.05,0.0,0.0
saturday,3,work,10.0,0.0,0.0,0.025,0.15,0.1,0.025,0.0,0.0
saturday,3,work,20.0,0.0,0.0,0.0,0.0,0.025,0.1,0.0,0.0
saturday,3,work,50.0,0.0,0.0,0.0,0.0,0.05,0.05,0.0,0.0
saturday,3,work,100.0,0.0,0.0,0.0,0.0,0.0,0.0,0.025,0.05
saturday,3,work,200.0,0.0,0.0,0.0,0.0,0.0,0.0,0.0,0.0
sunday,3,work,0.5,0.0,0.0,0.0,0.0,0.0,0.0,0.0,0.0
sunday,3,work,1.0,0.0,0.0,0.0,0.0,0.0,0.0,0.0,0.0
sunday,3,work,2.0,0.0,0.0,0.222,0.0,0.0,0.0,0.0,0.0
sunday,3,work,5.0,0.0,0.0,0.0,0.222,0.0,0.0,0.0,0.0
sunday,3,work,10.0,0.0,0.0,0.111,0.0,0.111,0.0,0.0,0.0
sunday,3,work,20.0,0.0,0.0,0.0,0.0,0.111,0.111,0.0,0.0
sunday,3,work,50.0,0.0,0.0,0.0,0.0,0.0,0.0,0.0,0.0
sunday,3,work,100.0,0.0,0.0,0.0,0.0,0.0,0.0,0.0,0.0
sunday,3,work,200.0,0.0,0.0,0.0,0.0,0.0,0.0,0.0,0.111
saturday,3,leisure,0.5,0.0,0.006,0.0,0.0,0.0,0.0,0.0,0.0
saturday,3,leisure,1.0,0.0,0.012,0.006,0.018,0.0,0.0,0.0,0.0
saturday,3,leisure,2.0,0.012,0.023,0.012,0.0,0.006,0.0,0.0,0.0
saturday,3,leisure,5.0,0.0,0.023,0.07,0.058,0.035,0.023,0.0,0.0
saturday,3,leisure,10.0,0.0,0.0,0.012,0.082,0.053,0.035,0.006,0.0
saturday,3,leisure,20.0,0.0,0.0,0.0,0.035,0.07,0.111,0.006,0.0
saturday,3,leisure,50.0,0.0,0.0,0.0,0.0,0.018,0.094,0.023,0.0
saturday,3,leisure,100.0,0.0,0.0,0.0,0.0,0.0,0.0,0.006,0.053
saturday,3,leisure,200.0,0.0,0.0,0.0,0.0,0.0,0.0,0.0,0.094
sunday,3,leisure,0.5,0.0,0.006,0.0,0.0,0.0,0.0,0.0,0.0
sunday,3,leisure,1.0,0.0,0.006,0.006,0.0,0.0,0.0,0.0,0.0
sunday,3,leisure,2.0,0.0,0.012,0.012,0.012,0.006,0.0,0.0,0.0
sunday,3,leisure,5.0,0.0,0.04,0.081,0.04,0.017,0.012,0.0,0.0
sunday,3,leisure,10.0,0.0,0.006,0.035,0.052,0.064,0.04,0.006,0.0
sunday,3,leisure,20.0,0.0,0.0,0.0,0.006,0.075,0.133,0.006,0.0
sunday,3,leisure,50.0,0.0,0.0,0.0,0.0,0.012,0.081,0.069,0.0
sunday,3,leisure,100.0,0.0,0.0,0.0,0.0,0.0,0.0,0.012,0.098
sunday,3,leisure,200.0,0.0,0.0,0.0,0.0,0.0,0.0,0.0,0.058
saturday,3,errands,0.5,0.008,0.008,0.003,0.0,0.0,0.0,0.0,0.0
saturday,3,errands,1.0,0.01,0.031,0.021,0.005,0.0,0.0,0.0,0.0
saturday,3,errands,2.0,0.0,0.049,0.057,0.031,0.003,0.0,0.0,0.0
saturday,3,errands,5.0,0.0,0.049,0.143,0.106,0.026,0.013,0.0,0.0
saturday,3,errands,10.0,0.0,0.008,0.039,0.06,0.101,0.034,0.0,0.0
saturday,3,errands,20.0,0.0,0.0,0.003,0.008,0.034,0.062,0.008,0.0
saturday,3,errands,50.0,0.0,0.0,0.0,0.0,0.008,0.029,0.016,0.0
saturday,3,errands,100.0,0.0,0.0,0.0,0.0,0.0,0.0,0.003,0.016
saturday,3,errands,200.0,0.0,0.0,0.0,0.0,0.0,0.0,0.0,0.01
sunday,3,errands,0.5,0.007,0.0,0.0,0.0,0.0,0.0,0.0,0.0
sunday,3,errands,1.0,0.0,0.027,0.02,0.0,0.0,0.0,0.0,0.0
sunday,3,errands,2.0,0.02,0.041,0.041,0.0,0.0,0.0,0.0,0.0
sunday,3,errands,5.0,0.0,0.074,0.095,0.027,0.02,0.007,0.0,0.0
sunday,3,errands,10.0,0.0,0.0,0.014,0.074,0.149,0.041,0.007,0.0
sunday,3,errands,20.0,0.0,0.0,0.0,0.014,0.054,0.068,0.027,0.0
sunday,3,errands,50.0,0.0,0.0,0.0,0.0,0.014,0.061,0.034,0.0
sunday,3,errands,100.0,0.0,0.0,0.0,0.0,0.0,0.0,0.007,0.047
sunday,3,errands,200.0,0.0,0.0,0.0,0.0,0.0,0.0,0.0,0.014
saturday,4,home,0.5,0.005,0.009,0.002,0.0,0.0,0.0,0.0,0.0
saturday,4,home,1.0,0.007,0.032,0.028,0.002,0.0,0.0,0.0,0.0
saturday,4,home,2.0,0.0,0.076,0.044,0.019,0.005,0.0,0.0,0.0
saturday,4,home,5.0,0.0,0.049,0.139,0.113,0.025,0.012,0.0,0.0
saturday,4,home,10.0,0.0,0.002,0.028,0.072,0.072,0.023,0.0,0.0
saturday,4,home,20.0,0.0,0.0,0.005,0.014,0.063,0.046,0.007,0.0
saturday,4,home,50.0,0.0,0.0,0.0,0.0,0.007,0.046,0.005,0.0
saturday,4,home,100.0,0.0,0.0,0.0,0.0,0.0,0.0,0.012,0.021
saturday,4,home,200.0,0.0,0.0,0.0,0.0,0.0,0.0,0.0,0.012
sunday,4,home,0.5,0.0,0.004,0.0,0.0,0.0,0.0,0.0,0.0
sunday,4,home,1.0,0.0,0.026,0.009,0.004,0.0,0.0,0.0,0.0
sunday,4,home,2.0,0.004,0.06,0.039,0.004,0.0,0.0,0.0,0.0
sunday,4,home,5.0,0.0,0.043,0.116,0.06,0.034,0.004,0.0,0.0
sunday,4,home,10.0,0.0,0.0,0.021,0.073,0.064,0.047,0.004,0.0
sunday,4,home,20.0,0.0,0.0,0.0,0.039,0.034,0.107,0.004,0.0
sunday,4,home,50.0,0.0,0.0,0.0,0.0,0.013,0.06,0.039,0.0
sunday,4,home,100.0,0.0,0.0,0.0,0.0,0.0,0.0,0.013,0.034
sunday,4,home,200.0,0.0,0.0,0.0,0.0,0.0,0.0,0.0,0.039
saturday,4,work,0.5,0.0,0.0,0.0,0.0,0.0,0.0,0.0,0.0
saturday,4,work,1.0,0.0,0.0,0.0,0.0,0.0,0.0,0.0,0.0
saturday,4,work,2.0,0.0,0.0,0.024,0.0,0.0,0.0,0.0,0.0
saturday,4,work,5.0,0.0,0.049,0.049,0.049,0.024,0.0,0.0,0.0
saturday,4,work,10.0,0.0,0.0,0.0,0.146,0.146,0.024,0.0,0.0
saturday,4,work,20.0,0.0,0.0,0.0,0.024,0.171,0.122,0.0,0.0
saturday,4,work,50.0,0.0,0.0,0.0,0.0,0.0,0.073,0.024,0.0
saturday,4,work,100.0,0.0,0.0,0.0,0.0,0.0,0.0,0.0,0.024
saturday,4,work,200.0,0.0,0.0,0.0,0.0,0.0,0.0,0.0,0.049
sunday,4,work,0.5,0.0,0.0,0.0,0.0,0.0,0.0,0.0,0.0
sunday,4,work,1.0,0.0,0.0,0.0,0.0,0.0,0.0,0.0,0.0
sunday,4,work,2.0,0.0,0.0,0.056,0.0,0.0,0.0,0.0,0.0
sunday,4,work,5.0,0.0,0.0,0.111,0.111,0.0,0.0,0.0,0.0
sunday,4,work,10.0,0.0,0.0,0.056,0.0,0.0,0.0,0.0,0.0
sunday,4,work,20.0,0.0,0.0,0.0,0.0,0.056,0.111,0.0,0.0
sunday,4,work,50.0,0.0,0.0,0.0,0.0,0.278,0.167,0.0,0.0
sunday,4,work,100.0,0.0,0.0,0.0,0.0,0.0,0.0,0.0,0.056
sunday,4,work,200.0,0.0,0.0,0.0,0.0,0.0,0.0,0.0,0.0
saturday,4,leisure,0.5,0.0,0.0,0.0,0.0,0.0,0.0,0.0,0.0
saturday,4,leisure,1.0,0.0,0.016,0.011,0.0,0.0,0.0,0.0,0.0
saturday,4,leisure,2.0,0.0,0.022,0.005,0.005,0.0,0.0,0.0,0.0
saturday,4,leisure,5.0,0.0,0.049,0.092,0.06,0.043,0.0,0.0,0.0
saturday,4,leisure,10.0,0.0,0.005,0.033,0.076,0.098,0.049,0.0,0.0
saturday,4,leisure,20.0,0.0,0.0,0.0,0.027,0.065,0.087,0.033,0.0
saturday,4,leisure,50.0,0.0,0.0,0.0,0.0,0.027,0.082,0.049,0.0
saturday,4,leisure,100.0,0.0,0.0,0.0,0.0,0.0,0.0,0.011,0.033
saturday,4,leisure,200.0,0.0,0.0,0.0,0.0,0.0,0.0,0.0,0.022
sunday,4,leisure,0.5,0.0,0.0,0.0,0.0,0.0,0.0,0.0,0.0
sunday,4,leisure,1.0,0.0,0.025,0.012,0.0,0.0,0.0,0.0,0.0
sunday,4,leisure,2.0,0.0,0.019,0.031,0.006,0.006,0.0,0.0,0.0
sunday,4,leisure,5.0,0.0,0.044,0.106,0.075,0.012,0.019,0.0,0.0
sunday,4,leisure,10.0,0.0,0.0,0.019,0.069,0.081,0.038,0.0,0.0
sunday,4,leisure,20.0,0.0,0.0,0.006,0.038,0.075,0.106,0.019,0.0
sunday,4,leisure,50.0,0.0,0.0,0.0,0.0,0.012,0.075,0.031,0.0
sunday,4,leisure,100.0,0.0,0.0,0.0,0.0,0.0,0.0,0.006,0.019
sunday,4,leisure,200.0,0.0,0.0,0.0,0.0,0.0,0.0,0.0,0.05
saturday,4,errands,0.5,0.009,0.013,0.004,0.0,0.0,0.0,0.0,0.0
saturday,4,errands,1.0,0.013,0.056,0.011,0.004,0.0,0.0,0.0,0.0
saturday,4,errands,2.0,0.004,0.088,0.073,0.015,0.004,0.0,0.0,0.0
saturday,4,errands,5.0,0.0,0.064,0.15,0.079,0.032,0.015,0.0,0.0
saturday,4,errands,10.0,0.0,0.0,0.047,0.088,0.056,0.017,0.0,0.0
saturday,4,errands,20.0,0.0,0.0,0.002,0.021,0.034,0.049,0.004,0.0
saturday,4,errands,50.0,0.0,0.0,0.0,0.0,0.006,0.015,0.0,0.0
saturday,4,errands,100.0,0.0,0.0,0.0,0.0,0.0,0.0,0.009,0.009
saturday,4,errands,200.0,0.0,0.0,0.0,0.0,0.0,0.0,0.0,0.009
sunday,4,errands,0.5,0.0,0.0,0.0,0.0,0.0,0.0,0.0,0.0
sunday,4,errands,1.0,0.007,0.026,0.007,0.0,0.0,0.0,0.0,0.0
sunday,4,errands,2.0,0.013,0.06,0.066,0.013,0.007,0.0,0.0,0.0
sunday,4,errands,5.0,0.0,0.066,0.06,0.119,0.06,0.007,0.0,0.0
sunday,4,errands,10.0,0.0,0.007,0.04,0.053,0.06,0.066,0.007,0.0
sunday,4,errands,20.0,0.0,0.0,0.02,0.02,0.06,0.06,0.02,0.0
sunday,4,errands,50.0,0.0,0.0,0.0,0.0,0.007,0.0,0.02,0.0
sunday,4,errands,100.0,0.0,0.0,0.0,0.0,0.0,0.0,0.007,0.04
sunday,4,errands,200.0,0.0,0.0,0.0,0.0,0.0,0.0,0.0,0.007
saturday,5,home,0.5,0.0,0.013,0.0,0.0,0.0,0.0,0.0,0.0
saturday,5,home,1.0,0.007,0.054,0.007,0.0,0.0,0.0,0.0,0.0
saturday,5,home,2.0,0.007,0.054,0.054,0.013,0.0,0.0,0.0,0.0
saturday,5,home,5.0,0.0,0.054,0.128,0.128,0.04,0.02,0.0,0.0
saturday,5,home,10.0,0.0,0.0,0.034,0.06,0.067,0.013,0.0,0.0
saturday,5,home,20.0,0.0,0.0,0.007,0.007,0.04,0.067,0.0,0.0
saturday,5,home,50.0,0.0,0.0,0.0,0.0,0.013,0.087,0.013,0.0
saturday,5,home,100.0,0.0,0.0,0.0,0.0,0.0,0.0,0.0,0.013
saturday,5,home,200.0,0.0,0.0,0.0,0.0,0.0,0.0,0.0,0.0
sunday,5,home,0.5,0.0,0.013,0.0,0.0,0.0,0.0,0.0,0.0
sunday,5,home,1.0,0.0,0.038,0.0,0.0,0.0,0.0,0.0,0.0
sunday,5,home,2.0,0.0,0.051,0.063,0.013,0.0,0.0,0.0,0.0
sunday,5,home,5.0,0.0,0.038,0.089,0.038,0.038,0.0,0.0,0.0
sunday,5,home,10.0,0.0,0.0,0.038,0.101,0.063,0.063,0.0,0.0
sunday,5,home,20.0,0.0,0.0,0.0,0.038,0.127,0.063,0.013,0.0
sunday,5,home,50.0,0.0,0.0,0.0,0.0,0.0,0.038,0.013,0.0
sunday,5,home,100.0,0.0,0.0,0.0,0.0,0.0,0.0,0.013,0.013
sunday,5,home,200.0,0.0,0.0,0.0,0.0,0.0,0.0,0.0,0.038
saturday,5,work,0.5,0.0,0.0,0.0,0.0,0.0,0.0,0.0,0.0
saturday,5,work,1.0,0.0,0.0,0.0,0.0,0.0,0.0,0.0,0.0
saturday,5,work,2.0,0.0,0.0,0.0,0.0,0.0,0.0,0.0,0.0
saturday,5,work,5.0,0.0,0.0,0.0,0.0,0.1,0.0,0.0,0.0
saturday,5,work,10.0,0.0,0.0,0.0,0.1,0.2,0.1,0.0,0.0
saturday,5,work,20.0,0.0,0.0,0.0,0.1,0.1,0.0,0.1,0.0
saturday,5,work,50.0,0.0,0.0,0.0,0.0,0.0,0.2,0.0,0.0
saturday,5,work,100.0,0.0,0.0,0.0,0.0,0.0,0.0,0.0,0.0
saturday,5,work,200.0,0.0,0.0,0.0,0.0,0.0,0.0,0.0,0.0
sunday,5,work,0.5,0.0,0.0,0.0,0.0,0.0,0.0,0.0,0.0
sunday,5,work,1.0,0.0,0.0,0.0,0.0,0.0,0.0,0.0,0.0
sunday,5,work,2.0,0.0,0.0,0.0,0.0,0.0,0.0,0.0,0.0
sunday,5,work,5.0,0.0,0.0,0.0,0.0,0.0,0.0,0.0,0.0
sunday,5,work,10.0,0.0,0.0,0.0,0.333,0.0,0.0,0.0,0.0
sunday,5,work,20.0,0.0,0.0,0.0,0.0,0.333,0.333,0.0,0.0
sunday,5,work,50.0,0.0,0.0,0.0,0.0,0.0,0.0,0.0,0.0
sunday,5,work,100.0,0.0,0.0,0.0,0.0,0.0,0.0,0.0,0.0
sunday,5,work,200.0,0.0,0.0,0.0,0.0,0.0,0.0,0.0,0.0
saturday,5,leisure,0.5,0.0,0.0,0.0,0.0,0.0,0.0,0.0,0.0
saturday,5,leisure,1.0,0.0,0.033,0.0,0.0,0.0,0.0,0.0,0.0
saturday,5,leisure,2.0,0.0,0.033,0.017,0.0,0.0,0.0,0.0,0.0
saturday,5,leisure,5.0,0.0,0.05,0.183,0.1,0.05,0.017,0.0,0.0
saturday,5,leisure,10.0,0.0,0.017,0.033,0.033,0.1,0.033,0.0,0.0
saturday,5,leisure,20.0,0.0,0.0,0.0,0.017,0.017,0.033,0.0,0.0
saturday,5,leisure,50.0,0.0,0.0,0.0,0.0,0.0,0.1,0.05,0.0
saturday,5,leisure,100.0,0.0,0.0,0.0,0.0,0.0,0.0,0.017,0.033
saturday,5,leisure,200.0,0.0,0.0,0.0,0.0,0.0,0.0,0.0,0.033
sunday,5,leisure,0.5,0.0,0.0,0.0,0.0,0.0,0.0,0.0,0.0
sunday,5,leisure,1.0,0.0,0.0,0.0,0.0,0.0,0.0,0.0,0.0
sunday,5,leisure,2.0,0.0,0.033,0.049,0.016,0.0,0.0,0.0,0.0
sunday,5,leisure,5.0,0.0,0.016,0.131,0.049,0.033,0.0,0.0,0.0
sunday,5,leisure,10.0,0.0,0.016,0.033,0.148,0.082,0.049,0.0,0.0
sunday,5,leisure,20.0,0.0,0.0,0.0,0.049,0.082,0.016,0.016,0.0
sunday,5,leisure,50.0,0.0,0.0,0.0,0.0,0.0,0.049,0.049,0.0
sunday,5,leisure,100.0,0.0,0.0,0.0,0.0,0.0,0.0,0.016,0.016
sunday,5,leisure,200.0,0.0,0.0,0.0,0.0,0.0,0.0,0.0,0.049
saturday,5,errands,0.5,0.014,0.024,0.005,0.0,0.0,0.0,0.0,0.0
saturday,5,errands,1.0,0.01,0.063,0.01,0.0,0.0,0.0,0.0,0.0
saturday,5,errands,2.0,0.005,0.077,0.024,0.019,0.005,0.0,0.0,0.0
saturday,5,errands,5.0,0.0,0.082,0.092,0.159,0.039,0.014,0.0,0.0
saturday,5,errands,10.0,0.0,0.005,0.029,0.077,0.043,0.043,0.0,0.0
saturday,5,errands,20.0,0.0,0.0,0.005,0.024,0.053,0.039,0.014,0.0
saturday,5,errands,50.0,0.0,0.0,0.0,0.0,0.01,0.005,0.005,0.0
saturday,5,errands,100.0,0.0,0.0,0.0,0.0,0.0,0.0,0.0,0.0
saturday,5,errands,200.0,0.0,0.0,0.0,0.0,0.0,0.0,0.0,0.005
sunday,5,errands,0.5,0.0,0.026,0.0,0.0,0.0,0.0,0.0,0.0
sunday,5,errands,1.0,0.0,0.09,0.038,0.013,0.0,0.0,0.0,0.0
sunday,5,errands,2.0,0.026,0.051,0.026,0.0,0.0,0.0,0.0,0.0
sunday,5,errands,5.0,0.0,0.038,0.077,0.09,0.013,0.0,0.0,0.0
sunday,5,errands,10.0,0.0,0.0,0.026,0.09,0.09,0.013,0.0,0.0
sunday,5,errands,20.0,0.0,0.0,0.0,0.013,0.103,0.064,0.026,0.0
sunday,5,errands,50.0,0.0,0.0,0.0,0.0,0.013,0.051,0.0,0.0
sunday,5,errands,100.0,0.0,0.0,0.0,0.0,0.0,0.0,0.0,0.0
sunday,5,errands,200.0,0.0,0.0,0.0,0.0,0.0,0.0,0.0,0.026
