days,destination,km,5,10,15,20,30,45,60,120
weekday,home,0.5,0.004,0.01,0.002,0.0,0.0,0.0,0.0,0.0
weekday,home,1.0,0.009,0.036,0.01,0.003,0.0,0.0,0.0,0.0
weekday,home,2.0,0.006,0.062,0.047,0.014,0.003,0.0,0.0,0.0
weekday,home,5.0,0.0,0.065,0.148,0.091,0.021,0.009,0.0,0.0
weekday,home,10.0,0.0,0.005,0.053,0.092,0.049,0.018,0.002,0.0
weekday,home,20.0,0.0,0.0,0.005,0.031,0.061,0.049,0.006,0.0
weekday,home,50.0,0.0,0.0,0.0,0.0,0.013,0.055,0.02,0.0
weekday,home,100.0,0.0,0.0,0.0,0.0,0.0,0.0,0.003,0.001
weekday,home,200.0,0.0,0.0,0.0,0.0,0.0,0.0,0.0,0.0
weekday,work,0.5,0.001,0.004,0.0,0.0,0.0,0.0,0.0,0.0
weekday,work,1.0,0.003,0.016,0.004,0.001,0.0,0.0,0.0,0.0
weekday,work,2.0,0.004,0.035,0.026,0.006,0.001,0.0,0.0,0.0
weekday,work,5.0,0.0,0.046,0.106,0.064,0.015,0.004,0.0,0.0
weekday,work,10.0,0.0,0.005,0.057,0.097,0.053,0.013,0.001,0.0
weekday,work,20.0,0.0,0.0,0.007,0.047,0.115,0.069,0.006,0.0
weekday,work,50.0,0.0,0.0,0.0,0.0,0.035,0.117,0.031,0.0
weekday,work,100.0,0.0,0.0,0.0,0.0,0.0,0.0,0.006,0.002
weekday,work,200.0,0.0,0.0,0.0,0.0,0.0,0.0,0.0,0.001
weekday,leisure,0.5,0.005,0.009,0.003,0.0,0.0,0.0,0.0,0.0
weekday,leisure,1.0,0.005,0.03,0.01,0.006,0.0,0.0,0.0,0.0
weekday,leisure,2.0,0.005,0.068,0.053,0.015,0.003,0.0,0.0,0.0
weekday,leisure,5.0,0.0,0.06,0.162,0.092,0.022,0.007,0.0,0.0
weekday,leisure,10.0,0.0,0.003,0.059,0.099,0.061,0.015,0.001,0.0
weekday,leisure,20.0,0.0,0.0,0.007,0.031,0.056,0.042,0.003,0.0
weekday,leisure,50.0,0.0,0.0,0.0,0.0,0.011,0.039,0.011,0.0
weekday,leisure,100.0,0.0,0.0,0.0,0.0,0.0,0.0,0.003,0.003
weekday,leisure,200.0,0.0,0.0,0.0,0.0,0.0,0.0,0.0,0.001
weekday,errands,0.5,0.008,0.017,0.003,0.0,0.0,0.0,0.0,0.0
weekday,errands,1.0,0.014,0.056,0.016,0.005,0.0,0.0,0.0,0.0
weekday,errands,2.0,0.01,0.092,0.062,0.018,0.005,0.0,0.0,0.0
weekday,errands,5.0,0.0,0.08,0.176,0.089,0.025,0.011,0.0,0.0
weekday,errands,10.0,0.0,0.007,0.053,0.081,0.041,0.015,0.002,0.0
weekday,errands,20.0,0.0,0.0,0.004,0.02,0.035,0.023,0.003,0.0
weekday,errands,50.0,0.0,0.0,0.0,0.0,0.005,0.017,0.006,0.0
weekday,errands,100.0,0.0,0.0,0.0,0.0,0.0,0.0,0.001,0.0
weekday,errands,200.0,0.0,0.0,0.0,0.0,0.0,0.0,0.0,0.0
saturday,home,0.5,0.007,0.014,0.003,0.0,0.0,0.0,0.0,0.0
saturday,home,1.0,0.015,0.036,0.011,0.002,0.0,0.0,0.0,0.0
saturday,home,2.0,0.009,0.079,0.041,0.013,0.002,0.0,0.0,0.0
saturday,home,5.0,0.0,0.077,0.159,0.074,0.019,0.007,0.0,0.0
saturday,home,10.0,0.0,0.007,0.05,0.083,0.034,0.017,0.002,0.0
saturday,home,20.0,0.0,0.0,0.006,0.026,0.048,0.04,0.005,0.0
saturday,home,50.0,0.0,0.0,0.0,0.0,0.01,0.042,0.022,0.0
saturday,home,100.0,0.0,0.0,0.0,0.0,0.0,0.0,0.004,0.014
saturday,home,200.0,0.0,0.0,0.0,0.0,0.0,0.0,0.0,0.021
sunday,home,0.5,0.001,0.005,0.003,0.0,0.0,0.0,0.0,0.0
sunday,home,1.0,0.01,0.022,0.005,0.002,0.0,0.0,0.0,0.0
sunday,home,2.0,0.012,0.053,0.031,0.013,0.002,0.0,0.0,0.0
sunday,home,5.0,0.0,0.074,0.109,0.067,0.012,0.009,0.0,0.0
sunday,home,10.0,0.0,0.005,0.054,0.087,0.036,0.011,0.001,0.0
sunday,home,20.0,0.0,0.0,0.005,0.03,0.069,0.055,0.004,0.0
sunday,home,50.0,0.0,0.0,0.0,0.0,0.016,0.069,0.023,0.0
sunday,home,100.0,0.0,0.0,0.0,0.0,0.0,0.0,0.011,0.035
sunday,home,200.0,0.0,0.0,0.0,0.0,0.0,0.0,0.0,0.059
saturday,work,0.5,0.005,0.0,0.003,0.0,0.0,0.0,0.0,0.0
saturday,work,1.0,0.0,0.005,0.003,0.0,0.0,0.0,0.0,0.0
saturday,work,2.0,0.011,0.035,0.029,0.013,0.003,0.0,0.0,0.0
saturday,work,5.0,0.0,0.061,0.112,0.069,0.011,0.011,0.0,0.0
saturday,work,10.0,0.0,0.008,0.069,0.112,0.04,0.005,0.003,0.0
saturday,work,20.0,0.0,0.0,0.003,0.037,0.115,0.053,0.0,0.0
saturday,work,50.0,0.0,0.0,0.0,0.0,0.013,0.107,0.021,0.0
saturday,work,100.0,0.0,0.0,0.0,0.0,0.0,0.0,0.005,0.016
saturday,work,200.0,0.0,0.0,0.0,0.0,0.0,0.0,0.0,0.021
sunday,work,0.5,0.0,0.0,0.0,0.0,0.0,0.0,0.0,0.0
sunday,work,1.0,0.014,0.018,0.005,0.0,0.0,0.0,0.0,0.0
sunday,work,2.0,0.005,0.045,0.045,0.0,0.005,0.0,0.0,0.0
sunday,work,5.0,0.0,0.091,0.095,0.027,0.005,0.0,0.0,0.0
sunday,work,10.0,0.0,0.005,0.041,0.109,0.041,0.0,0.009,0.0
sunday,work,20.0,0.0,0.0,0.014,0.041,0.073,0.059,0.009,0.0
sunday,work,50.0,0.0,0.0,0.0,0.0,0.045,0.064,0.041,0.0
sunday,work,100.0,0.0,0.0,0.0,0.0,0.0,0.0,0.014,0.027
sunday,work,200.0,0.0,0.0,0.0,0.0,0.0,0.0,0.0,0.055
saturday,leisure,0.5,0.004,0.006,0.002,0.0,0.0,0.0,0.0,0.0
saturday,leisure,1.0,0.006,0.017,0.007,0.001,0.0,0.0,0.0,0.0
saturday,leisure,2.0,0.008,0.05,0.028,0.006,0.001,0.0,0.0,0.0
saturday,leisure,5.0,0.0,0.047,0.117,0.061,0.019,0.007,0.0,0.0
saturday,leisure,10.0,0.0,0.009,0.047,0.091,0.038,0.023,0.001,0.0
saturday,leisure,20.0,0.0,0.0,0.003,0.036,0.067,0.052,0.01,0.0
saturday,leisure,50.0,0.0,0.0,0.0,0.0,0.012,0.074,0.044,0.0
saturday,leisure,100.0,0.0,0.0,0.0,0.0,0.0,0.0,0.011,0.032
saturday,leisure,200.0,0.0,0.0,0.0,0.0,0.0,0.0,0.0,0.061
sunday,leisure,0.5,0.0,0.003,0.004,0.0,0.0,0.0,0.0,0.0
sunday,leisure,1.0,0.009,0.016,0.004,0.001,0.0,0.0,0.0,0.0
sunday,leisure,2.0,0.01,0.031,0.024,0.014,0.002,0.0,0.0,0.0
sunday,leisure,5.0,0.0,0.059,0.107,0.069,0.013,0.01,0.0,0.0
sunday,leisure,10.0,0.0,0.005,0.047,0.096,0.03,0.018,0.004,0.0
sunday,leisure,20.0,0.0,0.0,0.008,0.032,0.076,0.068,0.005,0.0
sunday,leisure,50.0,0.0,0.0,0.0,0.0,0.024,0.076,0.033,0.0
sunday,leisure,100.0,0.0,0.0,0.0,0.0,0.0,0.0,0.016,0.044
sunday,leisure,200.0,0.0,0.0,0.0,0.0,0.0,0.0,0.0,0.039
saturday,errands,0.5,0.011,0.019,0.005,0.0,0.0,0.0,0.0,0.0
saturday,errands,1.0,0.016,0.051,0.016,0.002,0.0,0.0,0.0,0.0
saturday,errands,2.0,0.013,0.097,0.06,0.012,0.004,0.0,0.0,0.0
saturday,errands,5.0,0.0,0.086,0.156,0.08,0.019,0.012,0.0,0.0
saturday,errands,10.0,0.0,0.009,0.048,0.069,0.036,0.013,0.001,0.0
saturday,errands,20.0,0.0,0.0,0.005,0.017,0.041,0.03,0.005,0.0
saturday,errands,50.0,0.0,0.0,0.0,0.0,0.011,0.027,0.011,0.0
saturday,errands,100.0,0.0,0.0,0.0,0.0,0.0,0.0,0.004,0.007
saturday,errands,200.0,0.0,0.0,0.0,0.0,0.0,0.0,0.0,0.008
sunday,errands,0.5,0.003,0.01,0.004,0.0,0.0,0.0,0.0,0.0
sunday,errands,1.0,0.013,0.028,0.006,0.003,0.0,0.0,0.0,0.0
sunday,errands,2.0,0.016,0.058,0.044,0.012,0.005,0.0,0.0,0.0
sunday,errands,5.0,0.0,0.074,0.126,0.067,0.015,0.007,0.0,0.0
sunday,errands,10.0,0.0,0.009,0.066,0.081,0.035,0.019,0.001,0.0
sunday,errands,20.0,0.0,0.0,0.007,0.028,0.065,0.046,0.004,0.0
sunday,errands,50.0,0.0,0.0,0.0,0.0,0.016,0.058,0.016,0.0
sunday,errands,100.0,0.0,0.0,0.0,0.0,0.0,0.0,0.006,0.022
sunday,errands,200.0,0.0,0.0,0.0,0.0,0.0,0.0,0.0,0.027
