days,destination,km,5,10,15,20,30,45,60,120
weekday,home,0.5,0.002,0.008,0.002,0.0,0.0,0.0,0.0,0.0
weekday,home,1.0,0.005,0.027,0.014,0.004,0.0,0.0,0.0,0.0
weekday,home,2.0,0.004,0.039,0.045,0.018,0.004,0.0,0.0,0.0
weekday,home,5.0,0.0,0.03,0.099,0.1,0.039,0.016,0.0,0.0
weekday,home,10.0,0.0,0.002,0.022,0.068,0.089,0.059,0.007,0.0
weekday,home,20.0,0.0,0.0,0.001,0.014,0.051,0.092,0.025,0.0
weekday,home,50.0,0.0,0.0,0.0,0.0,0.008,0.043,0.03,0.0
weekday,home,100.0,0.0,0.0,0.0,0.0,0.0,0.0,0.007,0.02
weekday,home,200.0,0.0,0.0,0.0,0.0,0.0,0.0,0.0,0.008
weekday,work,0.5,0.001,0.002,0.001,0.0,0.0,0.0,0.0,0.0
weekday,work,1.0,0.001,0.008,0.004,0.001,0.0,0.0,0.0,0.0
weekday,work,2.0,0.002,0.013,0.017,0.009,0.003,0.0,0.0,0.0
weekday,work,5.0,0.0,0.013,0.06,0.072,0.034,0.013,0.0,0.0
weekday,work,10.0,0.0,0.001,0.018,0.071,0.104,0.063,0.005,0.0
weekday,work,20.0,0.0,0.0,0.001,0.017,0.094,0.145,0.034,0.0
weekday,work,50.0,0.0,0.0,0.0,0.0,0.016,0.087,0.044,0.0
weekday,work,100.0,0.0,0.0,0.0,0.0,0.0,0.0,0.012,0.024
weekday,work,200.0,0.0,0.0,0.0,0.0,0.0,0.0,0.0,0.008
weekday,leisure,0.5,0.001,0.003,0.002,0.0,0.0,0.0,0.0,0.0
weekday,leisure,1.0,0.004,0.014,0.01,0.004,0.0,0.0,0.0,0.0
weekday,leisure,2.0,0.001,0.036,0.036,0.019,0.005,0.0,0.0,0.0
weekday,leisure,5.0,0.0,0.029,0.093,0.113,0.041,0.015,0.0,0.0
weekday,leisure,10.0,0.0,0.002,0.027,0.083,0.082,0.055,0.006,0.0
weekday,leisure,20.0,0.0,0.0,0.002,0.014,0.058,0.078,0.021,0.0
weekday,leisure,50.0,0.0,0.0,0.0,0.0,0.009,0.046,0.03,0.0
weekday,leisure,100.0,0.0,0.0,0.0,0.0,0.0,0.0,0.009,0.032
weekday,leisure,200.0,0.0,0.0,0.0,0.0,0.0,0.0,0.0,0.02
weekday,errands,0.5,0.004,0.015,0.005,0.0,0.0,0.0,0.0,0.0
weekday,errands,1.0,0.007,0.044,0.019,0.007,0.0,0.0,0.0,0.0
weekday,errands,2.0,0.007,0.064,0.066,0.021,0.004,0.0,0.0,0.0
weekday,errands,5.0,0.0,0.045,0.129,0.113,0.045,0.014,0.0,0.0
weekday,errands,10.0,0.0,0.002,0.026,0.066,0.077,0.049,0.005,0.0
weekday,errands,20.0,0.0,0.0,0.002,0.01,0.036,0.054,0.013,0.0
weekday,errands,50.0,0.0,0.0,0.0,0.0,0.005,0.023,0.012,0.0
weekday,errands,100.0,0.0,0.0,0.0,0.0,0.0,0.0,0.002,0.007
weekday,errands,200.0,0.0,0.0,0.0,0.0,0.0,0.0,0.0,0.002
saturday,home,0.5,0.004,0.008,0.001,0.0,0.0,0.0,0.0,0.0
saturday,home,1.0,0.004,0.027,0.014,0.003,0.0,0.0,0.0,0.0
saturday,home,2.0,0.006,0.058,0.044,0.014,0.004,0.0,0.0,0.0
saturday,home,5.0,0.0,0.047,0.114,0.109,0.025,0.018,0.0,0.0
saturday,home,10.0,0.0,0.002,0.027,0.077,0.067,0.034,0.001,0.0
saturday,home,20.0,0.0,0.0,0.002,0.015,0.046,0.064,0.008,0.0
saturday,home,50.0,0.0,0.0,0.0,0.0,0.011,0.057,0.015,0.0
saturday,home,100.0,0.0,0.0,0.0,0.0,0.0,0.0,0.011,0.029
saturday,home,200.0,0.0,0.0,0.0,0.0,0.0,0.0,0.0,0.034
sunday,home,0.5,0.001,0.001,0.001,0.0,0.0,0.0,0.0,0.0
sunday,home,1.0,0.001,0.015,0.005,0.001,0.0,0.0,0.0,0.0
sunday,home,2.0,0.004,0.025,0.021,0.009,0.003,0.0,0.0,0.0
sunday,home,5.0,0.0,0.033,0.08,0.068,0.029,0.009,0.0,0.0
sunday,home,10.0,0.0,0.003,0.023,0.059,0.08,0.054,0.005,0.0
sunday,home,20.0,0.0,0.0,0.001,0.019,0.066,0.076,0.009,0.0
sunday,home,50.0,0.0,0.0,0.0,0.0,0.007,0.074,0.038,0.0
sunday,home,100.0,0.0,0.0,0.0,0.0,0.0,0.0,0.011,0.067
sunday,home,200.0,0.0,0.0,0.0,0.0,0.0,0.0,0.0,0.103
saturday,work,0.5,0.005,0.0,0.0,0.0,0.0,0.0,0.0,0.0
saturday,work,1.0,0.005,0.028,0.009,0.0,0.0,0.0,0.0,0.0
saturday,work,2.0,0.009,0.023,0.023,0.009,0.0,0.0,0.0,0.0
saturday,work,5.0,0.0,0.037,0.061,0.061,0.023,0.019,0.0,0.0
saturday,work,10.0,0.0,0.0,0.023,0.089,0.103,0.033,0.005,0.0
saturday,work,20.0,0.0,0.0,0.0,0.014,0.093,0.093,0.014,0.0
saturday,work,50.0,0.0,0.0,0.0,0.0,0.033,0.084,0.037,0.0
saturday,work,100.0,0.0,0.0,0.0,0.0,0.0,0.0,0.005,0.033
saturday,work,200.0,0.0,0.0,0.0,0.0,0.0,0.0,0.0,0.028
sunday,work,0.5,0.0,0.01,0.0,0.0,0.0,0.0,0.0,0.0
sunday,work,1.0,0.0,0.01,0.0,0.02,0.0,0.0,0.0,0.0
sunday,work,2.0,0.01,0.0,0.029,0.0,0.01,0.0,0.0,0.0
sunday,work,5.0,0.0,0.0,0.049,0.118,0.029,0.01,0.0,0.0
sunday,work,10.0,0.0,0.02,0.059,0.059,0.039,0.029,0.0,0.0
sunday,work,20.0,0.0,0.0,0.0,0.029,0.108,0.098,0.01,0.0
sunday,work,50.0,0.0,0.0,0.0,0.0,0.059,0.078,0.01,0.0
sunday,work,100.0,0.0,0.0,0.0,0.0,0.0,0.0,0.01,0.029
sunday,work,200.0,0.0,0.0,0.0,0.0,0.0,0.0,0.0,0.069
saturday,leisure,0.5,0.0,0.001,0.0,0.0,0.0,0.0,0.0,0.0
saturday,leisure,1.0,0.001,0.015,0.008,0.005,0.0,0.0,0.0,0.0
saturday,leisure,2.0,0.003,0.025,0.014,0.007,0.001,0.0,0.0,0.0
saturday,leisure,5.0,0.0,0.032,0.083,0.056,0.04,0.011,0.0,0.0
saturday,leisure,10.0,0.0,0.002,0.022,0.059,0.075,0.034,0.003,0.0
saturday,leisure,20.0,0.0,0.0,0.003,0.016,0.062,0.097,0.02,0.0
saturday,leisure,50.0,0.0,0.0,0.0,0.0,0.018,0.09,0.038,0.0
saturday,leisure,100.0,0.0,0.0,0.0,0.0,0.0,0.0,0.013,0.055
saturday,leisure,200.0,0.0,0.0,0.0,0.0,0.0,0.0,0.0,0.088
sunday,leisure,0.5,0.001,0.001,0.0,0.0,0.0,0.0,0.0,0.0
sunday,leisure,1.0,0.0,0.006,0.004,0.0,0.0,0.0,0.0,0.0
sunday,leisure,2.0,0.003,0.017,0.021,0.011,0.003,0.0,0.0,0.0
sunday,leisure,5.0,0.0,0.026,0.079,0.073,0.028,0.011,0.0,0.0
sunday,leisure,10.0,0.0,0.005,0.026,0.065,0.071,0.054,0.001,0.0
sunday,leisure,20.0,0.0,0.0,0.001,0.019,0.074,0.094,0.015,0.0
sunday,leisure,50.0,0.0,0.0,0.0,0.0,0.008,0.08,0.055,0.0
sunday,leisure,100.0,0.0,0.0,0.0,0.0,0.0,0.0,0.014,0.066
sunday,leisure,200.0,0.0,0.0,0.0,0.0,0.0,0.0,0.0,0.067
saturday,errands,0.5,0.006,0.013,0.002,0.0,0.0,0.0,0.0,0.0
saturday,errands,1.0,0.009,0.046,0.014,0.003,0.0,0.0,0.0,0.0
saturday,errands,2.0,0.008,0.08,0.054,0.021,0.005,0.0,0.0,0.0
saturday,errands,5.0,0.0,0.063,0.143,0.103,0.03,0.016,0.0,0.0
saturday,errands,10.0,0.0,0.002,0.037,0.078,0.064,0.031,0.002,0.0
saturday,errands,20.0,0.0,0.0,0.003,0.014,0.035,0.043,0.007,0.0
saturday,errands,50.0,0.0,0.0,0.0,0.0,0.007,0.023,0.009,0.0
saturday,errands,100.0,0.0,0.0,0.0,0.0,0.0,0.0,0.004,0.013
saturday,errands,200.0,0.0,0.0,0.0,0.0,0.0,0.0,0.0,0.012
sunday,errands,0.5,0.001,0.004,0.0,0.0,0.0,0.0,0.0,0.0
sunday,errands,1.0,0.003,0.032,0.014,0.003,0.0,0.0,0.0,0.0
sunday,errands,2.0,0.013,0.037,0.042,0.013,0.003,0.0,0.0,0.0
sunday,errands,5.0,0.0,0.056,0.097,0.087,0.028,0.014,0.0,0.0
sunday,errands,10.0,0.0,0.003,0.025,0.07,0.093,0.045,0.006,0.0
sunday,errands,20.0,0.0,0.0,0.004,0.022,0.058,0.06,0.02,0.0
sunday,errands,50.0,0.0,0.0,0.0,0.0,0.013,0.032,0.022,0.0
sunday,errands,100.0,0.0,0.0,0.0,0.0,0.0,0.0,0.007,0.042
sunday,errands,200.0,0.0,0.0,0.0,0.0,0.0,0.0,0.0,0.031
