days,time,work,errands,leisure,home
saturday,0.0,0.0,0.0,0.0,0.0
saturday,0.0833333333333333,0.0,0.0,0.0,0.0
saturday,0.1666666666666666,0.0,0.0001655903295247,0.0001655903295247,0.000662361318099
saturday,0.25,0.0,0.0,0.0,0.0003311806590495
saturday,0.3333333333333333,0.0,0.0,0.0,0.0
saturday,0.4166666666666666,0.0,0.0,0.0,0.0
saturday,0.5,0.0,0.0,0.0,0.0004967709885742
saturday,0.5833333333333333,0.0,0.0,0.0,0.0
saturday,0.6666666666666666,0.0,0.0,0.0,0.0001655903295247
saturday,0.75,0.0,0.0,0.0,0.0001655903295247
saturday,0.8333333333333333,0.0,0.0,0.0,0.0
saturday,0.9166666666666666,0.0,0.0,0.0,0.0001655903295247
saturday,1.0,0.0,0.0,0.0,0.0003311806590495
saturday,1.0833333333333333,0.0,0.0,0.0,0.0
saturday,1.1666666666666663,0.0,0.0,0.0,0.0
saturday,1.25,0.0,0.0,0.0,0.0
saturday,1.3333333333333333,0.0,0.0,0.0,0.0001655903295247
saturday,1.4166666666666663,0.0,0.0,0.0,0.0
saturday,1.5,0.0,0.0,0.0,0.000662361318099
saturday,1.5833333333333333,0.0,0.0,0.0,0.0
saturday,1.6666666666666663,0.0,0.0,0.0,0.0
saturday,1.75,0.0001655903295247,0.0,0.0,0.0001655903295247
saturday,1.8333333333333333,0.0,0.0,0.0,0.0
saturday,1.9166666666666663,0.0,0.0,0.0,0.0
saturday,2.0,0.0,0.0,0.0,0.0
saturday,2.083333333333333,0.0,0.0,0.0,0.0
saturday,2.1666666666666665,0.0,0.0,0.0,0.0
saturday,2.25,0.0,0.0,0.0,0.0
saturday,2.333333333333333,0.0,0.0,0.0,0.0
saturday,2.4166666666666665,0.0,0.0,0.0,0.0
saturday,2.5,0.0003311806590495,0.0,0.0,0.0001655903295247
saturday,2.583333333333333,0.0,0.0,0.0,0.0
saturday,2.6666666666666665,0.0,0.0,0.0,0.0
saturday,2.75,0.0,0.0,0.0,0.0
saturday,2.833333333333333,0.0,0.0,0.0,0.0
saturday,2.9166666666666665,0.0,0.0,0.0,0.0
saturday,3.0,0.0,0.0,0.0,0.0
saturday,3.083333333333333,0.0,0.0,0.0,0.0
saturday,3.1666666666666665,0.0,0.0,0.0,0.0001655903295247
saturday,3.25,0.0,0.0,0.0,0.0
saturday,3.333333333333333,0.0,0.0,0.0,0.0
saturday,3.4166666666666665,0.0,0.0,0.0,0.0
saturday,3.5,0.0001655903295247,0.0001655903295247,0.0,0.0
saturday,3.583333333333333,0.0,0.0,0.0,0.0
saturday,3.6666666666666665,0.0,0.0,0.0,0.0
saturday,3.75,0.0,0.0,0.0,0.0
saturday,3.833333333333333,0.0,0.0,0.0,0.0
saturday,3.9166666666666665,0.0,0.0,0.0,0.0
saturday,4.0,0.0001655903295247,0.0,0.0001655903295247,0.0001655903295247
saturday,4.083333333333333,0.0001655903295247,0.0,0.0,0.0
saturday,4.166666666666666,0.0001655903295247,0.0,0.0,0.0
saturday,4.25,0.0,0.0,0.0,0.0
saturday,4.333333333333333,0.0001655903295247,0.0,0.0,0.0
saturday,4.416666666666666,0.0,0.0,0.0,0.0
saturday,4.5,0.0004967709885742,0.0,0.0001655903295247,0.0
saturday,4.583333333333333,0.0,0.0,0.0,0.0
saturday,4.666666666666666,0.0,0.0,0.0,0.0
saturday,4.75,0.0003311806590495,0.0,0.0,0.0
saturday,4.833333333333333,0.0003311806590495,0.0,0.0,0.0
saturday,4.916666666666666,0.0,0.0,0.0,0.0
saturday,5.0,0.0009935419771485,0.0,0.0,0.0001655903295247
saturday,5.083333333333333,0.0001655903295247,0.0,0.0,0.0
saturday,5.166666666666666,0.0004967709885742,0.0,0.0,0.0
saturday,5.25,0.0001655903295247,0.0,0.0,0.0
saturday,5.333333333333333,0.0001655903295247,0.0,0.0,0.0
saturday,5.416666666666666,0.0,0.0,0.0,0.0
saturday,5.5,0.0008279516476237,0.0,0.0001655903295247,0.0
saturday,5.583333333333333,0.0001655903295247,0.0,0.0003311806590495,0.0
saturday,5.666666666666666,0.0003311806590495,0.0,0.0,0.0001655903295247
saturday,5.75,0.0001655903295247,0.0,0.0001655903295247,0.0001655903295247
saturday,5.833333333333333,0.0001655903295247,0.0,0.0001655903295247,0.0
saturday,5.916666666666666,0.0,0.0,0.0,0.0
saturday,6.0,0.0008279516476237,0.000662361318099,0.0004967709885742,0.0001655903295247
saturday,6.083333333333333,0.0,0.0,0.0,0.0
saturday,6.166666666666666,0.0001655903295247,0.0,0.0,0.0
saturday,6.25,0.0003311806590495,0.0001655903295247,0.0001655903295247,0.0
saturday,6.333333333333333,0.0001655903295247,0.0,0.0,0.0
saturday,6.416666666666666,0.0001655903295247,0.0,0.0,0.0
saturday,6.5,0.0011591323066732,0.0008279516476237,0.0003311806590495,0.0
saturday,6.583333333333333,0.0,0.0,0.0,0.0
saturday,6.666666666666666,0.0001655903295247,0.0004967709885742,0.0001655903295247,0.0003311806590495
saturday,6.75,0.0004967709885742,0.0008279516476237,0.0001655903295247,0.0004967709885742
saturday,6.833333333333333,0.0003311806590495,0.0001655903295247,0.0003311806590495,0.0
saturday,6.916666666666666,0.0001655903295247,0.0001655903295247,0.0,0.0
saturday,7.0,0.001324722636198,0.0011591323066732,0.0001655903295247,0.0001655903295247
saturday,7.083333333333333,0.0004967709885742,0.0001655903295247,0.0,0.0004967709885742
saturday,7.166666666666666,0.0,0.0001655903295247,0.0001655903295247,0.0001655903295247
saturday,7.25,0.0003311806590495,0.000662361318099,0.0,0.0003311806590495
saturday,7.333333333333333,0.0,0.0004967709885742,0.0001655903295247,0.0
saturday,7.416666666666666,0.0,0.0001655903295247,0.0003311806590495,0.0
saturday,7.5,0.0003311806590495,0.0044709388971684,0.0003311806590495,0.0004967709885742
saturday,7.583333333333333,0.0001655903295247,0.0,0.0004967709885742,0.0003311806590495
saturday,7.666666666666666,0.0001655903295247,0.0004967709885742,0.0001655903295247,0.0001655903295247
saturday,7.75,0.001324722636198,0.001987083954297,0.0,0.0011591323066732
saturday,7.833333333333333,0.0001655903295247,0.0008279516476237,0.0003311806590495,0.0003311806590495
saturday,7.916666666666666,0.0001655903295247,0.0009935419771485,0.0,0.0
saturday,8.0,0.001987083954297,0.007451564828614,0.0018214936247723,0.0014903129657228
saturday,8.083333333333332,0.0,0.0011591323066732,0.0001655903295247,0.0003311806590495
saturday,8.166666666666666,0.0,0.001987083954297,0.000662361318099,0.0008279516476237
saturday,8.25,0.0003311806590495,0.002649445272396,0.0008279516476237,0.0011591323066732
saturday,8.333333333333332,0.0003311806590495,0.0014903129657228,0.0001655903295247,0.0009935419771485
saturday,8.416666666666666,0.0,0.0001655903295247,0.0003311806590495,0.0008279516476237
saturday,8.5,0.0008279516476237,0.0066236131809902,0.001324722636198,0.002649445272396
saturday,8.583333333333332,0.0,0.0014903129657228,0.0003311806590495,0.0011591323066732
saturday,8.666666666666666,0.000662361318099,0.0008279516476237,0.0001655903295247,0.000662361318099
saturday,8.75,0.0004967709885742,0.0033118065904951,0.0009935419771485,0.0023182646133465
saturday,8.833333333333332,0.0,0.001987083954297,0.0001655903295247,0.0016559032952475
saturday,8.916666666666666,0.0001655903295247,0.0009935419771485,0.0,0.000662361318099
saturday,9.0,0.001987083954297,0.0122536843848319,0.0028150356019208,0.0036429872495446
saturday,9.083333333333332,0.0,0.0024838549428713,0.0001655903295247,0.0009935419771485
saturday,9.166666666666666,0.0001655903295247,0.001987083954297,0.000662361318099,0.0011591323066732
saturday,9.25,0.0003311806590495,0.0041397582381188,0.001324722636198,0.0014903129657228
saturday,9.333333333333332,0.0001655903295247,0.0018214936247723,0.000662361318099,0.0011591323066732
saturday,9.416666666666666,0.0001655903295247,0.0011591323066732,0.0003311806590495,0.000662361318099
saturday,9.5,0.0008279516476237,0.0139095876800794,0.0029806259314456,0.0038085775790693
saturday,9.583333333333332,0.0,0.0008279516476237,0.000662361318099,0.000662361318099
saturday,9.666666666666666,0.0001655903295247,0.0021526742838218,0.0008279516476237,0.0008279516476237
saturday,9.75,0.0004967709885742,0.0059612518628912,0.0021526742838218,0.0014903129657228
saturday,9.833333333333332,0.0001655903295247,0.0018214936247723,0.000662361318099,0.0024838549428713
saturday,9.916666666666666,0.0,0.001324722636198,0.0001655903295247,0.000662361318099
saturday,10.0,0.0011591323066732,0.0208643815201192,0.0048021195562179,0.0041397582381188
saturday,10.083333333333332,0.0,0.0021526742838218,0.0,0.0016559032952475
saturday,10.166666666666666,0.0001655903295247,0.002649445272396,0.0004967709885742,0.0009935419771485
saturday,10.25,0.0003311806590495,0.0069547938400397,0.0018214936247723,0.0038085775790693
saturday,10.333333333333332,0.0001655903295247,0.0021526742838218,0.0011591323066732,0.0023182646133465
saturday,10.416666666666666,0.0,0.001324722636198,0.0,0.0008279516476237
saturday,10.5,0.0001655903295247,0.0120880940553071,0.0029806259314456,0.0041397582381188
saturday,10.583333333333332,0.0,0.001324722636198,0.0003311806590495,0.001324722636198
saturday,10.666666666666666,0.0003311806590495,0.0016559032952475,0.0003311806590495,0.002649445272396
saturday,10.75,0.0001655903295247,0.0051333002152674,0.0018214936247723,0.0038085775790693
saturday,10.833333333333332,0.0,0.0023182646133465,0.0004967709885742,0.0036429872495446
saturday,10.916666666666666,0.0,0.0009935419771485,0.0001655903295247,0.0009935419771485
saturday,11.0,0.000662361318099,0.0142407683391289,0.0039741679085941,0.0089418777943368
saturday,11.083333333333332,0.0003311806590495,0.0021526742838218,0.0001655903295247,0.0009935419771485
saturday,11.166666666666666,0.0,0.0039741679085941,0.0008279516476237,0.0018214936247723
saturday,11.25,0.0004967709885742,0.0052988905447921,0.000662361318099,0.0031462162609703
saturday,11.333333333333332,0.0001655903295247,0.001987083954297,0.0,0.0016559032952475
saturday,11.416666666666666,0.0,0.0016559032952475,0.0003311806590495,0.0018214936247723
saturday,11.5,0.0009935419771485,0.0096042391124358,0.0023182646133465,0.0062924325219407
saturday,11.583333333333332,0.0,0.0018214936247723,0.0,0.0011591323066732
saturday,11.666666666666666,0.0003311806590495,0.0021526742838218,0.000662361318099,0.002649445272396
saturday,11.75,0.0003311806590495,0.0043053485676436,0.0009935419771485,0.0018214936247723
saturday,11.833333333333332,0.0003311806590495,0.0033118065904951,0.0003311806590495,0.0031462162609703
saturday,11.916666666666666,0.0001655903295247,0.0009935419771485,0.0003311806590495,0.0011591323066732
saturday,12.0,0.0009935419771485,0.0089418777943368,0.002649445272396,0.0077827454876635
saturday,12.083333333333332,0.0,0.0016559032952475,0.0,0.0028150356019208
saturday,12.166666666666666,0.0001655903295247,0.0016559032952475,0.000662361318099,0.0024838549428713
saturday,12.25,0.0003311806590495,0.0036429872495446,0.0008279516476237,0.0057956615333664
saturday,12.333333333333332,0.0001655903295247,0.0021526742838218,0.0008279516476237,0.0014903129657228
saturday,12.416666666666666,0.0,0.0004967709885742,0.0009935419771485,0.0016559032952475
saturday,12.5,0.000662361318099,0.0059612518628912,0.0021526742838218,0.0061268421924159
saturday,12.583333333333332,0.0,0.0018214936247723,0.0003311806590495,0.0009935419771485
saturday,12.666666666666666,0.0,0.0021526742838218,0.0009935419771485,0.0016559032952475
saturday,12.75,0.0003311806590495,0.0039741679085941,0.000662361318099,0.0031462162609703
saturday,12.833333333333332,0.0001655903295247,0.0009935419771485,0.0003311806590495,0.001987083954297
saturday,12.916666666666666,0.0,0.000662361318099,0.0001655903295247,0.0009935419771485
saturday,13.0,0.000662361318099,0.0109289617486338,0.0031462162609703,0.0084451068057625
saturday,13.083333333333332,0.0,0.001324722636198,0.000662361318099,0.0008279516476237
saturday,13.166666666666666,0.0,0.0016559032952475,0.0008279516476237,0.0021526742838218
saturday,13.25,0.000662361318099,0.0023182646133465,0.0008279516476237,0.0033118065904951
saturday,13.333333333333332,0.0,0.0011591323066732,0.0004967709885742,0.001987083954297
saturday,13.416666666666666,0.0,0.0008279516476237,0.0003311806590495,0.0009935419771485
saturday,13.5,0.0003311806590495,0.0062924325219407,0.0028150356019208,0.0067892035105149
saturday,13.583333333333332,0.0,0.0009935419771485,0.0,0.001324722636198
saturday,13.666666666666666,0.0,0.0018214936247723,0.0001655903295247,0.0028150356019208
saturday,13.75,0.0,0.0028150356019208,0.000662361318099,0.0016559032952475
saturday,13.833333333333332,0.0,0.001324722636198,0.0004967709885742,0.001324722636198
saturday,13.916666666666666,0.0,0.0003311806590495,0.0001655903295247,0.0008279516476237
saturday,14.0,0.0004967709885742,0.0127504553734061,0.0082795164762377,0.0076171551581387
saturday,14.083333333333332,0.0,0.0011591323066732,0.0004967709885742,0.000662361318099
saturday,14.166666666666666,0.0,0.001324722636198,0.0011591323066732,0.001987083954297
saturday,14.25,0.0001655903295247,0.0018214936247723,0.0004967709885742,0.0043053485676436
saturday,14.333333333333332,0.0,0.001324722636198,0.0008279516476237,0.001987083954297
saturday,14.416666666666666,0.0,0.0004967709885742,0.0003311806590495,0.001324722636198
saturday,14.5,0.0003311806590495,0.0059612518628912,0.0033118065904951,0.0049677098857426
saturday,14.583333333333332,0.0,0.0003311806590495,0.0,0.001324722636198
saturday,14.666666666666666,0.0001655903295247,0.0004967709885742,0.0003311806590495,0.0021526742838218
saturday,14.75,0.0001655903295247,0.0016559032952475,0.0018214936247723,0.0023182646133465
saturday,14.833333333333332,0.0003311806590495,0.0011591323066732,0.0001655903295247,0.0016559032952475
saturday,14.916666666666666,0.0,0.0004967709885742,0.0003311806590495,0.0009935419771485
saturday,15.0,0.0001655903295247,0.0059612518628912,0.0054644808743169,0.0069547938400397
saturday,15.083333333333332,0.0,0.001324722636198,0.0001655903295247,0.0011591323066732
saturday,15.166666666666666,0.0,0.001324722636198,0.0009935419771485,0.0021526742838218
saturday,15.25,0.0001655903295247,0.0014903129657228,0.0009935419771485,0.0029806259314456
saturday,15.333333333333332,0.0,0.0018214936247723,0.000662361318099,0.0003311806590495
saturday,15.416666666666666,0.0,0.0008279516476237,0.0001655903295247,0.0008279516476237
saturday,15.5,0.0001655903295247,0.0051333002152674,0.0039741679085941,0.0059612518628912
saturday,15.583333333333332,0.0,0.0004967709885742,0.0,0.0014903129657228
saturday,15.666666666666666,0.0,0.0023182646133465,0.0001655903295247,0.000662361318099
saturday,15.75,0.0004967709885742,0.0014903129657228,0.0016559032952475,0.0023182646133465
saturday,15.833333333333332,0.0,0.0011591323066732,0.0004967709885742,0.001324722636198
saturday,15.916666666666666,0.0,0.0003311806590495,0.0004967709885742,0.001324722636198
saturday,16.0,0.0003311806590495,0.0069547938400397,0.0038085775790693,0.008776287464812
saturday,16.083333333333332,0.0,0.0009935419771485,0.0,0.0008279516476237
saturday,16.166666666666664,0.0,0.0018214936247723,0.0009935419771485,0.001987083954297
saturday,16.25,0.0001655903295247,0.001324722636198,0.0016559032952475,0.0038085775790693
saturday,16.333333333333332,0.0,0.0003311806590495,0.0003311806590495,0.0014903129657228
saturday,16.416666666666664,0.0,0.0008279516476237,0.0,0.001324722636198
saturday,16.5,0.0001655903295247,0.0036429872495446,0.0029806259314456,0.0077827454876635
saturday,16.583333333333332,0.0,0.0001655903295247,0.0003311806590495,0.0003311806590495
saturday,16.666666666666664,0.0001655903295247,0.000662361318099,0.0001655903295247,0.0023182646133465
saturday,16.75,0.0,0.0033118065904951,0.0011591323066732,0.0023182646133465
saturday,16.833333333333332,0.0,0.000662361318099,0.000662361318099,0.0011591323066732
saturday,16.916666666666664,0.0,0.0008279516476237,0.0003311806590495,0.0008279516476237
saturday,17.0,0.000662361318099,0.0056300712038416,0.0043053485676436,0.0079483358171882
saturday,17.083333333333332,0.0,0.000662361318099,0.0003311806590495,0.0009935419771485
saturday,17.166666666666664,0.0,0.0018214936247723,0.0008279516476237,0.002649445272396
saturday,17.25,0.0,0.001324722636198,0.0009935419771485,0.0034773969200198
saturday,17.333333333333332,0.0,0.001324722636198,0.000662361318099,0.001987083954297
saturday,17.416666666666664,0.0001655903295247,0.0,0.0003311806590495,0.0014903129657228
saturday,17.5,0.0001655903295247,0.0033118065904951,0.0018214936247723,0.0044709388971684
saturday,17.583333333333332,0.0,0.0009935419771485,0.0001655903295247,0.0004967709885742
saturday,17.666666666666664,0.0,0.0009935419771485,0.0011591323066732,0.001324722636198
saturday,17.75,0.0,0.0021526742838218,0.0014903129657228,0.0031462162609703
saturday,17.833333333333332,0.0,0.0014903129657228,0.000662361318099,0.0016559032952475
saturday,17.916666666666664,0.0,0.0004967709885742,0.0003311806590495,0.000662361318099
saturday,18.0,0.0001655903295247,0.0046365292266931,0.0036429872495446,0.0062924325219407
saturday,18.08333333333333,0.0,0.000662361318099,0.0004967709885742,0.001987083954297
saturday,18.166666666666664,0.0,0.0008279516476237,0.0003311806590495,0.001324722636198
saturday,18.25,0.0,0.0014903129657228,0.0008279516476237,0.0033118065904951
saturday,18.33333333333333,0.0,0.000662361318099,0.001324722636198,0.0023182646133465
saturday,18.416666666666664,0.0,0.000662361318099,0.0,0.000662361318099
saturday,18.5,0.0001655903295247,0.0029806259314456,0.0029806259314456,0.0046365292266931
saturday,18.58333333333333,0.0,0.0008279516476237,0.0003311806590495,0.0001655903295247
saturday,18.666666666666664,0.0,0.0004967709885742,0.0004967709885742,0.0014903129657228
saturday,18.75,0.0,0.001324722636198,0.0014903129657228,0.002649445272396
saturday,18.83333333333333,0.0,0.0004967709885742,0.0011591323066732,0.0014903129657228
saturday,18.916666666666664,0.0,0.0003311806590495,0.0001655903295247,0.0018214936247723
saturday,19.0,0.0,0.0031462162609703,0.0024838549428713,0.0052988905447921
saturday,19.08333333333333,0.0001655903295247,0.0,0.000662361318099,0.001324722636198
saturday,19.166666666666664,0.0,0.0001655903295247,0.000662361318099,0.0009935419771485
saturday,19.25,0.0,0.0008279516476237,0.0014903129657228,0.0014903129657228
saturday,19.33333333333333,0.0,0.0,0.000662361318099,0.0008279516476237
saturday,19.416666666666664,0.0,0.0003311806590495,0.0003311806590495,0.000662361318099
saturday,19.5,0.0001655903295247,0.002649445272396,0.001324722636198,0.0034773969200198
saturday,19.58333333333333,0.0,0.0004967709885742,0.0,0.001324722636198
saturday,19.666666666666664,0.0,0.0001655903295247,0.0003311806590495,0.0014903129657228
saturday,19.75,0.0,0.0008279516476237,0.0004967709885742,0.0016559032952475
saturday,19.83333333333333,0.0001655903295247,0.0003311806590495,0.0003311806590495,0.0009935419771485
saturday,19.916666666666664,0.0,0.0,0.0001655903295247,0.0008279516476237
saturday,20.0,0.0,0.0014903129657228,0.0029806259314456,0.0046365292266931
saturday,20.08333333333333,0.0,0.0001655903295247,0.0004967709885742,0.0009935419771485
saturday,20.166666666666664,0.0001655903295247,0.0001655903295247,0.0003311806590495,0.000662361318099
saturday,20.25,0.0,0.000662361318099,0.0003311806590495,0.0009935419771485
saturday,20.33333333333333,0.0001655903295247,0.0,0.0001655903295247,0.000662361318099
saturday,20.416666666666664,0.0003311806590495,0.0001655903295247,0.0,0.0001655903295247
saturday,20.5,0.0,0.0001655903295247,0.0021526742838218,0.001324722636198
saturday,20.58333333333333,0.0,0.0004967709885742,0.0001655903295247,0.0004967709885742
saturday,20.666666666666664,0.0,0.0,0.0,0.0011591323066732
saturday,20.75,0.0,0.0003311806590495,0.0,0.0009935419771485
saturday,20.83333333333333,0.0,0.0001655903295247,0.0,0.0004967709885742
saturday,20.916666666666664,0.0,0.0,0.0,0.0003311806590495
saturday,21.0,0.0003311806590495,0.000662361318099,0.0009935419771485,0.0031462162609703
saturday,21.08333333333333,0.0,0.0,0.0,0.0009935419771485
saturday,21.166666666666664,0.0,0.0,0.0001655903295247,0.001324722636198
saturday,21.25,0.0001655903295247,0.0004967709885742,0.0,0.0008279516476237
saturday,21.33333333333333,0.0,0.0,0.0,0.0004967709885742
saturday,21.416666666666664,0.0001655903295247,0.0,0.0,0.0
saturday,21.5,0.0001655903295247,0.0004967709885742,0.0009935419771485,0.0018214936247723
saturday,21.58333333333333,0.0,0.0001655903295247,0.0,0.0004967709885742
saturday,21.666666666666664,0.0,0.0001655903295247,0.0,0.0001655903295247
saturday,21.75,0.0001655903295247,0.0,0.0004967709885742,0.0011591323066732
saturday,21.83333333333333,0.0,0.0,0.0,0.000662361318099
saturday,21.916666666666664,0.0,0.0003311806590495,0.0001655903295247,0.0009935419771485
saturday,22.0,0.0,0.0003311806590495,0.0003311806590495,0.0033118065904951
saturday,22.08333333333333,0.0,0.0,0.0,0.0004967709885742
saturday,22.166666666666664,0.0,0.0001655903295247,0.0,0.0009935419771485
saturday,22.25,0.0001655903295247,0.0,0.0,0.0021526742838218
saturday,22.33333333333333,0.0,0.0004967709885742,0.0,0.0003311806590495
saturday,22.416666666666664,0.0,0.0003311806590495,0.0,0.0
saturday,22.5,0.0,0.000662361318099,0.0004967709885742,0.0016559032952475
saturday,22.58333333333333,0.0,0.0001655903295247,0.0,0.0008279516476237
saturday,22.666666666666664,0.0,0.0003311806590495,0.0001655903295247,0.0009935419771485
saturday,22.75,0.0,0.0,0.0001655903295247,0.0014903129657228
saturday,22.83333333333333,0.0,0.0,0.0001655903295247,0.000662361318099
saturday,22.916666666666664,0.0,0.0001655903295247,0.0,0.0
saturday,23.0,0.0001655903295247,0.0,0.0001655903295247,0.0028150356019208
saturday,23.08333333333333,0.0,0.0001655903295247,0.0,0.0003311806590495
saturday,23.166666666666664,0.0,0.0,0.0,0.001324722636198
saturday,23.25,0.0,0.0003311806590495,0.0001655903295247,0.000662361318099
saturday,23.33333333333333,0.0,0.0001655903295247,0.0001655903295247,0.0004967709885742
saturday,23.416666666666664,0.0,0.0,0.0,0.0001655903295247
saturday,23.5,0.0,0.0,0.0,0.0011591323066732
saturday,23.58333333333333,0.0,0.0001655903295247,0.0,0.0003311806590495
saturday,23.666666666666664,0.0,0.0001655903295247,0.0,0.0008279516476237
saturday,23.75,0.0,0.0,0.0,0.0003311806590495
saturday,23.83333333333333,0.0,0.0,0.0,0.0
saturday,23.916666666666664,0.0,0.0,0.0,0.0
sunday,0.0,0.0,0.0,0.0,0.0
sunday,0.0833333333333333,0.0,0.0,0.0,0.0
sunday,0.1666666666666666,0.0,0.0,0.0,0.0005312084993359
sunday,0.25,0.0,0.0,0.0,0.0002656042496679
sunday,0.3333333333333333,0.0,0.0,0.0,0.0
sunday,0.4166666666666666,0.0,0.0,0.0,0.0
sunday,0.5,0.0,0.0,0.0002656042496679,0.0
sunday,0.5833333333333333,0.0,0.0,0.0,0.0
sunday,0.6666666666666666,0.0,0.0,0.0,0.0005312084993359
sunday,0.75,0.0,0.0,0.0,0.0
sunday,0.8333333333333333,0.0,0.0,0.0,0.0
sunday,0.9166666666666666,0.0,0.0,0.0002656042496679,0.0002656042496679
sunday,1.0,0.0,0.0002656042496679,0.0,0.0005312084993359
sunday,1.0833333333333333,0.0,0.0,0.0,0.0
sunday,1.1666666666666663,0.0,0.0,0.0,0.0002656042496679
sunday,1.25,0.0,0.0,0.0,0.0
sunday,1.3333333333333333,0.0,0.0,0.0,0.0
sunday,1.4166666666666663,0.0,0.0,0.0,0.0
sunday,1.5,0.0,0.0002656042496679,0.0,0.0005312084993359
sunday,1.5833333333333333,0.0,0.0,0.0,0.0
sunday,1.6666666666666663,0.0,0.0,0.0002656042496679,0.0002656042496679
sunday,1.75,0.0,0.0,0.0,0.0
sunday,1.8333333333333333,0.0,0.0,0.0,0.0
sunday,1.9166666666666663,0.0,0.0,0.0,0.0
sunday,2.0,0.0,0.0,0.0002656042496679,0.0005312084993359
sunday,2.083333333333333,0.0,0.0,0.0,0.0
sunday,2.1666666666666665,0.0,0.0,0.0,0.0
sunday,2.25,0.0002656042496679,0.0,0.0,0.0
sunday,2.333333333333333,0.0,0.0,0.0,0.0
sunday,2.4166666666666665,0.0,0.0,0.0,0.0
sunday,2.5,0.0,0.0002656042496679,0.0,0.0005312084993359
sunday,2.583333333333333,0.0,0.0,0.0,0.0002656042496679
sunday,2.6666666666666665,0.0,0.0,0.0,0.0
sunday,2.75,0.0,0.0,0.0,0.0
sunday,2.833333333333333,0.0,0.0,0.0,0.0
sunday,2.9166666666666665,0.0,0.0,0.0,0.0
sunday,3.0,0.0,0.0,0.0,0.0
sunday,3.083333333333333,0.0,0.0,0.0,0.0
sunday,3.1666666666666665,0.0,0.0,0.0,0.0
sunday,3.25,0.0,0.0,0.0,0.0
sunday,3.333333333333333,0.0,0.0,0.0,0.0
sunday,3.4166666666666665,0.0,0.0,0.0,0.0
sunday,3.5,0.0,0.0,0.0,0.0
sunday,3.583333333333333,0.0,0.0,0.0,0.0
sunday,3.6666666666666665,0.0,0.0,0.0,0.0
sunday,3.75,0.0,0.0,0.0,0.0
sunday,3.833333333333333,0.0,0.0,0.0,0.0
sunday,3.9166666666666665,0.0,0.0,0.0,0.0
sunday,4.0,0.0,0.0,0.0,0.0
sunday,4.083333333333333,0.0,0.0,0.0,0.0
sunday,4.166666666666666,0.0,0.0,0.0,0.0
sunday,4.25,0.0,0.0,0.0,0.0
sunday,4.333333333333333,0.0,0.0,0.0,0.0
sunday,4.416666666666666,0.0,0.0,0.0,0.0
sunday,4.5,0.0002656042496679,0.0,0.0,0.0
sunday,4.583333333333333,0.0,0.0,0.0002656042496679,0.0
sunday,4.666666666666666,0.0,0.0,0.0,0.0
sunday,4.75,0.0,0.0,0.0,0.0
sunday,4.833333333333333,0.0,0.0,0.0,0.0002656042496679
sunday,4.916666666666666,0.0,0.0,0.0,0.0
sunday,5.0,0.0002656042496679,0.0,0.0002656042496679,0.0
sunday,5.083333333333333,0.0,0.0,0.0,0.0
sunday,5.166666666666666,0.0,0.0,0.0,0.0
sunday,5.25,0.0005312084993359,0.0,0.0002656042496679,0.0
sunday,5.333333333333333,0.0005312084993359,0.0,0.0002656042496679,0.0
sunday,5.416666666666666,0.0,0.0,0.0,0.0
sunday,5.5,0.0015936254980079,0.0005312084993359,0.0005312084993359,0.0
sunday,5.583333333333333,0.0002656042496679,0.0,0.0,0.0
sunday,5.666666666666666,0.0002656042496679,0.0,0.0,0.0002656042496679
sunday,5.75,0.0002656042496679,0.0,0.0,0.0
sunday,5.833333333333333,0.0,0.0,0.0,0.0
sunday,5.916666666666666,0.0,0.0,0.0,0.0002656042496679
sunday,6.0,0.0,0.0,0.0005312084993359,0.0005312084993359
sunday,6.083333333333333,0.0,0.0,0.0,0.0
sunday,6.166666666666666,0.0,0.0,0.0,0.0007968127490039
sunday,6.25,0.0,0.0,0.0,0.0
sunday,6.333333333333333,0.0002656042496679,0.0,0.0,0.0
sunday,6.416666666666666,0.0,0.0,0.0002656042496679,0.0
sunday,6.5,0.0007968127490039,0.0,0.0,0.0002656042496679
sunday,6.583333333333333,0.0,0.0,0.0,0.0
sunday,6.666666666666666,0.0,0.0,0.0002656042496679,0.0
sunday,6.75,0.0002656042496679,0.0002656042496679,0.0,0.0005312084993359
sunday,6.833333333333333,0.0,0.0,0.0,0.0
sunday,6.916666666666666,0.0,0.0,0.0,0.0002656042496679
sunday,7.0,0.0007968127490039,0.0010624169986719,0.0007968127490039,0.0002656042496679
sunday,7.083333333333333,0.0,0.0,0.0,0.0
sunday,7.166666666666666,0.0,0.0002656042496679,0.0,0.0
sunday,7.25,0.0002656042496679,0.0002656042496679,0.0005312084993359,0.0
sunday,7.333333333333333,0.0,0.0002656042496679,0.0002656042496679,0.0002656042496679
sunday,7.416666666666666,0.0,0.0,0.0,0.0
sunday,7.5,0.0010624169986719,0.0010624169986719,0.0007968127490039,0.0
sunday,7.583333333333333,0.0002656042496679,0.0,0.0002656042496679,0.0002656042496679
sunday,7.666666666666666,0.0002656042496679,0.0,0.0,0.0
sunday,7.75,0.0,0.0005312084993359,0.0010624169986719,0.0002656042496679
sunday,7.833333333333333,0.0002656042496679,0.0,0.0,0.0005312084993359
sunday,7.916666666666666,0.0,0.0,0.0002656042496679,0.0
sunday,8.0,0.0005312084993359,0.0037184594953519,0.0023904382470119,0.0007968127490039
sunday,8.083333333333332,0.0,0.0005312084993359,0.0,0.0
sunday,8.166666666666666,0.0002656042496679,0.0005312084993359,0.0005312084993359,0.0007968127490039
sunday,8.25,0.0005312084993359,0.0005312084993359,0.0005312084993359,0.0005312084993359
sunday,8.333333333333332,0.0,0.0007968127490039,0.0002656042496679,0.0010624169986719
sunday,8.416666666666666,0.0,0.0002656042496679,0.0002656042496679,0.0
sunday,8.5,0.0005312084993359,0.0047808764940239,0.0021248339973439,0.0021248339973439
sunday,8.583333333333332,0.0,0.0005312084993359,0.0007968127490039,0.0005312084993359
sunday,8.666666666666666,0.0007968127490039,0.0002656042496679,0.0005312084993359,0.0002656042496679
sunday,8.75,0.0005312084993359,0.0005312084993359,0.0015936254980079,0.0015936254980079
sunday,8.833333333333332,0.0002656042496679,0.0005312084993359,0.0002656042496679,0.0015936254980079
sunday,8.916666666666666,0.0,0.0002656042496679,0.0007968127490039,0.0
sunday,9.0,0.0002656042496679,0.0055776892430278,0.0077025232403718,0.0021248339973439
sunday,9.083333333333332,0.0,0.0007968127490039,0.0005312084993359,0.0013280212483399
sunday,9.166666666666666,0.0002656042496679,0.0005312084993359,0.0010624169986719,0.0021248339973439
sunday,9.25,0.0,0.0023904382470119,0.0026560424966799,0.0007968127490039
sunday,9.333333333333332,0.0002656042496679,0.0013280212483399,0.0005312084993359,0.0021248339973439
sunday,9.416666666666666,0.0002656042496679,0.0005312084993359,0.0007968127490039,0.0002656042496679
sunday,9.5,0.0005312084993359,0.0050464807436918,0.0069057104913678,0.0018592297476759
sunday,9.583333333333332,0.0,0.0,0.0013280212483399,0.0002656042496679
sunday,9.666666666666666,0.0002656042496679,0.0010624169986719,0.0013280212483399,0.0010624169986719
sunday,9.75,0.0,0.0026560424966799,0.0023904382470119,0.0010624169986719
sunday,9.833333333333332,0.0002656042496679,0.0013280212483399,0.0015936254980079,0.0010624169986719
sunday,9.916666666666666,0.0,0.0013280212483399,0.0005312084993359,0.0002656042496679
sunday,10.0,0.0018592297476759,0.0066401062416998,0.0098273572377158,0.0053120849933598
sunday,10.083333333333332,0.0002656042496679,0.0005312084993359,0.0005312084993359,0.0002656042496679
sunday,10.166666666666666,0.0,0.0007968127490039,0.0023904382470119,0.0026560424966799
sunday,10.25,0.0005312084993359,0.0029216467463479,0.0034528552456839,0.0029216467463479
sunday,10.333333333333332,0.0002656042496679,0.0021248339973439,0.0018592297476759,0.0021248339973439
sunday,10.416666666666666,0.0002656042496679,0.0005312084993359,0.0005312084993359,0.0015936254980079
sunday,10.5,0.0015936254980079,0.0045152722443559,0.0087649402390438,0.0037184594953519
sunday,10.583333333333332,0.0,0.0002656042496679,0.0007968127490039,0.0007968127490039
sunday,10.666666666666666,0.0,0.0013280212483399,0.0015936254980079,0.0023904382470119
sunday,10.75,0.0,0.0010624169986719,0.0021248339973439,0.0015936254980079
sunday,10.833333333333332,0.0002656042496679,0.0010624169986719,0.0021248339973439,0.0013280212483399
sunday,10.916666666666666,0.0,0.0005312084993359,0.0005312084993359,0.0007968127490039
sunday,11.0,0.0005312084993359,0.0077025232403718,0.0122177954847277,0.0066401062416998
sunday,11.083333333333332,0.0,0.0007968127490039,0.0,0.0010624169986719
sunday,11.166666666666666,0.0005312084993359,0.0013280212483399,0.0015936254980079,0.0021248339973439
sunday,11.25,0.0002656042496679,0.0018592297476759,0.0045152722443559,0.0015936254980079
sunday,11.333333333333332,0.0002656042496679,0.0013280212483399,0.0005312084993359,0.0018592297476759
sunday,11.416666666666666,0.0002656042496679,0.0,0.0007968127490039,0.0005312084993359
sunday,11.5,0.0002656042496679,0.0050464807436918,0.0074369189907038,0.0061088977423638
sunday,11.583333333333332,0.0,0.0002656042496679,0.0005312084993359,0.0018592297476759
sunday,11.666666666666666,0.0,0.0021248339973439,0.0015936254980079,0.0013280212483399
sunday,11.75,0.0002656042496679,0.0021248339973439,0.0029216467463479,0.0023904382470119
sunday,11.833333333333332,0.0002656042496679,0.0013280212483399,0.0018592297476759,0.0031872509960159
sunday,11.916666666666666,0.0,0.0,0.0005312084993359,0.0018592297476759
sunday,12.0,0.0015936254980079,0.0053120849933598,0.0098273572377158,0.0090305444887118
sunday,12.083333333333332,0.0,0.0,0.0005312084993359,0.0021248339973439
sunday,12.166666666666666,0.0002656042496679,0.0013280212483399,0.0013280212483399,0.0021248339973439
sunday,12.25,0.0002656042496679,0.0010624169986719,0.0023904382470119,0.0034528552456839
sunday,12.333333333333332,0.0002656042496679,0.0010624169986719,0.0026560424966799,0.0007968127490039
sunday,12.416666666666666,0.0,0.0005312084993359,0.0005312084993359,0.0010624169986719
sunday,12.5,0.0005312084993359,0.0029216467463479,0.0055776892430278,0.0066401062416998
sunday,12.583333333333332,0.0,0.0005312084993359,0.0010624169986719,0.0007968127490039
sunday,12.666666666666666,0.0,0.0002656042496679,0.0013280212483399,0.0018592297476759
sunday,12.75,0.0002656042496679,0.0010624169986719,0.0023904382470119,0.0015936254980079
sunday,12.833333333333332,0.0,0.0005312084993359,0.0018592297476759,0.0013280212483399
sunday,12.916666666666666,0.0002656042496679,0.0005312084993359,0.0007968127490039,0.0005312084993359
sunday,13.0,0.0002656042496679,0.0026560424966799,0.0122177954847277,0.0079681274900398
sunday,13.083333333333332,0.0,0.0,0.0007968127490039,0.0023904382470119
sunday,13.166666666666666,0.0002656042496679,0.0005312084993359,0.0007968127490039,0.0015936254980079
sunday,13.25,0.0005312084993359,0.0013280212483399,0.0010624169986719,0.0029216467463479
sunday,13.333333333333332,0.0,0.0002656042496679,0.0002656042496679,0.0015936254980079
sunday,13.416666666666666,0.0002656042496679,0.0007968127490039,0.0007968127490039,0.0015936254980079
sunday,13.5,0.0005312084993359,0.0031872509960159,0.0061088977423638,0.0053120849933598
sunday,13.583333333333332,0.0,0.0002656042496679,0.0005312084993359,0.0007968127490039
sunday,13.666666666666666,0.0002656042496679,0.0010624169986719,0.0021248339973439,0.0018592297476759
sunday,13.75,0.0,0.0010624169986719,0.0021248339973439,0.0029216467463479
sunday,13.833333333333332,0.0002656042496679,0.0007968127490039,0.0010624169986719,0.0013280212483399
sunday,13.916666666666666,0.0002656042496679,0.0007968127490039,0.0005312084993359,0.0010624169986719
sunday,14.0,0.0,0.0061088977423638,0.0108897742363877,0.0092961487383798
sunday,14.083333333333332,0.0,0.0002656042496679,0.0007968127490039,0.0026560424966799
sunday,14.166666666666666,0.0002656042496679,0.0007968127490039,0.0013280212483399,0.0029216467463479
sunday,14.25,0.0002656042496679,0.0013280212483399,0.0031872509960159,0.0050464807436918
sunday,14.333333333333332,0.0,0.0010624169986719,0.0018592297476759,0.0023904382470119
sunday,14.416666666666666,0.0,0.0,0.0010624169986719,0.0005312084993359
sunday,14.5,0.0002656042496679,0.0045152722443559,0.0090305444887118,0.0087649402390438
sunday,14.583333333333332,0.0002656042496679,0.0010624169986719,0.0002656042496679,0.0005312084993359
sunday,14.666666666666666,0.0,0.0007968127490039,0.0013280212483399,0.0013280212483399
sunday,14.75,0.0,0.0021248339973439,0.0034528552456839,0.0026560424966799
sunday,14.833333333333332,0.0,0.0005312084993359,0.0010624169986719,0.0023904382470119
sunday,14.916666666666666,0.0,0.0010624169986719,0.0005312084993359,0.0010624169986719
sunday,15.0,0.0005312084993359,0.0053120849933598,0.0077025232403718,0.0138114209827357
sunday,15.083333333333332,0.0002656042496679,0.0002656042496679,0.0010624169986719,0.0015936254980079
sunday,15.166666666666666,0.0,0.0007968127490039,0.0015936254980079,0.0013280212483399
sunday,15.25,0.0,0.0018592297476759,0.0013280212483399,0.0039840637450199
sunday,15.333333333333332,0.0,0.0002656042496679,0.0005312084993359,0.0021248339973439
sunday,15.416666666666666,0.0,0.0005312084993359,0.0002656042496679,0.0023904382470119
sunday,15.5,0.0002656042496679,0.0039840637450199,0.0050464807436918,0.0069057104913678
sunday,15.583333333333332,0.0,0.0002656042496679,0.0,0.0013280212483399
sunday,15.666666666666666,0.0005312084993359,0.0007968127490039,0.0002656042496679,0.0021248339973439
sunday,15.75,0.0,0.0010624169986719,0.0015936254980079,0.0034528552456839
sunday,15.833333333333332,0.0005312084993359,0.0007968127490039,0.0021248339973439,0.0026560424966799
sunday,15.916666666666666,0.0,0.0010624169986719,0.0005312084993359,0.0013280212483399
sunday,16.0,0.0007968127490039,0.0045152722443559,0.0079681274900398,0.0124833997343957
sunday,16.083333333333332,0.0,0.0002656042496679,0.0002656042496679,0.0010624169986719
sunday,16.166666666666664,0.0002656042496679,0.0010624169986719,0.0013280212483399,0.0029216467463479
sunday,16.25,0.0002656042496679,0.0005312084993359,0.0015936254980079,0.0026560424966799
sunday,16.333333333333332,0.0,0.0010624169986719,0.0013280212483399,0.0029216467463479
sunday,16.416666666666664,0.0,0.0,0.0005312084993359,0.0005312084993359
sunday,16.5,0.0005312084993359,0.0031872509960159,0.0042496679946879,0.0082337317397078
sunday,16.583333333333332,0.0,0.0002656042496679,0.0005312084993359,0.0018592297476759
sunday,16.666666666666664,0.0,0.0007968127490039,0.0018592297476759,0.0002656042496679
sunday,16.75,0.0,0.0007968127490039,0.0010624169986719,0.0042496679946879
sunday,16.833333333333332,0.0,0.0007968127490039,0.0013280212483399,0.0010624169986719
sunday,16.916666666666664,0.0,0.0,0.0002656042496679,0.0007968127490039
sunday,17.0,0.0005312084993359,0.0063745019920318,0.0061088977423638,0.0132802124833997
sunday,17.083333333333332,0.0002656042496679,0.0,0.0013280212483399,0.0026560424966799
sunday,17.166666666666664,0.0,0.0007968127490039,0.0005312084993359,0.0010624169986719
sunday,17.25,0.0,0.0010624169986719,0.0013280212483399,0.0037184594953519
sunday,17.333333333333332,0.0,0.0010624169986719,0.0,0.0026560424966799
sunday,17.416666666666664,0.0,0.0,0.0007968127490039,0.0010624169986719
sunday,17.5,0.0002656042496679,0.0039840637450199,0.0039840637450199,0.0084993359893758
sunday,17.583333333333332,0.0,0.0007968127490039,0.0005312084993359,0.0013280212483399
sunday,17.666666666666664,0.0,0.0010624169986719,0.0007968127490039,0.0018592297476759
sunday,17.75,0.0002656042496679,0.0013280212483399,0.0021248339973439,0.0050464807436918
sunday,17.833333333333332,0.0,0.0010624169986719,0.0021248339973439,0.0021248339973439
sunday,17.916666666666664,0.0,0.0010624169986719,0.0,0.0018592297476759
sunday,18.0,0.0002656042496679,0.0039840637450199,0.0039840637450199,0.0196547144754316
sunday,18.08333333333333,0.0,0.0002656042496679,0.0005312084993359,0.0005312084993359
sunday,18.166666666666664,0.0,0.0005312084993359,0.0007968127490039,0.0037184594953519
sunday,18.25,0.0002656042496679,0.0018592297476759,0.0013280212483399,0.0053120849933598
sunday,18.33333333333333,0.0,0.0010624169986719,0.0005312084993359,0.0023904382470119
sunday,18.416666666666664,0.0002656042496679,0.0,0.0,0.0005312084993359
sunday,18.5,0.0,0.0021248339973439,0.0023904382470119,0.0106241699867197
sunday,18.58333333333333,0.0,0.0007968127490039,0.0007968127490039,0.0015936254980079
sunday,18.666666666666664,0.0,0.0002656042496679,0.0010624169986719,0.0007968127490039
sunday,18.75,0.0,0.0005312084993359,0.0015936254980079,0.0034528552456839
sunday,18.83333333333333,0.0,0.0007968127490039,0.0005312084993359,0.0010624169986719
sunday,18.916666666666664,0.0002656042496679,0.0002656042496679,0.0007968127490039,0.0010624169986719
sunday,19.0,0.0002656042496679,0.0023904382470119,0.0021248339973439,0.0077025232403718
sunday,19.08333333333333,0.0,0.0,0.0,0.0010624169986719
sunday,19.166666666666664,0.0,0.0,0.0,0.0029216467463479
sunday,19.25,0.0002656042496679,0.0,0.0002656042496679,0.0039840637450199
sunday,19.33333333333333,0.0,0.0002656042496679,0.0002656042496679,0.0021248339973439
sunday,19.416666666666664,0.0,0.0,0.0,0.0010624169986719
sunday,19.5,0.0002656042496679,0.0013280212483399,0.0013280212483399,0.0050464807436918
sunday,19.58333333333333,0.0,0.0,0.0002656042496679,0.0013280212483399
sunday,19.666666666666664,0.0,0.0005312084993359,0.0002656042496679,0.0029216467463479
sunday,19.75,0.0002656042496679,0.0007968127490039,0.0005312084993359,0.0023904382470119
sunday,19.83333333333333,0.0002656042496679,0.0,0.0005312084993359,0.0015936254980079
sunday,19.916666666666664,0.0,0.0005312084993359,0.0,0.0015936254980079
sunday,20.0,0.0005312084993359,0.0010624169986719,0.0010624169986719,0.0082337317397078
sunday,20.08333333333333,0.0,0.0010624169986719,0.0002656042496679,0.0005312084993359
sunday,20.166666666666664,0.0,0.0002656042496679,0.0005312084993359,0.0007968127490039
sunday,20.25,0.0,0.0007968127490039,0.0005312084993359,0.0015936254980079
sunday,20.33333333333333,0.0,0.0002656042496679,0.0,0.0002656042496679
sunday,20.416666666666664,0.0,0.0,0.0,0.0002656042496679
sunday,20.5,0.0002656042496679,0.0002656042496679,0.0,0.0047808764940239
sunday,20.58333333333333,0.0,0.0,0.0002656042496679,0.0002656042496679
sunday,20.666666666666664,0.0,0.0005312084993359,0.0,0.0007968127490039
sunday,20.75,0.0002656042496679,0.0005312084993359,0.0002656042496679,0.0023904382470119
sunday,20.83333333333333,0.0,0.0002656042496679,0.0,0.0002656042496679
sunday,20.916666666666664,0.0,0.0,0.0002656042496679,0.0007968127490039
sunday,21.0,0.0005312084993359,0.0005312084993359,0.0007968127490039,0.0047808764940239
sunday,21.08333333333333,0.0,0.0,0.0,0.0007968127490039
sunday,21.166666666666664,0.0,0.0,0.0,0.0002656042496679
sunday,21.25,0.0005312084993359,0.0,0.0,0.0018592297476759
sunday,21.33333333333333,0.0,0.0,0.0002656042496679,0.0005312084993359
sunday,21.416666666666664,0.0,0.0,0.0,0.0
sunday,21.5,0.0,0.0002656042496679,0.0002656042496679,0.0037184594953519
sunday,21.58333333333333,0.0,0.0002656042496679,0.0,0.0005312084993359
sunday,21.666666666666664,0.0,0.0002656042496679,0.0,0.0005312084993359
sunday,21.75,0.0,0.0,0.0,0.0013280212483399
sunday,21.83333333333333,0.0,0.0002656042496679,0.0,0.0007968127490039
sunday,21.916666666666664,0.0,0.0002656042496679,0.0,0.0002656042496679
sunday,22.0,0.0,0.0002656042496679,0.0005312084993359,0.0058432934926958
sunday,22.08333333333333,0.0,0.0,0.0,0.0002656042496679
sunday,22.166666666666664,0.0,0.0,0.0,0.0007968127490039
sunday,22.25,0.0,0.0,0.0002656042496679,0.0005312084993359
sunday,22.33333333333333,0.0,0.0,0.0,0.0002656042496679
sunday,22.416666666666664,0.0,0.0,0.0,0.0005312084993359
sunday,22.5,0.0,0.0002656042496679,0.0002656042496679,0.0013280212483399
sunday,22.58333333333333,0.0,0.0,0.0,0.0
sunday,22.666666666666664,0.0,0.0002656042496679,0.0,0.0007968127490039
sunday,22.75,0.0,0.0,0.0,0.0
sunday,22.83333333333333,0.0,0.0,0.0,0.0
sunday,22.916666666666664,0.0,0.0,0.0,0.0
sunday,23.0,0.0002656042496679,0.0,0.0,0.0015936254980079
sunday,23.08333333333333,0.0,0.0,0.0,0.0002656042496679
sunday,23.166666666666664,0.0,0.0002656042496679,0.0,0.0
sunday,23.25,0.0002656042496679,0.0,0.0,0.0005312084993359
sunday,23.33333333333333,0.0,0.0,0.0,0.0002656042496679
sunday,23.416666666666664,0.0,0.0,0.0,0.0
sunday,23.5,0.0002656042496679,0.0,0.0,0.0005312084993359
sunday,23.58333333333333,0.0,0.0,0.0,0.0
sunday,23.666666666666664,0.0,0.0,0.0,0.0
sunday,23.75,0.0,0.0,0.0002656042496679,0.0002656042496679
sunday,23.83333333333333,0.0,0.0,0.0,0.0
sunday,23.916666666666664,0.0,0.0,0.0,0.0
weekday,0.0,0.0,0.0,0.0,0.0
weekday,0.0833333333333333,0.0,0.0,0.0,6.148170919151552e-05
weekday,0.1666666666666666,0.0,0.0,3.074085459575776e-05,0.0
weekday,0.25,0.0,0.0,3.074085459575776e-05,9.222256378727328e-05
weekday,0.3333333333333333,0.0,3.074085459575776e-05,0.0,6.148170919151552e-05
weekday,0.4166666666666666,0.0,0.0,0.0,0.0
weekday,0.5,0.0,3.074085459575776e-05,0.0,9.222256378727328e-05
weekday,0.5833333333333333,0.0,0.0,0.0,6.148170919151552e-05
weekday,0.6666666666666666,0.0,0.0,0.0,0.0
weekday,0.75,0.0,0.0,0.0,6.148170919151552e-05
weekday,0.8333333333333333,0.0,0.0,0.0,0.0
weekday,0.9166666666666666,0.0,0.0,0.0,0.0
weekday,1.0,3.074085459575776e-05,0.0,0.0,3.074085459575776e-05
weekday,1.0833333333333333,0.0,0.0,0.0,0.0
weekday,1.1666666666666663,0.0,0.0,0.0,0.0
weekday,1.25,0.0,3.074085459575776e-05,0.0,3.074085459575776e-05
weekday,1.3333333333333333,0.0,0.0,0.0,0.0
weekday,1.4166666666666663,0.0,0.0,0.0,0.0
weekday,1.5,3.074085459575776e-05,6.148170919151552e-05,0.0,0.0
weekday,1.5833333333333333,0.0,0.0,0.0,0.0
weekday,1.6666666666666663,3.074085459575776e-05,0.0,0.0,3.074085459575776e-05
weekday,1.75,3.074085459575776e-05,0.0,0.0,0.0
weekday,1.8333333333333333,0.0,0.0,0.0,0.0
weekday,1.9166666666666663,0.0,0.0,0.0,0.0
weekday,2.0,0.0,0.0,0.0,3.074085459575776e-05
weekday,2.083333333333333,0.0,0.0,0.0,0.0
weekday,2.1666666666666665,3.074085459575776e-05,0.0,0.0,3.074085459575776e-05
weekday,2.25,6.148170919151552e-05,0.0,0.0,0.0
weekday,2.333333333333333,3.074085459575776e-05,0.0,0.0,0.0
weekday,2.4166666666666665,3.074085459575776e-05,0.0,0.0,0.0
weekday,2.5,0.0,0.0,0.0,0.0
weekday,2.583333333333333,0.0,0.0,3.074085459575776e-05,0.0
weekday,2.6666666666666665,0.0,0.0,0.0,0.0
weekday,2.75,0.0,0.0,0.0,0.0
weekday,2.833333333333333,0.0,0.0,0.0,0.0
weekday,2.9166666666666665,0.0,0.0,0.0,0.0
weekday,3.0,9.222256378727328e-05,0.0,3.074085459575776e-05,3.074085459575776e-05
weekday,3.083333333333333,0.0,0.0,0.0,0.0
weekday,3.1666666666666665,3.074085459575776e-05,0.0,0.0,0.0
weekday,3.25,3.074085459575776e-05,0.0,0.0,3.074085459575776e-05
weekday,3.333333333333333,3.074085459575776e-05,0.0,0.0,0.0
weekday,3.4166666666666665,0.0,0.0,0.0,0.0
weekday,3.5,3.074085459575776e-05,0.0,0.0,0.0
weekday,3.583333333333333,6.148170919151552e-05,0.0,0.0,0.0
weekday,3.6666666666666665,3.074085459575776e-05,0.0,0.0,0.0
weekday,3.75,0.0,0.0,3.074085459575776e-05,0.0
weekday,3.833333333333333,3.074085459575776e-05,0.0,0.0,0.0
weekday,3.9166666666666665,0.0,0.0,0.0,0.0
weekday,4.0,0.0001537042729787,0.0,0.0,0.0
weekday,4.083333333333333,0.0,0.0,0.0,0.0
weekday,4.166666666666666,0.000122963418383,0.0,0.0,3.074085459575776e-05
weekday,4.25,0.0001844451275745,3.074085459575776e-05,0.0,0.0
weekday,4.333333333333333,6.148170919151552e-05,0.0,0.0,0.0
weekday,4.416666666666666,3.074085459575776e-05,0.0,0.0,0.0
weekday,4.5,0.0003074085459575,3.074085459575776e-05,0.0,0.0
weekday,4.583333333333333,9.222256378727328e-05,0.0,0.0,0.0
weekday,4.666666666666666,0.0002766676913618,0.0,0.0,0.0
weekday,4.75,0.0003074085459575,0.0,0.0,0.0
weekday,4.833333333333333,6.148170919151552e-05,0.0,3.074085459575776e-05,3.074085459575776e-05
weekday,4.916666666666666,0.000122963418383,0.0,3.074085459575776e-05,0.0
weekday,5.0,0.0012911158930218,0.0,0.0,0.0
weekday,5.083333333333333,0.000122963418383,0.0,0.0,0.0
weekday,5.166666666666666,0.0003074085459575,0.0,0.0,3.074085459575776e-05
weekday,5.25,0.0007685213648939,3.074085459575776e-05,0.0,3.074085459575776e-05
weekday,5.333333333333333,0.0004918536735321,0.0,0.0,3.074085459575776e-05
weekday,5.416666666666666,0.0005533353827236,3.074085459575776e-05,0.0,0.0
weekday,5.5,0.0027051952044266,9.222256378727328e-05,3.074085459575776e-05,6.148170919151552e-05
weekday,5.583333333333333,0.0005225945281278,3.074085459575776e-05,0.0,0.0
weekday,5.666666666666666,0.00101444820166,9.222256378727328e-05,0.0,3.074085459575776e-05
weekday,5.75,0.0012911158930218,3.074085459575776e-05,6.148170919151552e-05,0.000122963418383
weekday,5.833333333333333,0.0009529664924684,3.074085459575776e-05,6.148170919151552e-05,3.074085459575776e-05
weekday,5.916666666666666,0.000368890255149,3.074085459575776e-05,3.074085459575776e-05,3.074085459575776e-05
weekday,6.0,0.0034737165693206,9.222256378727328e-05,6.148170919151552e-05,0.0003074085459575
weekday,6.083333333333333,0.0006455579465109,9.222256378727328e-05,0.0,0.0
weekday,6.166666666666666,0.0010451890562557,0.0,3.074085459575776e-05,3.074085459575776e-05
weekday,6.25,0.0023670458038733,0.0003074085459575,6.148170919151552e-05,0.0001844451275745
weekday,6.333333333333333,0.0012296341838303,0.0001537042729787,3.074085459575776e-05,3.074085459575776e-05
weekday,6.416666666666666,0.0011681524746387,0.000122963418383,0.0,3.074085459575776e-05
weekday,6.5,0.0065785428834921,0.0003996311097448,6.148170919151552e-05,0.0002151859821703
weekday,6.583333333333333,0.0014755610205963,9.222256378727328e-05,3.074085459575776e-05,9.222256378727328e-05
weekday,6.666666666666666,0.0027974177682139,3.074085459575776e-05,6.148170919151552e-05,9.222256378727328e-05
weekday,6.75,0.004180756225023,0.0004918536735321,6.148170919151552e-05,9.222256378727328e-05
weekday,6.833333333333333,0.0029203811865969,0.0001537042729787,6.148170919151552e-05,9.222256378727328e-05
weekday,6.916666666666666,0.0016907470027666,0.000245926836766,0.0,9.222256378727328e-05
weekday,7.0,0.0109744850906855,0.0013525976022133,0.0002151859821703,0.000245926836766
weekday,7.083333333333333,0.002274823240086,0.0001844451275745,3.074085459575776e-05,0.0001537042729787
weekday,7.166666666666666,0.0036274208422994,0.0005533353827236,0.0,0.000122963418383
weekday,7.25,0.0066092837380879,0.0011066707654472,0.000122963418383,0.000245926836766
weekday,7.333333333333333,0.0040885336612357,0.0012296341838303,9.222256378727328e-05,9.222256378727328e-05
weekday,7.416666666666666,0.0023363049492775,0.0007377805102981,3.074085459575776e-05,0.0001844451275745
weekday,7.5,0.0114970796188134,0.0035659391331079,0.0004303719643406,0.0004918536735321
weekday,7.583333333333333,0.0023055640946818,0.0008607439286812,6.148170919151552e-05,0.0001844451275745
weekday,7.666666666666666,0.0030126037503842,0.0012296341838303,0.000122963418383,0.0003074085459575
weekday,7.75,0.0054718721180448,0.002274823240086,0.0002151859821703,0.0008300030740854
weekday,7.833333333333333,0.0026437134952351,0.0017829695665539,0.0002766676913618,0.0004303719643406
weekday,7.916666666666666,0.0011988933292345,0.0006455579465109,0.000122963418383,0.0003074085459575
weekday,8.0,0.0094989240700891,0.0043652013525976,0.0005840762373193,0.0009222256378727
weekday,8.083333333333332,0.0015677835843836,0.0006148170919151,0.000122963418383,0.000368890255149
weekday,8.166666666666666,0.0018137104211497,0.0012911158930218,0.000245926836766,0.0005533353827236
weekday,8.25,0.0039348293882569,0.0021211189671072,0.0004918536735321,0.0008300030740854
weekday,8.333333333333332,0.0017214878573624,0.0015063018751921,6.148170919151552e-05,0.0007070396557024
weekday,8.416666666666666,0.0010451890562557,0.0007992622194897,6.148170919151552e-05,0.0006148170919151
weekday,8.5,0.0068244697202582,0.0049800184445127,0.0013525976022133,0.0013525976022133
weekday,8.583333333333332,0.0008914847832769,0.0006762988011066,9.222256378727328e-05,0.0004303719643406
weekday,8.666666666666666,0.0012911158930218,0.0008914847832769,0.0004303719643406,0.0007685213648939
weekday,8.75,0.0019674146941284,0.0028896403320012,0.0008914847832769,0.00101444820166
weekday,8.833333333333332,0.001260375038426,0.0011988933292345,0.0004611128189363,0.0007377805102981
weekday,8.916666666666666,0.0005533353827236,0.0007377805102981,6.148170919151552e-05,0.0005225945281278
weekday,9.0,0.00405779280664,0.0065478020288964,0.0017522287119581,0.0017829695665539
weekday,9.083333333333332,0.0005533353827236,0.0008914847832769,0.000245926836766,0.0005840762373193
weekday,9.166666666666666,0.0006762988011066,0.0015985244389794,0.0001844451275745,0.001137411620043
weekday,9.25,0.001260375038426,0.0029511220411927,0.0006455579465109,0.0013525976022133
weekday,9.333333333333332,0.0007377805102981,0.0011066707654472,0.0002766676913618,0.0011066707654472
weekday,9.416666666666666,0.000368890255149,0.0007377805102981,6.148170919151552e-05,0.0005225945281278
weekday,9.5,0.0027666769136181,0.0074700276667691,0.0018444512757454,0.0026744543498309
weekday,9.583333333333332,0.0003074085459575,0.0005840762373193,0.000245926836766,0.0005840762373193
weekday,9.666666666666666,0.0005225945281278,0.0013218567476175,0.0004918536735321,0.0007685213648939
weekday,9.75,0.0007377805102981,0.0025207500768521,0.0007377805102981,0.001260375038426
weekday,9.833333333333332,0.0004303719643406,0.0012911158930218,0.0003074085459575,0.0007992622194897
weekday,9.916666666666666,0.000122963418383,0.0006148170919151,0.0001844451275745,0.0006148170919151
weekday,10.0,0.0025514909314478,0.0104826314171533,0.0026129726406394,0.0035659391331079
weekday,10.083333333333332,0.000122963418383,0.001383338456809,9.222256378727328e-05,0.0007377805102981
weekday,10.166666666666666,0.0002766676913618,0.0019059329849369,0.0002766676913618,0.0011066707654472
weekday,10.25,0.0007992622194897,0.0036889025514909,0.0007377805102981,0.0022440823854903
weekday,10.333333333333332,0.0004611128189363,0.0017829695665539,0.000368890255149,0.001137411620043
weekday,10.416666666666666,9.222256378727328e-05,0.0009222256378727,0.0001537042729787,0.0006762988011066
weekday,10.5,0.0016292652935751,0.0075315093759606,0.0008607439286812,0.0036581616968951
weekday,10.583333333333332,0.0002151859821703,0.0008607439286812,6.148170919151552e-05,0.001137411620043
weekday,10.666666666666666,0.0003381494005533,0.0013525976022133,0.000245926836766,0.0011681524746387
weekday,10.75,0.0007377805102981,0.0027051952044266,0.0004918536735321,0.0020596372579157
weekday,10.833333333333332,0.0001537042729787,0.0016907470027666,0.000122963418383,0.0018137104211497
weekday,10.916666666666666,0.0001537042729787,0.00101444820166,0.0001537042729787,0.0006455579465109
weekday,11.0,0.0016600061481709,0.0082078081770673,0.0015063018751921,0.0047955733169382
weekday,11.083333333333332,0.0001537042729787,0.0012296341838303,9.222256378727328e-05,0.0013525976022133
weekday,11.166666666666666,0.0002766676913618,0.001260375038426,0.000245926836766,0.0019059329849369
weekday,11.25,0.0004918536735321,0.0027359360590224,0.0003074085459575,0.002274823240086
weekday,11.333333333333332,0.0005225945281278,0.0014448201660006,0.0001537042729787,0.0014448201660006
weekday,11.416666666666666,0.0002151859821703,0.00101444820166,0.0002766676913618,0.0010451890562557
weekday,11.5,0.0012911158930218,0.0055640946818321,0.0009222256378727,0.0051644635720873
weekday,11.583333333333332,6.148170919151552e-05,0.0008300030740854,0.0001537042729787,0.0009837073470642
weekday,11.666666666666666,0.0001537042729787,0.0012911158930218,0.0002151859821703,0.0016292652935751
weekday,11.75,0.0004918536735321,0.0020596372579157,0.0004918536735321,0.0029203811865969
weekday,11.833333333333332,0.000368890255149,0.001260375038426,0.0001537042729787,0.0015370427297878
weekday,11.916666666666666,0.0001537042729787,0.0007070396557024,0.000122963418383,0.0013218567476175
weekday,12.0,0.0011066707654472,0.0050722410083,0.0015063018751921,0.0059944666461727
weekday,12.083333333333332,0.0001844451275745,0.0007992622194897,6.148170919151552e-05,0.0017829695665539
weekday,12.166666666666666,0.0002151859821703,0.001260375038426,0.0003074085459575,0.0019674146941284
weekday,12.25,0.0005225945281278,0.0022133415308945,0.0004303719643406,0.003289271441746
weekday,12.333333333333332,0.0003996311097448,0.0013525976022133,0.0001537042729787,0.0013525976022133
weekday,12.416666666666666,0.0002766676913618,0.0007070396557024,9.222256378727328e-05,0.001137411620043
weekday,12.5,0.0012911158930218,0.004303719643406,0.0010759299108515,0.0053489086996618
weekday,12.583333333333332,0.0002766676913618,0.0004918536735321,0.0001844451275745,0.0009529664924684
weekday,12.666666666666666,0.0004918536735321,0.0009222256378727,0.0003074085459575,0.001137411620043
weekday,12.75,0.0008300030740854,0.001260375038426,0.0004303719643406,0.0029818628957885
weekday,12.833333333333332,0.000122963418383,0.0013218567476175,9.222256378727328e-05,0.0010451890562557
weekday,12.916666666666666,0.0001844451275745,0.0003996311097448,3.074085459575776e-05,0.0008607439286812
weekday,13.0,0.0017522287119581,0.0054411312634491,0.0014140793114048,0.0069166922840454
weekday,13.083333333333332,0.0002151859821703,0.0006762988011066,0.0002151859821703,0.0014140793114048
weekday,13.166666666666666,0.0004611128189363,0.0008607439286812,0.0002766676913618,0.0017214878573624
weekday,13.25,0.0006455579465109,0.0017522287119581,0.0004918536735321,0.0025822317860436
weekday,13.333333333333332,0.0005225945281278,0.0009529664924684,0.0003381494005533,0.0016907470027666
weekday,13.416666666666666,0.0002151859821703,0.0005840762373193,0.0001537042729787,0.00101444820166
weekday,13.5,0.0017522287119581,0.0039963110974485,0.0010759299108515,0.0043959422071933
weekday,13.583333333333332,6.148170919151552e-05,0.0006148170919151,0.0002151859821703,0.00101444820166
weekday,13.666666666666666,0.0003996311097448,0.0009222256378727,0.0002766676913618,0.0012911158930218
weekday,13.75,0.0007070396557024,0.0023363049492775,0.0006148170919151,0.0019674146941284
weekday,13.833333333333332,0.0004611128189363,0.0012296341838303,0.0005225945281278,0.0008914847832769
weekday,13.916666666666666,0.000122963418383,0.0009222256378727,6.148170919151552e-05,0.0008300030740854
weekday,14.0,0.0019981555487242,0.0067322471564709,0.0023670458038733,0.0067322471564709
weekday,14.083333333333332,0.000122963418383,0.0009529664924684,0.0002766676913618,0.0011681524746387
weekday,14.166666666666666,0.000245926836766,0.0017522287119581,0.0004918536735321,0.0022133415308945
weekday,14.25,0.0005533353827236,0.0019674146941284,0.0007070396557024,0.0026437134952351
weekday,14.333333333333332,0.000368890255149,0.0015677835843836,0.0004611128189363,0.0014755610205963
weekday,14.416666666666666,0.000245926836766,0.0008607439286812,0.0002766676913618,0.0008914847832769
weekday,14.5,0.00101444820166,0.0061481709191515,0.0017829695665539,0.0051337227174915
weekday,14.583333333333332,0.000245926836766,0.0006455579465109,0.0002151859821703,0.0009837073470642
weekday,14.666666666666666,0.0003381494005533,0.0012296341838303,0.0003074085459575,0.0015370427297878
weekday,14.75,0.0005840762373193,0.0027666769136181,0.0007377805102981,0.0024285275130648
weekday,14.833333333333332,0.0003381494005533,0.0016600061481709,0.0002766676913618,0.0014755610205963
weekday,14.916666666666666,9.222256378727328e-05,0.0005840762373193,0.000122963418383,0.0012911158930218
weekday,15.0,0.00101444820166,0.0081463264678758,0.0025207500768521,0.0073778051029818
weekday,15.083333333333332,0.0001537042729787,0.0008914847832769,0.000122963418383,0.0014755610205963
weekday,15.166666666666666,0.0001537042729787,0.0021211189671072,0.0003381494005533,0.002274823240086
weekday,15.25,0.0003996311097448,0.0027666769136181,0.0006148170919151,0.0030126037503842
weekday,15.333333333333332,0.000245926836766,0.0015063018751921,0.000368890255149,0.0022133415308945
weekday,15.416666666666666,6.148170919151552e-05,0.0007377805102981,0.0001844451275745,0.0008300030740854
weekday,15.5,0.00101444820166,0.0055333538272363,0.0016907470027666,0.0071626191208115
weekday,15.583333333333332,0.0002766676913618,0.0009837073470642,0.0001844451275745,0.0013525976022133
weekday,15.666666666666666,0.0002766676913618,0.0014755610205963,0.0003074085459575,0.0019981555487242
weekday,15.75,0.0002766676913618,0.0027359360590224,0.0006762988011066,0.0035659391331079
weekday,15.833333333333332,6.148170919151552e-05,0.0017214878573624,0.0002151859821703,0.0019366738395327
weekday,15.916666666666666,0.0002151859821703,0.0007377805102981,0.000245926836766,0.0012911158930218
weekday,16.0,0.0009222256378727,0.0083000307408545,0.0022440823854903,0.0116200430371964
weekday,16.083333333333332,0.000122963418383,0.0009837073470642,0.0003381494005533,0.0023670458038733
weekday,16.166666666666664,0.000245926836766,0.0017522287119581,0.0003381494005533,0.0029511220411927
weekday,16.25,0.0003074085459575,0.0033507531509375,0.0004303719643406,0.0047648324623424
weekday,16.333333333333332,0.000122963418383,0.0019674146941284,0.0003381494005533,0.0025514909314478
weekday,16.416666666666664,9.222256378727328e-05,0.0010759299108515,0.0003074085459575,0.001383338456809
weekday,16.5,0.0005840762373193,0.0047648324623424,0.0019674146941284,0.0102367045803873
weekday,16.583333333333332,0.0001844451275745,0.0011988933292345,0.000245926836766,0.0017829695665539
weekday,16.666666666666664,0.000122963418383,0.0014448201660006,0.0004918536735321,0.0020596372579157
weekday,16.75,0.0001537042729787,0.0029203811865969,0.0007685213648939,0.00405779280664
weekday,16.833333333333332,9.222256378727328e-05,0.0012296341838303,0.000368890255149,0.0024592683676606
weekday,16.916666666666664,6.148170919151552e-05,0.0007992622194897,9.222256378727328e-05,0.0017214878573624
weekday,17.0,0.0008607439286812,0.0065170611743006,0.0024900092222563,0.0132185674761758
weekday,17.083333333333332,0.000122963418383,0.0014140793114048,0.0001844451275745,0.0024592683676606
weekday,17.166666666666664,9.222256378727328e-05,0.0016292652935751,0.0006762988011066,0.0035351982785121
weekday,17.25,0.0003996311097448,0.002274823240086,0.0008300030740854,0.0052566861358745
weekday,17.333333333333332,0.000122963418383,0.0010759299108515,0.0003996311097448,0.0027359360590224
weekday,17.416666666666664,6.148170919151552e-05,0.0007070396557024,0.0003996311097448,0.0013525976022133
weekday,17.5,0.0005225945281278,0.0047955733169382,0.0024285275130648,0.0088533661235782
weekday,17.583333333333332,3.074085459575776e-05,0.0007070396557024,0.000245926836766,0.0016600061481709
weekday,17.666666666666664,9.222256378727328e-05,0.0013218567476175,0.0006455579465109,0.0026129726406394
weekday,17.75,0.0001844451275745,0.0020903781125115,0.001260375038426,0.0043344604980018
weekday,17.833333333333332,0.0002151859821703,0.0011066707654472,0.0007685213648939,0.0023977866584691
weekday,17.916666666666664,6.148170919151552e-05,0.0004611128189363,0.0001537042729787,0.0012911158930218
weekday,18.0,0.0007992622194897,0.0043652013525976,0.0040885336612357,0.0112204119274515
weekday,18.08333333333333,6.148170919151552e-05,0.001137411620043,0.0003996311097448,0.0020903781125115
weekday,18.166666666666664,3.074085459575776e-05,0.0010451890562557,0.0006762988011066,0.0027359360590224
weekday,18.25,0.000245926836766,0.001260375038426,0.0015985244389794,0.0045496464801721
weekday,18.33333333333333,3.074085459575776e-05,0.0008300030740854,0.0005840762373193,0.002151859821703
weekday,18.416666666666664,6.148170919151552e-05,0.0005840762373193,0.0002766676913618,0.0013525976022133
weekday,18.5,0.0003996311097448,0.0026744543498309,0.0031048263141715,0.0068244697202582
weekday,18.58333333333333,3.074085459575776e-05,0.0003074085459575,0.000368890255149,0.0015985244389794
weekday,18.666666666666664,9.222256378727328e-05,0.0005533353827236,0.0011066707654472,0.0016907470027666
weekday,18.75,6.148170919151552e-05,0.0015985244389794,0.001137411620043,0.0028588994774054
weekday,18.83333333333333,6.148170919151552e-05,0.00101444820166,0.0009837073470642,0.0021826006762988
weekday,18.916666666666664,6.148170919151552e-05,0.0003074085459575,0.0003074085459575,0.0007377805102981
weekday,19.0,0.000122963418383,0.0021826006762988,0.0027359360590224,0.0066092837380879
weekday,19.08333333333333,6.148170919151552e-05,0.000245926836766,0.0005225945281278,0.0017829695665539
weekday,19.166666666666664,0.000122963418383,0.0004611128189363,0.0006762988011066,0.002151859821703
weekday,19.25,0.0001844451275745,0.0008914847832769,0.0010759299108515,0.0024285275130648
weekday,19.33333333333333,9.222256378727328e-05,0.0005225945281278,0.0004303719643406,0.0014755610205963
weekday,19.416666666666664,6.148170919151552e-05,0.0003996311097448,0.0004303719643406,0.0006762988011066
weekday,19.5,0.000245926836766,0.0013218567476175,0.00202889640332,0.0046111281893636
weekday,19.58333333333333,0.0,0.000122963418383,0.000245926836766,0.0006762988011066
weekday,19.666666666666664,3.074085459575776e-05,0.0004611128189363,0.0003074085459575,0.001260375038426
weekday,19.75,9.222256378727328e-05,0.0005225945281278,0.0010759299108515,0.0020903781125115
weekday,19.83333333333333,3.074085459575776e-05,0.000122963418383,0.0003996311097448,0.0011681524746387
weekday,19.916666666666664,0.0,0.0001844451275745,0.0003381494005533,0.0005533353827236
weekday,20.0,0.0001844451275745,0.0008300030740854,0.0011066707654472,0.0039963110974485
weekday,20.08333333333333,0.0,6.148170919151552e-05,0.0003074085459575,0.001137411620043
weekday,20.166666666666664,0.0,0.000245926836766,0.0001844451275745,0.0012296341838303
weekday,20.25,9.222256378727328e-05,0.0005225945281278,0.0003074085459575,0.0017214878573624
weekday,20.33333333333333,0.0,0.0002766676913618,0.0001844451275745,0.0009222256378727
weekday,20.416666666666664,3.074085459575776e-05,6.148170919151552e-05,0.000122963418383,0.0002151859821703
weekday,20.5,0.0002766676913618,0.000368890255149,0.0007377805102981,0.0032277897325545
weekday,20.58333333333333,0.0,0.0001537042729787,0.0,0.0004611128189363
weekday,20.666666666666664,3.074085459575776e-05,0.0001844451275745,9.222256378727328e-05,0.0009222256378727
weekday,20.75,6.148170919151552e-05,0.0003996311097448,0.0002151859821703,0.0015370427297878
weekday,20.83333333333333,6.148170919151552e-05,0.000122963418383,9.222256378727328e-05,0.0007377805102981
weekday,20.916666666666664,3.074085459575776e-05,0.000122963418383,6.148170919151552e-05,0.0003381494005533
weekday,21.0,0.000245926836766,0.0002766676913618,0.000245926836766,0.0041500153704272
weekday,21.08333333333333,3.074085459575776e-05,3.074085459575776e-05,0.000122963418383,0.0005840762373193
weekday,21.166666666666664,3.074085459575776e-05,0.000122963418383,9.222256378727328e-05,0.0010759299108515
weekday,21.25,3.074085459575776e-05,0.0002151859821703,0.000122963418383,0.0008914847832769
weekday,21.33333333333333,3.074085459575776e-05,0.0,0.0,0.0007377805102981
weekday,21.416666666666664,3.074085459575776e-05,6.148170919151552e-05,0.0,0.0001537042729787
weekday,21.5,9.222256378727328e-05,0.0002151859821703,0.000368890255149,0.0027051952044266
weekday,21.58333333333333,0.0,6.148170919151552e-05,6.148170919151552e-05,0.0005533353827236
weekday,21.666666666666664,6.148170919151552e-05,3.074085459575776e-05,3.074085459575776e-05,0.0007377805102981
weekday,21.75,0.0,0.0002766676913618,0.000122963418383,0.0015677835843836
weekday,21.83333333333333,3.074085459575776e-05,0.0001537042729787,0.0,0.0003074085459575
weekday,21.916666666666664,3.074085459575776e-05,3.074085459575776e-05,3.074085459575776e-05,0.0003074085459575
weekday,22.0,3.074085459575776e-05,0.000122963418383,0.0001844451275745,0.0033200122963418
weekday,22.08333333333333,0.0,3.074085459575776e-05,3.074085459575776e-05,0.0007685213648939
weekday,22.166666666666664,0.0,0.0,6.148170919151552e-05,0.0011066707654472
weekday,22.25,0.0,3.074085459575776e-05,0.000122963418383,0.0012296341838303
weekday,22.33333333333333,0.0,3.074085459575776e-05,0.0,0.0009222256378727
weekday,22.416666666666664,0.0,0.0,0.0,0.0001844451275745
weekday,22.5,3.074085459575776e-05,9.222256378727328e-05,9.222256378727328e-05,0.0023977866584691
weekday,22.58333333333333,0.0,3.074085459575776e-05,0.0,0.0003381494005533
weekday,22.666666666666664,0.0,3.074085459575776e-05,3.074085459575776e-05,0.0003381494005533
weekday,22.75,0.0,0.0001537042729787,0.0,0.0007070396557024
weekday,22.83333333333333,0.0,0.0,0.0,0.0003381494005533
weekday,22.916666666666664,0.0,0.0,3.074085459575776e-05,0.000122963418383
weekday,23.0,3.074085459575776e-05,9.222256378727328e-05,6.148170919151552e-05,0.0015985244389794
weekday,23.08333333333333,0.0,0.0,0.0,0.0001537042729787
weekday,23.166666666666664,0.0,6.148170919151552e-05,0.0,0.0005225945281278
weekday,23.25,0.0,0.0,0.0,0.000368890255149
weekday,23.33333333333333,0.0,3.074085459575776e-05,3.074085459575776e-05,0.000368890255149
weekday,23.416666666666664,0.0,0.0,0.0,0.0002151859821703
weekday,23.5,0.0,3.074085459575776e-05,3.074085459575776e-05,0.0004303719643406
weekday,23.58333333333333,0.0,0.0,0.0,0.0002151859821703
weekday,23.666666666666664,0.0,3.074085459575776e-05,0.0,0.000122963418383
weekday,23.75,0.0,0.0,0.0,0.0002766676913618
weekday,23.83333333333333,0.0,0.0,0.0,9.222256378727328e-05
weekday,23.916666666666664,0.0,0.0,0.0,0.0
