trip,weekday,saturday,sunday
0,0.0,0.0,0.0
1,0.03,0.166,0.206
2,0.331,0.447,0.542
3,0.184,0.159,0.124
4,0.238,0.146,0.098
5,0.108,0.043,0.03
6,0.076,0.039,0.0
7,0.032,0.0,0.0
8,0.0,0.0,0.0
9,0.0,0.0,0.0
10,0.0,0.0,0.0
11,0.0,0.0,0.0
12,0.0,0.0,0.0
