trip,weekday,saturday,sunday
0,0.0,0.0,0.0
1,0.112,0.126,0.177
2,0.595,0.481,0.542
3,0.116,0.129,0.115
4,0.135,0.167,0.125
5,0.024,0.05,0.024
6,0.019,0.047,0.017
7,0.0,0.0,0.0
8,0.0,0.0,0.0
9,0.0,0.0,0.0
10,0.0,0.0,0.0
11,0.0,0.0,0.0
12,0.0,0.0,0.0
