n,tech,tech_res_con,tech_dispatch,CO2_price,availability,carbon_content,curtailment_costs,eta_con,fixed_capacities,fixed_costs,fuel_costs,interest_rate,lifetime,load_change_costs_down,load_change_costs_up,load_change_flexibility,max_energy,max_hourly_gen,max_installable,min_hourly_gen,min_installable,oc,recovery_period,variable_om
AT,CCGT,con,dis,130,0.96,0.201,,0.542,2824.46855164,20000,30.0,0.04,25,0.26475,0.26475,0.08,8760000000.0,inf,2824.46855164,,2824.46855164,830000,,
AT,OCGT,con,dis,130,0.948,0.201,,0.4,591.23144409,15000,30.0,0.04,25,0.69894,0.69894,0.15,8760000000.0,inf,591.23144409,,591.23144409,435000,,
AT,bio,res,dis,130,1.0,,,0.487,599.0037231,100000,32.49719974,0.04,30,0.26475,0.26475,0.15,4492527.92325,inf,599.0037231,,599.0037231,3300000,,
AT,hc,con,dis,130,0.955,0.337,,0.43,,30000,8.2692318,0.04,35,1.3797,1.3797,0.06,8760000000.0,inf,,,,3845000,,
AT,lig,con,dis,130,0.953,0.399,,0.38,,30000,5.4992,0.04,35,2.29,2.29,0.04,8760000000.0,inf,,,,3845000,,
AT,nuc,con,dis,130,0.912,,,0.343,,30000,3.437,0.04,40,2.29,2.29,0.04,8760000000.0,inf,,,,7940000,,
AT,oil,con,dis,130,0.9,0.266,,0.35,168.4060059,6960,29.0030452651587,0.04,25,0.69894,0.69894,0.15,8760000000.0,inf,168.4060059,,168.4060059,400000,,
AT,other,con,dis,130,0.9,0.35,,0.35,953.2399902,30000,18.054,0.04,30,0.69894,0.69894,0.04,8760000000.0,inf,953.2399902,,953.2399902,3845000,,
AT,pv,res,nondis,130,1.0,,,1.0,15000.0,25000,,0.04,25,,,,8760000000.0,inf,15000.0,,15000.0,519000,,
AT,ror,res,nondis,130,1.0,,,0.9,6141.961426,30000,,0.04,50,,,,8760000000.0,inf,6141.961426,,6141.961426,3312000,,
AT,wind_off,res,nondis,130,1.0,,,1.0,,100000,,0.04,25,,,,8760000000.0,inf,,,,1934000,,
AT,wind_on,res,nondis,130,1.0,,,1.0,10000.0,35000,,0.04,25,,,,8760000000.0,inf,10000.0,,10000.0,1035000,,
BE,CCGT,con,dis,130,0.96,0.201,,0.542,7606.200012,20000,30.0,0.04,25,0.26475,0.26475,0.08,8760000000.0,inf,7606.200012,,7606.200012,830000,,
BE,OCGT,con,dis,130,0.948,0.201,,0.4,1079.40000053,15000,30.0,0.04,25,0.69894,0.69894,0.15,8760000000.0,inf,1079.40000053,,1079.40000053,435000,,
BE,bio,res,dis,130,1.0,,,0.487,206.1999969,100000,32.49719974,0.04,30,0.26475,0.26475,0.15,1546499.97675,inf,206.1999969,,206.1999969,3300000,,
BE,hc,con,dis,130,0.955,0.337,,0.43,615.78599922,30000,8.2692318,0.04,35,1.3797,1.3797,0.06,8760000000.0,inf,615.78599922,,615.78599922,3845000,,
BE,lig,con,dis,130,0.953,0.399,,0.38,,30000,5.4992,0.04,35,2.29,2.29,0.04,8760000000.0,inf,,,,3845000,,
BE,nuc,con,dis,130,0.912,,,0.343,,30000,3.437,0.04,40,2.29,2.29,0.04,8760000000.0,inf,,,,7940000,,
BE,oil,con,dis,130,0.9,0.266,,0.35,,6960,29.0030452651587,0.04,25,0.69894,0.69894,0.15,8760000000.0,inf,,,,400000,,
BE,other,con,dis,130,0.9,0.35,,0.35,1324.0,30000,18.054,0.04,30,0.69894,0.69894,0.04,8760000000.0,inf,1324.0,,1324.0,3845000,,
BE,pv,res,nondis,130,1.0,,,1.0,13919.78225,25000,,0.04,25,,,,8760000000.0,inf,13919.78225,,13919.78225,519000,,
BE,ror,res,nondis,130,1.0,,,0.9,148.1999969,30000,,0.04,50,,,,8760000000.0,inf,148.1999969,,148.1999969,3312000,,
BE,wind_off,res,nondis,130,1.0,,,1.0,4300.0,100000,,0.04,25,,,,8760000000.0,inf,4300.0,,4300.0,1934000,,
BE,wind_on,res,nondis,130,1.0,,,1.0,5930.098135,35000,,0.04,25,,,,8760000000.0,inf,5930.098135,,5930.098135,1035000,,
BG,CCGT,con,dis,130,0.96,0.201,,0.542,616.0,20000,30.0,0.04,25,0.26475,0.26475,0.08,8760000000.0,inf,inf,,,830000,,
BG,OCGT,con,dis,130,0.948,0.201,,0.4,616.0,15000,30.0,0.04,25,0.69894,0.69894,0.15,8760000000.0,inf,inf,,,435000,,
BG,bio,res,dis,130,1.0,,,0.487,,100000,32.49719974,0.04,30,0.26475,0.26475,0.15,339670958.238717,inf,111.0,,74.0,3300000,,
BG,hc,con,dis,130,0.955,0.337,,0.43,356.0,30000,8.2692318,0.04,35,1.3797,1.3797,0.06,8760000000.0,inf,356.0,,,3845000,,
BG,lig,con,dis,130,0.953,0.399,,0.38,4119.0,30000,5.4992,0.04,35,2.29,2.29,0.04,8760000000.0,inf,4119.0,,,3845000,,
BG,nuc,con,dis,130,0.912,,,0.343,2000.0,30000,3.437,0.04,40,2.29,2.29,0.04,8760000000.0,inf,2000.0,,,7940000,,
BG,oil,con,dis,130,0.9,0.266,,0.35,,6960,29.0030452651587,0.04,25,0.69894,0.69894,0.15,8760000000.0,inf,,,,400000,,
BG,other,con,dis,130,0.9,0.35,,0.35,,30000,18.054,0.04,30,0.69894,0.69894,0.04,8760000000.0,inf,6.0,,,3845000,,
BG,pv,res,nondis,130,1.0,,,1.0,,25000,,0.04,25,,,,8760000000.0,inf,499475.421279743,,1059.0,519000,,
BG,ror,res,nondis,130,1.0,,,0.9,,30000,,0.04,50,,,,8760000000.0,inf,644.4,,537.0,3312000,,
BG,wind_off,res,nondis,130,1.0,,,1.0,,100000,,0.04,25,,,,8760000000.0,inf,inf,,,1934000,,
BG,wind_on,res,nondis,130,1.0,,,1.0,,35000,,0.04,25,,,,8760000000.0,inf,37356.8874641359,,700.0,1035000,,
CH,CCGT,con,dis,130,0.96,0.201,,0.542,,20000,30.0,0.04,25,0.26475,0.26475,0.08,8760000000.0,inf,,,,830000,,
CH,OCGT,con,dis,130,0.948,0.201,,0.4,,15000,30.0,0.04,25,0.69894,0.69894,0.15,8760000000.0,inf,,,,435000,,
CH,bio,res,dis,130,1.0,,,0.487,1197.0,100000,32.49719974,0.04,30,0.26475,0.26475,0.15,8977500.0,inf,1197.0,,1197.0,3300000,,
CH,hc,con,dis,130,0.955,0.337,,0.43,,30000,8.2692318,0.04,35,1.3797,1.3797,0.06,8760000000.0,inf,,,,3845000,,
CH,lig,con,dis,130,0.953,0.399,,0.38,,30000,5.4992,0.04,35,2.29,2.29,0.04,8760000000.0,inf,,,,3845000,,
CH,nuc,con,dis,130,0.912,,,0.343,1190.0,30000,3.437,0.04,40,2.29,2.29,0.04,8760000000.0,inf,1190.0,,1190.0,7940000,,
CH,oil,con,dis,130,0.9,0.266,,0.35,,6960,29.0030452651587,0.04,25,0.69894,0.69894,0.15,8760000000.0,inf,,,,400000,,
CH,other,con,dis,130,0.9,0.35,,0.35,889.8406982,30000,18.054,0.04,30,0.69894,0.69894,0.04,8760000000.0,inf,889.8406982,,889.8406982,3845000,,
CH,pv,res,nondis,130,1.0,,,1.0,11000.0,25000,,0.04,25,,,,8760000000.0,inf,11000.0,,11000.0,519000,,
CH,ror,res,nondis,130,1.0,,,0.9,4113.0,30000,,0.04,50,,,,8760000000.0,inf,4113.0,,4113.0,3312000,,
CH,wind_off,res,nondis,130,1.0,,,1.0,,100000,,0.04,25,,,,8760000000.0,inf,,,,1934000,,
CH,wind_on,res,nondis,130,1.0,,,1.0,1252.0,35000,,0.04,25,,,,8760000000.0,inf,1252.0,,1252.0,1035000,,
CY,CCGT,con,dis,130,0.96,0.201,,0.542,,20000,30.0,0.04,25,0.26475,0.26475,0.08,8760000000.0,inf,inf,,,830000,,
CY,OCGT,con,dis,130,0.948,0.201,,0.4,,15000,30.0,0.04,25,0.69894,0.69894,0.15,8760000000.0,inf,inf,,,435000,,
CY,bio,res,dis,130,1.0,,,0.487,,100000,32.49719974,0.04,30,0.26475,0.26475,0.15,,inf,18.0,,12.0,3300000,,
CY,hc,con,dis,130,0.955,0.337,,0.43,,30000,8.2692318,0.04,35,1.3797,1.3797,0.06,8760000000.0,inf,,,,3845000,,
CY,lig,con,dis,130,0.953,0.399,,0.38,,30000,5.4992,0.04,35,2.29,2.29,0.04,8760000000.0,inf,,,,3845000,,
CY,nuc,con,dis,130,0.912,,,0.343,,30000,3.437,0.04,40,2.29,2.29,0.04,8760000000.0,inf,,,,7940000,,
CY,oil,con,dis,130,0.9,0.266,,0.35,1478.0,6960,29.0030452651587,0.04,25,0.69894,0.69894,0.15,8760000000.0,inf,1478.0,,,400000,,
CY,other,con,dis,130,0.9,0.35,,0.35,,30000,18.054,0.04,30,0.69894,0.69894,0.04,8760000000.0,inf,,,,3845000,,
CY,pv,res,nondis,130,1.0,,,1.0,,25000,,0.04,25,,,,8760000000.0,inf,,,150.0,519000,,
CY,ror,res,nondis,130,1.0,,,0.9,,30000,,0.04,50,,,,8760000000.0,inf,,,,3312000,,
CY,wind_off,res,nondis,130,1.0,,,1.0,,100000,,0.04,25,,,,8760000000.0,inf,inf,,,1934000,,
CY,wind_on,res,nondis,130,1.0,,,1.0,,35000,,0.04,25,,,,8760000000.0,inf,158.0,,158.0,1035000,,
CZ,CCGT,con,dis,130,0.96,0.201,,0.542,1349.70000077,20000,30.0,0.04,25,0.26475,0.26475,0.08,8760000000.0,inf,1349.70000077,,1349.70000077,830000,,
CZ,OCGT,con,dis,130,0.948,0.201,,0.4,,15000,30.0,0.04,25,0.69894,0.69894,0.15,8760000000.0,inf,,,,435000,,
CZ,bio,res,dis,130,1.0,,,0.487,1063.884888,100000,32.49719974,0.04,30,0.26475,0.26475,0.15,7979136.66,inf,1063.884888,,1063.884888,3300000,,
CZ,hc,con,dis,130,0.955,0.337,,0.43,372.0,30000,8.2692318,0.04,35,1.3797,1.3797,0.06,8760000000.0,inf,372.0,,372.0,3845000,,
CZ,lig,con,dis,130,0.953,0.399,,0.38,3888.5999748,30000,5.4992,0.04,35,2.29,2.29,0.04,8760000000.0,inf,3888.5999748,,3888.5999748,3845000,,
CZ,nuc,con,dis,130,0.912,,,0.343,4041.0,30000,3.437,0.04,40,2.29,2.29,0.04,8760000000.0,inf,4041.0,,4041.0,7940000,,
CZ,oil,con,dis,130,0.9,0.266,,0.35,13.89999962,6960,29.0030452651587,0.04,25,0.69894,0.69894,0.15,8760000000.0,inf,13.89999962,,13.89999962,400000,,
CZ,other,con,dis,130,0.9,0.35,,0.35,1225.4729,30000,18.054,0.04,30,0.69894,0.69894,0.04,8760000000.0,inf,1225.4729,,1225.4729,3845000,,
CZ,pv,res,nondis,130,1.0,,,1.0,10500.0,25000,,0.04,25,,,,8760000000.0,inf,10500.0,,10500.0,519000,,
CZ,ror,res,nondis,130,1.0,,,0.9,395.0,30000,,0.04,50,,,,8760000000.0,inf,395.0,,395.0,3312000,,
CZ,wind_off,res,nondis,130,1.0,,,1.0,,100000,,0.04,25,,,,8760000000.0,inf,,,,1934000,,
CZ,wind_on,res,nondis,130,1.0,,,1.0,3000.0,35000,,0.04,25,,,,8760000000.0,inf,3000.0,,3000.0,1035000,,
DE,CCGT,con,dis,130,0.96,0.201,,0.542,,27390,30.0,0.04,25,0.26475,0.26475,0.08,8760000000.0,inf,1000000.0,,,830000,,
DE,OCGT,con,dis,130,0.948,0.201,,0.4,,7830,30.0,0.04,25,0.69894,0.69894,0.15,8760000000.0,inf,1000000.0,,,435000,,
DE,bio,res,dis,130,1.0,,,0.487,,118800,32.49719974,0.04,25,0.26475,0.26475,0.15,45000000.0,inf,6000.0,,6000.0,3300000,,
DE,hc,con,dis,130,0.955,0.337,,0.43,,61520,8.2692318,0.04,40,1.3797,1.3797,0.06,8760000000.0,inf,9800.0,,,3845000,,
DE,lig,con,dis,130,0.953,0.399,,0.38,,61520,5.4992,0.04,40,2.29,2.29,0.04,8760000000.0,inf,9300.0,,,3845000,,
DE,nuc,con,dis,130,0.912,,,0.343,,111160,3.437,0.04,40,2.29,2.29,0.04,8760000000.0,inf,,,,7940000,,
DE,oil,con,dis,130,0.9,0.266,,0.35,,6960,29.0030452651587,0.04,25,0.69894,0.69894,0.15,8760000000.0,inf,,,,400000,,
DE,other,con,dis,130,0.9,0.35,,0.35,,30000,18.054,0.04,30,0.69894,0.69894,0.04,8760000000.0,inf,,,,3845000,,
DE,pv,res,nondis,130,1.0,,,1.0,,12975,,0.04,30,,,,8760000000.0,inf,1000000.0,,,519000,,
DE,ror,res,nondis,130,1.0,,,0.9,,66240,,0.04,80,,,,8760000000.0,inf,4731.8,,4731.8,3312000,,
DE,wind_off,res,nondis,130,1.0,,,1.0,,36746,,0.04,27,,,,8760000000.0,inf,1000000.0,,,1934000,,
DE,wind_on,res,nondis,130,1.0,,,1.0,,13455,,0.04,27,,,,8760000000.0,inf,1000000.0,,,1035000,,
DK,CCGT,con,dis,130,0.96,0.201,,0.542,,20000,30.0,0.04,25,0.26475,0.26475,0.08,8760000000.0,inf,,,,830000,,
DK,OCGT,con,dis,130,0.948,0.201,,0.4,,15000,30.0,0.04,25,0.69894,0.69894,0.15,8760000000.0,inf,,,,435000,,
DK,bio,res,dis,130,1.0,,,0.487,671.3999939,100000,32.49719974,0.04,30,0.26475,0.26475,0.15,5035499.95425,inf,671.3999939,,671.3999939,3300000,,
DK,hc,con,dis,130,0.955,0.337,,0.43,767.0,30000,8.2692318,0.04,35,1.3797,1.3797,0.06,8760000000.0,inf,767.0,,767.0,3845000,,
DK,lig,con,dis,130,0.953,0.399,,0.38,,30000,5.4992,0.04,35,2.29,2.29,0.04,8760000000.0,inf,,,,3845000,,
DK,nuc,con,dis,130,0.912,,,0.343,,30000,3.437,0.04,40,2.29,2.29,0.04,8760000000.0,inf,,,,7940000,,
DK,oil,con,dis,130,0.9,0.266,,0.35,,6960,29.0030452651587,0.04,25,0.69894,0.69894,0.15,8760000000.0,inf,,,,400000,,
DK,other,con,dis,130,0.9,0.35,,0.35,242.84,30000,18.054,0.04,30,0.69894,0.69894,0.04,8760000000.0,inf,242.84,,242.84,3845000,,
DK,pv,res,nondis,130,1.0,,,1.0,4746.0,25000,,0.04,25,,,,8760000000.0,inf,4746.0,,4746.0,519000,,
DK,ror,res,nondis,130,1.0,,,0.9,,30000,,0.04,50,,,,8760000000.0,inf,,,,3312000,,
DK,wind_off,res,nondis,130,1.0,,,1.0,4783.0,100000,,0.04,25,,,,8760000000.0,inf,4783.0,,4783.0,1934000,,
DK,wind_on,res,nondis,130,1.0,,,1.0,5479.0,35000,,0.04,25,,,,8760000000.0,inf,5479.0,,5479.0,1035000,,
EE,CCGT,con,dis,130,0.96,0.201,,0.542,88.28,20000,30.0,0.04,25,0.26475,0.26475,0.08,8760000000.0,inf,inf,,,830000,,
EE,OCGT,con,dis,130,0.948,0.201,,0.4,88.28,15000,30.0,0.04,25,0.69894,0.69894,0.15,8760000000.0,inf,inf,,,435000,,
EE,bio,res,dis,130,1.0,,,0.487,,100000,32.49719974,0.04,30,0.26475,0.26475,0.15,134028819.595042,inf,235.8,,157.2,3300000,,
EE,hc,con,dis,130,0.955,0.337,,0.43,,30000,8.2692318,0.04,35,1.3797,1.3797,0.06,8760000000.0,inf,,,,3845000,,
EE,lig,con,dis,130,0.953,0.399,,0.38,,30000,5.4992,0.04,35,2.29,2.29,0.04,8760000000.0,inf,,,,3845000,,
EE,nuc,con,dis,130,0.912,,,0.343,,30000,3.437,0.04,40,2.29,2.29,0.04,8760000000.0,inf,,,,7940000,,
EE,oil,con,dis,130,0.9,0.266,,0.35,1978.17,6960,29.0030452651587,0.04,25,0.69894,0.69894,0.15,8760000000.0,inf,1978.17,,,400000,,
EE,other,con,dis,130,0.9,0.35,,0.35,,30000,18.054,0.04,30,0.69894,0.69894,0.04,8760000000.0,inf,18.54,,,3845000,,
EE,pv,res,nondis,130,1.0,,,1.0,,25000,,0.04,25,,,,8760000000.0,inf,203889.401237245,,33.0,519000,,
EE,ror,res,nondis,130,1.0,,,0.9,,30000,,0.04,50,,,,8760000000.0,inf,8.556,,7.13,3312000,,
EE,wind_off,res,nondis,130,1.0,,,1.0,,100000,,0.04,25,,,,8760000000.0,inf,inf,,,1934000,,
EE,wind_on,res,nondis,130,1.0,,,1.0,,35000,,0.04,25,,,,8760000000.0,inf,15265.8308032963,,462.4,1035000,,
ES,CCGT,con,dis,130,0.96,0.201,,0.542,15133.15,20000,30.0,0.04,25,0.26475,0.26475,0.08,8760000000.0,inf,inf,,,830000,,
ES,OCGT,con,dis,130,0.948,0.201,,0.4,15133.15,15000,30.0,0.04,25,0.69894,0.69894,0.15,8760000000.0,inf,inf,,,435000,,
ES,bio,res,dis,130,1.0,,,0.487,,100000,32.49719974,0.04,30,0.26475,0.26475,0.15,1441360112.92716,inf,760.5,,507.0,3300000,,
ES,hc,con,dis,130,0.955,0.337,,0.43,9560.7,30000,8.2692318,0.04,35,1.3797,1.3797,0.06,8760000000.0,inf,9560.7,,,3845000,,
ES,lig,con,dis,130,0.953,0.399,,0.38,,30000,5.4992,0.04,35,2.29,2.29,0.04,8760000000.0,inf,,,,3845000,,
ES,nuc,con,dis,130,0.912,,,0.343,7117.2,30000,3.437,0.04,40,2.29,2.29,0.04,8760000000.0,inf,7117.2,,,7940000,,
ES,oil,con,dis,130,0.9,0.266,,0.35,713.8,6960,29.0030452651587,0.04,25,0.69894,0.69894,0.15,8760000000.0,inf,713.8,,,400000,,
ES,other,con,dis,130,0.9,0.35,,0.35,,30000,18.054,0.04,30,0.69894,0.69894,0.04,8760000000.0,inf,655.0,,,3845000,,
ES,pv,res,nondis,130,1.0,,,1.0,,25000,,0.04,25,,,,8760000000.0,inf,2283923.00746089,,6751.1,519000,,
ES,ror,res,nondis,130,1.0,,,0.9,,30000,,0.04,50,,,,8760000000.0,inf,1387.44,,1156.2,3312000,,
ES,wind_off,res,nondis,130,1.0,,,1.0,,100000,,0.04,25,,,,8760000000.0,inf,inf,,,1934000,,
ES,wind_on,res,nondis,130,1.0,,,1.0,,35000,,0.04,25,,,,8760000000.0,inf,170720.909073871,,22960.6,1035000,,
FI,CCGT,con,dis,130,0.96,0.201,,0.542,956.0,20000,30.0,0.04,25,0.26475,0.26475,0.08,8760000000.0,inf,inf,,,830000,,
FI,OCGT,con,dis,130,0.948,0.201,,0.4,956.0,15000,30.0,0.04,25,0.69894,0.69894,0.15,8760000000.0,inf,inf,,,435000,,
FI,bio,res,dis,130,1.0,,,0.487,,100000,32.49719974,0.04,30,0.26475,0.26475,0.15,1103000000.0,inf,2706.0,,1804.0,3300000,,
FI,hc,con,dis,130,0.955,0.337,,0.43,2278.0,30000,8.2692318,0.04,35,1.3797,1.3797,0.06,8760000000.0,inf,2278.0,,,3845000,,
FI,lig,con,dis,130,0.953,0.399,,0.38,1135.0,30000,5.4992,0.04,35,2.29,2.29,0.04,8760000000.0,inf,1135.0,,,3845000,,
FI,nuc,con,dis,130,0.912,,,0.343,2785.0,30000,3.437,0.04,40,2.29,2.29,0.04,8760000000.0,inf,2785.0,,,7940000,,
FI,oil,con,dis,130,0.9,0.266,,0.35,1434.0,6960,29.0030452651587,0.04,25,0.69894,0.69894,0.15,8760000000.0,inf,1434.0,,,400000,,
FI,other,con,dis,130,0.9,0.35,,0.35,,30000,18.054,0.04,30,0.69894,0.69894,0.04,8760000000.0,inf,491.0,,,3845000,,
FI,pv,res,nondis,130,1.0,,,1.0,,25000,,0.04,25,,,,8760000000.0,inf,1522000.0,,3.0,519000,,
FI,ror,res,nondis,130,1.0,,,0.9,,30000,,0.04,50,,,,8760000000.0,inf,3777.6,,3148.0,3312000,,
FI,wind_off,res,nondis,130,1.0,,,1.0,,100000,,0.04,25,,,,8760000000.0,inf,inf,,,1934000,,
FI,wind_on,res,nondis,130,1.0,,,1.0,,35000,,0.04,25,,,,8760000000.0,inf,114000.0,,2013.0,1035000,,
FR,CCGT,con,dis,130,0.96,0.201,,0.542,6553.0,20000,30.0,0.04,25,0.26475,0.26475,0.08,8760000000.0,inf,6553.0,,6553.0,830000,,
FR,OCGT,con,dis,130,0.948,0.201,,0.4,882.0000039,15000,30.0,0.04,25,0.69894,0.69894,0.15,8760000000.0,inf,882.0000039,,882.0000039,435000,,
FR,bio,res,dis,130,1.0,,,0.487,2558.20000076,100000,32.49719974,0.04,30,0.26475,0.26475,0.15,19186500.0057,inf,2558.20000076,,2558.20000076,3300000,,
FR,hc,con,dis,130,0.955,0.337,,0.43,,30000,8.2692318,0.04,35,1.3797,1.3797,0.06,8760000000.0,inf,,,,3845000,,
FR,lig,con,dis,130,0.953,0.399,,0.38,,30000,5.4992,0.04,35,2.29,2.29,0.04,8760000000.0,inf,,,,3845000,,
FR,nuc,con,dis,130,0.912,,,0.343,58212.0,30000,3.437,0.04,40,2.29,2.29,0.04,8760000000.0,inf,58212.0,,58212.0,7940000,,
FR,oil,con,dis,130,0.9,0.266,,0.35,,6960,29.0030452651587,0.04,25,0.69894,0.69894,0.15,8760000000.0,inf,,,,400000,,
FR,other,con,dis,130,0.9,0.35,,0.35,1873.599976,30000,18.054,0.04,30,0.69894,0.69894,0.04,8760000000.0,inf,1873.599976,,1873.599976,3845000,,
FR,pv,res,nondis,130,1.0,,,1.0,42632.0145,25000,,0.04,25,,,,8760000000.0,inf,42632.0145,,42632.0145,519000,,
FR,ror,res,nondis,130,1.0,,,0.9,13638.0,30000,,0.04,50,,,,8760000000.0,inf,13638.0,,13638.0,3312000,,
FR,wind_off,res,nondis,130,1.0,,,1.0,3000.0,100000,,0.04,25,,,,8760000000.0,inf,3000.0,,3000.0,1934000,,
FR,wind_on,res,nondis,130,1.0,,,1.0,44111.0,35000,,0.04,25,,,,8760000000.0,inf,44111.0,,44111.0,1035000,,
GB,CCGT,con,dis,130,0.96,0.201,,0.542,18849.0,20000,30.0,0.04,25,0.26475,0.26475,0.08,8760000000.0,inf,inf,,,830000,,
GB,OCGT,con,dis,130,0.948,0.201,,0.4,18849.0,15000,30.0,0.04,25,0.69894,0.69894,0.15,8760000000.0,inf,inf,,,435000,,
GB,bio,res,dis,130,1.0,,,0.487,,100000,32.49719974,0.04,30,0.26475,0.26475,0.15,1265320748.92572,inf,6091.5,,4061.0,3300000,,
GB,hc,con,dis,130,0.955,0.337,,0.43,8794.0,30000,8.2692318,0.04,35,1.3797,1.3797,0.06,8760000000.0,inf,8794.0,,,3845000,,
GB,lig,con,dis,130,0.953,0.399,,0.38,,30000,5.4992,0.04,35,2.29,2.29,0.04,8760000000.0,inf,,,,3845000,,
GB,nuc,con,dis,130,0.912,,,0.343,9229.0,30000,3.437,0.04,40,2.29,2.29,0.04,8760000000.0,inf,9229.0,,,7940000,,
GB,oil,con,dis,130,0.9,0.266,,0.35,316.0,6960,29.0030452651587,0.04,25,0.69894,0.69894,0.15,8760000000.0,inf,316.0,,,400000,,
GB,other,con,dis,130,0.9,0.35,,0.35,,30000,18.054,0.04,30,0.69894,0.69894,0.04,8760000000.0,inf,4506.13,,,3845000,,
GB,pv,res,nondis,130,1.0,,,1.0,,25000,,0.04,25,,,,8760000000.0,inf,1097851.82627379,,13438.42,519000,,
GB,ror,res,nondis,130,1.0,,,0.9,,30000,,0.04,50,,,,8760000000.0,inf,2262.0,,1885.0,3312000,,
GB,wind_off,res,nondis,130,1.0,,,1.0,,100000,,0.04,25,,,,8760000000.0,inf,inf,,9379.0,1934000,,
GB,wind_on,res,nondis,130,1.0,,,1.0,,35000,,0.04,25,,,,8760000000.0,inf,82183.8231532638,,13633.25,1035000,,
GR,CCGT,con,dis,130,0.96,0.201,,0.542,2451.0,20000,30.0,0.04,25,0.26475,0.26475,0.08,8760000000.0,inf,inf,,,830000,,
GR,OCGT,con,dis,130,0.948,0.201,,0.4,2451.0,15000,30.0,0.04,25,0.69894,0.69894,0.15,8760000000.0,inf,inf,,,435000,,
GR,bio,res,dis,130,1.0,,,0.487,,100000,32.49719974,0.04,30,0.26475,0.26475,0.15,403771250.968668,inf,76.5,,51.0,3300000,,
GR,hc,con,dis,130,0.955,0.337,,0.43,,30000,8.2692318,0.04,35,1.3797,1.3797,0.06,8760000000.0,inf,,,,3845000,,
GR,lig,con,dis,130,0.953,0.399,,0.38,3912.0,30000,5.4992,0.04,35,2.29,2.29,0.04,8760000000.0,inf,3912.0,,,3845000,,
GR,nuc,con,dis,130,0.912,,,0.343,,30000,3.437,0.04,40,2.29,2.29,0.04,8760000000.0,inf,,,,7940000,,
GR,oil,con,dis,130,0.9,0.266,,0.35,,6960,29.0030452651587,0.04,25,0.69894,0.69894,0.15,8760000000.0,inf,,,,400000,,
GR,other,con,dis,130,0.9,0.35,,0.35,,30000,18.054,0.04,30,0.69894,0.69894,0.04,8760000000.0,inf,,,,3845000,,
GR,pv,res,nondis,130,1.0,,,1.0,,25000,,0.04,25,,,,8760000000.0,inf,593732.878206474,,2441.0,519000,,
GR,ror,res,nondis,130,1.0,,,0.9,,30000,,0.04,50,,,,8760000000.0,inf,358.8,,299.0,3312000,,
GR,wind_off,res,nondis,130,1.0,,,1.0,,100000,,0.04,25,,,,8760000000.0,inf,inf,,,1934000,,
GR,wind_on,res,nondis,130,1.0,,,1.0,,35000,,0.04,25,,,,8760000000.0,inf,44406.6141594869,,2355.0,1035000,,
HR,CCGT,con,dis,130,0.96,0.201,,0.542,371.5,20000,30.0,0.04,25,0.26475,0.26475,0.08,8760000000.0,inf,inf,,,830000,,
HR,OCGT,con,dis,130,0.948,0.201,,0.4,371.5,15000,30.0,0.04,25,0.69894,0.69894,0.15,8760000000.0,inf,inf,,,435000,,
HR,bio,res,dis,130,1.0,,,0.487,,100000,32.49719974,0.04,30,0.26475,0.26475,0.15,61406894.5864782,inf,106.5,,71.0,3300000,,
HR,hc,con,dis,130,0.955,0.337,,0.43,332.0,30000,8.2692318,0.04,35,1.3797,1.3797,0.06,8760000000.0,inf,332.0,,,3845000,,
HR,lig,con,dis,130,0.953,0.399,,0.38,,30000,5.4992,0.04,35,2.29,2.29,0.04,8760000000.0,inf,,,,3845000,,
HR,nuc,con,dis,130,0.912,,,0.343,,30000,3.437,0.04,40,2.29,2.29,0.04,8760000000.0,inf,,,,7940000,,
HR,oil,con,dis,130,0.9,0.266,,0.35,937.0,6960,29.0030452651587,0.04,25,0.69894,0.69894,0.15,8760000000.0,inf,937.0,,,400000,,
HR,other,con,dis,130,0.9,0.35,,0.35,,30000,18.054,0.04,30,0.69894,0.69894,0.04,8760000000.0,inf,6.0,,,3845000,,
HR,pv,res,nondis,130,1.0,,,1.0,,25000,,0.04,25,,,,8760000000.0,inf,264855.999883093,,53.0,519000,,
HR,ror,res,nondis,130,1.0,,,0.9,,30000,,0.04,50,,,,8760000000.0,inf,505.2,,421.0,3312000,,
HR,wind_off,res,nondis,130,1.0,,,1.0,,100000,,0.04,25,,,,8760000000.0,inf,inf,,,1934000,,
HR,wind_on,res,nondis,130,1.0,,,1.0,,35000,,0.04,25,,,,8760000000.0,inf,19848.6931996697,,616.0,1035000,,
HU,CCGT,con,dis,130,0.96,0.201,,0.542,2014.215,20000,30.0,0.04,25,0.26475,0.26475,0.08,8760000000.0,inf,inf,,,830000,,
HU,OCGT,con,dis,130,0.948,0.201,,0.4,2014.215,15000,30.0,0.04,25,0.69894,0.69894,0.15,8760000000.0,inf,inf,,,435000,,
HU,bio,res,dis,130,1.0,,,0.487,,100000,32.49719974,0.04,30,0.26475,0.26475,0.15,627429729.54638,inf,368.925,,245.95,3300000,,
HU,hc,con,dis,130,0.955,0.337,,0.43,,30000,8.2692318,0.04,35,1.3797,1.3797,0.06,8760000000.0,inf,,,,3845000,,
HU,lig,con,dis,130,0.953,0.399,,0.38,1048.87,30000,5.4992,0.04,35,2.29,2.29,0.04,8760000000.0,inf,1048.87,,,3845000,,
HU,nuc,con,dis,130,0.912,,,0.343,1898.87,30000,3.437,0.04,40,2.29,2.29,0.04,8760000000.0,inf,1898.87,,,7940000,,
HU,oil,con,dis,130,0.9,0.266,,0.35,421.06,6960,29.0030452651587,0.04,25,0.69894,0.69894,0.15,8760000000.0,inf,421.06,,,400000,,
HU,other,con,dis,130,0.9,0.35,,0.35,,30000,18.054,0.04,30,0.69894,0.69894,0.04,8760000000.0,inf,59.44,,,3845000,,
HU,pv,res,nondis,130,1.0,,,1.0,,25000,,0.04,25,,,,8760000000.0,inf,418637.103704039,,936.25,519000,,
HU,ror,res,nondis,130,1.0,,,0.9,,30000,,0.04,50,,,,8760000000.0,inf,35.58,,29.65,3312000,,
HU,wind_off,res,nondis,130,1.0,,,1.0,,100000,,0.04,25,,,,8760000000.0,inf,,,,1934000,,
HU,wind_on,res,nondis,130,1.0,,,1.0,,35000,,0.04,25,,,,8760000000.0,inf,31029.634571028,,327.48,1035000,,
IE,CCGT,con,dis,130,0.96,0.201,,0.542,2132.5,20000,30.0,0.04,25,0.26475,0.26475,0.08,8760000000.0,inf,inf,,,830000,,
IE,OCGT,con,dis,130,0.948,0.201,,0.4,2132.5,15000,30.0,0.04,25,0.69894,0.69894,0.15,8760000000.0,inf,inf,,,435000,,
IE,bio,res,dis,130,1.0,,,0.487,,100000,32.49719974,0.04,30,0.26475,0.26475,0.15,366679251.074279,inf,,,,3300000,,
IE,hc,con,dis,130,0.955,0.337,,0.43,855.0,30000,8.2692318,0.04,35,1.3797,1.3797,0.06,8760000000.0,inf,855.0,,,3845000,,
IE,lig,con,dis,130,0.953,0.399,,0.38,343.6,30000,5.4992,0.04,35,2.29,2.29,0.04,8760000000.0,inf,343.6,,,3845000,,
IE,nuc,con,dis,130,0.912,,,0.343,,30000,3.437,0.04,40,2.29,2.29,0.04,8760000000.0,inf,,,,7940000,,
IE,oil,con,dis,130,0.9,0.266,,0.35,1272.0,6960,29.0030452651587,0.04,25,0.69894,0.69894,0.15,8760000000.0,inf,1272.0,,,400000,,
IE,other,con,dis,130,0.9,0.35,,0.35,,30000,18.054,0.04,30,0.69894,0.69894,0.04,8760000000.0,inf,647.0,,,3845000,,
IE,pv,res,nondis,130,1.0,,,1.0,,25000,,0.04,25,,,,8760000000.0,inf,318148.173726212,,,519000,,
IE,ror,res,nondis,130,1.0,,,0.9,,30000,,0.04,50,,,,8760000000.0,inf,259.2,,216.0,3312000,,
IE,wind_off,res,nondis,130,1.0,,,1.0,,100000,,0.04,25,,,,8760000000.0,inf,inf,,,1934000,,
IE,wind_on,res,nondis,130,1.0,,,1.0,,35000,,0.04,25,,,,8760000000.0,inf,23816.1768467362,,1918.73,1035000,,
IEsem,CCGT,con,dis,130,0.96,0.201,,0.542,,20000,30.0,0.04,25,0.26475,0.26475,0.08,8760000000.0,inf,inf,,,830000,,
IEsem,OCGT,con,dis,130,0.948,0.201,,0.4,,15000,30.0,0.04,25,0.69894,0.69894,0.15,8760000000.0,inf,inf,,,435000,,
IEsem,bio,res,dis,130,1.0,,,0.487,,100000,32.49719974,0.04,30,0.26475,0.26475,0.15,,inf,,,,3300000,,
IEsem,hc,con,dis,130,0.955,0.337,,0.43,,30000,8.2692318,0.04,35,1.3797,1.3797,0.06,8760000000.0,inf,,,,3845000,,
IEsem,lig,con,dis,130,0.953,0.399,,0.38,,30000,5.4992,0.04,35,2.29,2.29,0.04,8760000000.0,inf,,,,3845000,,
IEsem,nuc,con,dis,130,0.912,,,0.343,,30000,3.437,0.04,40,2.29,2.29,0.04,8760000000.0,inf,,,,7940000,,
IEsem,oil,con,dis,130,0.9,0.266,,0.35,,6960,29.0030452651587,0.04,25,0.69894,0.69894,0.15,8760000000.0,inf,,,,400000,,
IEsem,other,con,dis,130,0.9,0.35,,0.35,,30000,18.054,0.04,30,0.69894,0.69894,0.04,8760000000.0,inf,,,,3845000,,
IEsem,pv,res,nondis,130,1.0,,,1.0,,25000,,0.04,25,,,,8760000000.0,inf,,,,519000,,
IEsem,ror,res,nondis,130,1.0,,,0.9,,30000,,0.04,50,,,,8760000000.0,inf,,,,3312000,,
IEsem,wind_off,res,nondis,130,1.0,,,1.0,,100000,,0.04,25,,,,8760000000.0,inf,inf,,,1934000,,
IEsem,wind_on,res,nondis,130,1.0,,,1.0,,35000,,0.04,25,,,,8760000000.0,inf,,,,1035000,,
IT,CCGT,con,dis,130,0.96,0.201,,0.542,38673.2080153,20000,30.0,0.04,25,0.26475,0.26475,0.08,8760000000.0,inf,38673.2080153,,38673.2080153,830000,,
IT,OCGT,con,dis,130,0.948,0.201,,0.4,5398.56001306,15000,30.0,0.04,25,0.69894,0.69894,0.15,8760000000.0,inf,5398.56001306,,5398.56001306,435000,,
IT,bio,res,dis,130,1.0,,,0.487,4933.1500551,100000,32.49719974,0.04,30,0.26475,0.26475,0.15,36998625.41325,inf,4933.1500551,,4933.1500551,3300000,,
IT,hc,con,dis,130,0.955,0.337,,0.43,,30000,8.2692318,0.04,35,1.3797,1.3797,0.06,8760000000.0,inf,,,,3845000,,
IT,lig,con,dis,130,0.953,0.399,,0.38,,30000,5.4992,0.04,35,2.29,2.29,0.04,8760000000.0,inf,,,,3845000,,
IT,nuc,con,dis,130,0.912,,,0.343,,30000,3.437,0.04,40,2.29,2.29,0.04,8760000000.0,inf,,,,7940000,,
IT,oil,con,dis,130,0.9,0.266,,0.35,,6960,29.0030452651587,0.04,25,0.69894,0.69894,0.15,8760000000.0,inf,,,,400000,,
IT,other,con,dis,130,0.9,0.35,,0.35,5985.6899412,30000,18.054,0.04,30,0.69894,0.69894,0.04,8760000000.0,inf,5985.6899412,,5985.6899412,3845000,,
IT,pv,res,nondis,130,1.0,,,1.0,49329.0,25000,,0.04,25,,,,8760000000.0,inf,49329.0,,49329.0,519000,,
IT,ror,res,nondis,130,1.0,,,0.9,5635.0,30000,,0.04,50,,,,8760000000.0,inf,5635.0,,5635.0,3312000,,
IT,wind_off,res,nondis,130,1.0,,,1.0,600.0,100000,,0.04,25,,,,8760000000.0,inf,600.0,,600.0,1934000,,
IT,wind_on,res,nondis,130,1.0,,,1.0,19048.0,35000,,0.04,25,,,,8760000000.0,inf,19048.0,,19048.0,1035000,,
LT,CCGT,con,dis,130,0.96,0.201,,0.542,855.0,20000,30.0,0.04,25,0.26475,0.26475,0.08,8760000000.0,inf,inf,,,830000,,
LT,OCGT,con,dis,130,0.948,0.201,,0.4,855.0,15000,30.0,0.04,25,0.69894,0.69894,0.15,8760000000.0,inf,inf,,,435000,,
LT,bio,res,dis,130,1.0,,,0.487,,100000,32.49719974,0.04,30,0.26475,0.26475,0.15,193036501.015819,inf,144.0,,96.0,3300000,,
LT,hc,con,dis,130,0.955,0.337,,0.43,,30000,8.2692318,0.04,35,1.3797,1.3797,0.06,8760000000.0,inf,,,,3845000,,
LT,lig,con,dis,130,0.953,0.399,,0.38,,30000,5.4992,0.04,35,2.29,2.29,0.04,8760000000.0,inf,,,,3845000,,
LT,nuc,con,dis,130,0.912,,,0.343,,30000,3.437,0.04,40,2.29,2.29,0.04,8760000000.0,inf,,,,7940000,,
LT,oil,con,dis,130,0.9,0.266,,0.35,,6960,29.0030452651587,0.04,25,0.69894,0.69894,0.15,8760000000.0,inf,,,,400000,,
LT,other,con,dis,130,0.9,0.35,,0.35,,30000,18.054,0.04,30,0.69894,0.69894,0.04,8760000000.0,inf,161.0,,,3845000,,
LT,pv,res,nondis,130,1.0,,,1.0,,25000,,0.04,25,,,,8760000000.0,inf,293653.982240281,,82.0,519000,,
LT,ror,res,nondis,130,1.0,,,0.9,,30000,,0.04,50,,,,8760000000.0,inf,153.6,,128.0,3312000,,
LT,wind_off,res,nondis,130,1.0,,,1.0,,100000,,0.04,25,,,,8760000000.0,inf,inf,,,1934000,,
LT,wind_on,res,nondis,130,1.0,,,1.0,,35000,,0.04,25,,,,8760000000.0,inf,21986.7829342343,,525.0,1035000,,
LU,CCGT,con,dis,130,0.96,0.201,,0.542,,20000,30.0,0.04,25,0.26475,0.26475,0.08,8760000000.0,inf,,,,830000,,
LU,OCGT,con,dis,130,0.948,0.201,,0.4,,15000,30.0,0.04,25,0.69894,0.69894,0.15,8760000000.0,inf,,,,435000,,
LU,bio,res,dis,130,1.0,,,0.487,53.58571243,100000,32.49719974,0.04,30,0.26475,0.26475,0.15,401892.843225,inf,53.58571243,,53.58571243,3300000,,
LU,hc,con,dis,130,0.955,0.337,,0.43,,30000,8.2692318,0.04,35,1.3797,1.3797,0.06,8760000000.0,inf,,,,3845000,,
LU,lig,con,dis,130,0.953,0.399,,0.38,,30000,5.4992,0.04,35,2.29,2.29,0.04,8760000000.0,inf,,,,3845000,,
LU,nuc,con,dis,130,0.912,,,0.343,,30000,3.437,0.04,40,2.29,2.29,0.04,8760000000.0,inf,,,,7940000,,
LU,oil,con,dis,130,0.9,0.266,,0.35,,6960,29.0030452651587,0.04,25,0.69894,0.69894,0.15,8760000000.0,inf,,,,400000,,
LU,other,con,dis,130,0.9,0.35,,0.35,34.2857132,30000,18.054,0.04,30,0.69894,0.69894,0.04,8760000000.0,inf,34.2857132,,34.2857132,3845000,,
LU,pv,res,nondis,130,1.0,,,1.0,250.0,25000,,0.04,25,,,,8760000000.0,inf,250.0,,250.0,519000,,
LU,ror,res,nondis,130,1.0,,,0.9,46.57143021,30000,,0.04,50,,,,8760000000.0,inf,46.57143021,,46.57143021,3312000,,
LU,wind_off,res,nondis,130,1.0,,,1.0,,100000,,0.04,25,,,,8760000000.0,inf,,,,1934000,,
LU,wind_on,res,nondis,130,1.0,,,1.0,350.0,35000,,0.04,25,,,,8760000000.0,inf,350.0,,350.0,1035000,,
LV,CCGT,con,dis,130,0.96,0.201,,0.542,555.0,20000,30.0,0.04,25,0.26475,0.26475,0.08,8760000000.0,inf,inf,,,830000,,
LV,OCGT,con,dis,130,0.948,0.201,,0.4,555.0,15000,30.0,0.04,25,0.69894,0.69894,0.15,8760000000.0,inf,inf,,,435000,,
LV,bio,res,dis,130,1.0,,,0.487,,100000,32.49719974,0.04,30,0.26475,0.26475,0.15,190934679.389139,inf,189.0,,126.0,3300000,,
LV,hc,con,dis,130,0.955,0.337,,0.43,,30000,8.2692318,0.04,35,1.3797,1.3797,0.06,8760000000.0,inf,,,,3845000,,
LV,lig,con,dis,130,0.953,0.399,,0.38,,30000,5.4992,0.04,35,2.29,2.29,0.04,8760000000.0,inf,,,,3845000,,
LV,nuc,con,dis,130,0.912,,,0.343,,30000,3.437,0.04,40,2.29,2.29,0.04,8760000000.0,inf,,,,7940000,,
LV,oil,con,dis,130,0.9,0.266,,0.35,,6960,29.0030452651587,0.04,25,0.69894,0.69894,0.15,8760000000.0,inf,,,,400000,,
LV,other,con,dis,130,0.9,0.35,,0.35,,30000,18.054,0.04,30,0.69894,0.69894,0.04,8760000000.0,inf,,,,3845000,,
LV,pv,res,nondis,130,1.0,,,1.0,,25000,,0.04,25,,,,8760000000.0,inf,290456.616522474,,7.0,519000,,
LV,ror,res,nondis,130,1.0,,,0.9,,30000,,0.04,50,,,,8760000000.0,inf,1846.8,,1539.0,3312000,,
LV,wind_off,res,nondis,130,1.0,,,1.0,,100000,,0.04,25,,,,8760000000.0,inf,inf,,,1934000,,
LV,wind_on,res,nondis,130,1.0,,,1.0,,35000,,0.04,25,,,,8760000000.0,inf,21747.3862624695,,59.0,1035000,,
NL,CCGT,con,dis,130,0.96,0.201,,0.542,8652.4999995,20000,30.0,0.04,25,0.26475,0.26475,0.08,8760000000.0,inf,8652.4999995,,8652.4999995,830000,,
NL,OCGT,con,dis,130,0.948,0.201,,0.4,642.79999885,15000,30.0,0.04,25,0.69894,0.69894,0.15,8760000000.0,inf,642.79999885,,642.79999885,435000,,
NL,bio,res,dis,130,1.0,,,0.487,540.0,100000,32.49719974,0.04,30,0.26475,0.26475,0.15,4050000.0,inf,540.0,,540.0,3300000,,
NL,hc,con,dis,130,0.955,0.337,,0.43,,30000,8.2692318,0.04,35,1.3797,1.3797,0.06,8760000000.0,inf,,,,3845000,,
NL,lig,con,dis,130,0.953,0.399,,0.38,,30000,5.4992,0.04,35,2.29,2.29,0.04,8760000000.0,inf,,,,3845000,,
NL,nuc,con,dis,130,0.912,,,0.343,486.0,30000,3.437,0.04,40,2.29,2.29,0.04,8760000000.0,inf,486.0,,486.0,7940000,,
NL,oil,con,dis,130,0.9,0.266,,0.35,,6960,29.0030452651587,0.04,25,0.69894,0.69894,0.15,8760000000.0,inf,,,,400000,,
NL,other,con,dis,130,0.9,0.35,,0.35,3770.0,30000,18.054,0.04,30,0.69894,0.69894,0.04,8760000000.0,inf,3770.0,,3770.0,3845000,,
NL,pv,res,nondis,130,1.0,,,1.0,15460.0,25000,,0.04,25,,,,8760000000.0,inf,15460.0,,15460.0,519000,,
NL,ror,res,nondis,130,1.0,,,0.9,46.57143021,30000,,0.04,50,,,,8760000000.0,inf,46.57143021,,46.57143021,3312000,,
NL,wind_off,res,nondis,130,1.0,,,1.0,6720.0,100000,,0.04,25,,,,8760000000.0,inf,6720.0,,6720.0,1934000,,
NL,wind_on,res,nondis,130,1.0,,,1.0,8300.0,35000,,0.04,25,,,,8760000000.0,inf,8300.0,,8300.0,1035000,,
NO,CCGT,con,dis,130,0.96,0.201,,0.542,317.3,20000,30.0,0.04,25,0.26475,0.26475,0.08,8760000000.0,inf,inf,,,830000,,
NO,OCGT,con,dis,130,0.948,0.201,,0.4,317.3,15000,30.0,0.04,25,0.69894,0.69894,0.15,8760000000.0,inf,inf,,,435000,,
NO,bio,res,dis,130,1.0,,,0.487,,100000,32.49719974,0.04,30,0.26475,0.26475,0.15,126000000.0,inf,,,,3300000,,
NO,hc,con,dis,130,0.955,0.337,,0.43,,30000,8.2692318,0.04,35,1.3797,1.3797,0.06,8760000000.0,inf,,,,3845000,,
NO,lig,con,dis,130,0.953,0.399,,0.38,,30000,5.4992,0.04,35,2.29,2.29,0.04,8760000000.0,inf,,,,3845000,,
NO,nuc,con,dis,130,0.912,,,0.343,,30000,3.437,0.04,40,2.29,2.29,0.04,8760000000.0,inf,,,,7940000,,
NO,oil,con,dis,130,0.9,0.266,,0.35,,6960,29.0030452651587,0.04,25,0.69894,0.69894,0.15,8760000000.0,inf,,,,400000,,
NO,other,con,dis,130,0.9,0.35,,0.35,,30000,18.054,0.04,30,0.69894,0.69894,0.04,8760000000.0,inf,,,,3845000,,
NO,pv,res,nondis,130,1.0,,,1.0,,25000,,0.04,25,,,,8760000000.0,inf,1457000.0,,,519000,,
NO,ror,res,nondis,130,1.0,,,0.9,,30000,,0.04,50,,,,8760000000.0,inf,1190.64,,992.2,3312000,,
NO,wind_off,res,nondis,130,1.0,,,1.0,,100000,,0.04,25,,,,8760000000.0,inf,inf,,,1934000,,
NO,wind_on,res,nondis,130,1.0,,,1.0,,35000,,0.04,25,,,,8760000000.0,inf,109000.0,,1230.2,1035000,,
PL,CCGT,con,dis,130,0.96,0.201,,0.542,5001.0000003,20000,30.0,0.04,25,0.26475,0.26475,0.08,8760000000.0,inf,5001.0000003,,5001.0000003,830000,,
PL,OCGT,con,dis,130,0.948,0.201,,0.4,,15000,30.0,0.04,25,0.69894,0.69894,0.15,8760000000.0,inf,,,,435000,,
PL,bio,res,dis,130,1.0,,,0.487,1414.0,100000,32.49719974,0.04,30,0.26475,0.26475,0.15,1060500.0,inf,1414.0,,1414.0,3300000,,
PL,hc,con,dis,130,0.955,0.337,,0.43,9877.0417456,30000,8.2692318,0.04,35,1.3797,1.3797,0.06,8760000000.0,inf,9877.0417456,,9877.0417456,3845000,,
PL,lig,con,dis,130,0.953,0.399,,0.38,6323.359986,30000,5.4992,0.04,35,2.29,2.29,0.04,8760000000.0,inf,6323.359986,,6323.359986,3845000,,
PL,nuc,con,dis,130,0.912,,,0.343,,30000,3.437,0.04,40,2.29,2.29,0.04,8760000000.0,inf,,,,7940000,,
PL,oil,con,dis,130,0.9,0.266,,0.35,,6960,29.0030452651587,0.04,25,0.69894,0.69894,0.15,8760000000.0,inf,,,,400000,,
PL,other,con,dis,130,0.9,0.35,,0.35,6818.0,30000,18.054,0.04,30,0.69894,0.69894,0.04,8760000000.0,inf,6818.0,,6818.0,3845000,,
PL,pv,res,nondis,130,1.0,,,1.0,12192.0,25000,,0.04,25,,,,8760000000.0,inf,12192.0,,12192.0,519000,,
PL,ror,res,nondis,130,1.0,,,0.9,537.0,30000,,0.04,50,,,,8760000000.0,inf,537.0,,537.0,3312000,,
PL,wind_off,res,nondis,130,1.0,,,1.0,900.0,100000,,0.04,25,,,,8760000000.0,inf,900.0,,900.0,1934000,,
PL,wind_on,res,nondis,130,1.0,,,1.0,11280.0,35000,,0.04,25,,,,8760000000.0,inf,11280.0,,11280.0,1035000,,
PT,CCGT,con,dis,130,0.96,0.201,,0.542,2303.0,20000,30.0,0.04,25,0.26475,0.26475,0.08,8760000000.0,inf,inf,,,830000,,
PT,OCGT,con,dis,130,0.948,0.201,,0.4,2303.0,15000,30.0,0.04,25,0.69894,0.69894,0.15,8760000000.0,inf,inf,,,435000,,
PT,bio,res,dis,130,1.0,,,0.487,,100000,32.49719974,0.04,30,0.26475,0.26475,0.15,255639887.072839,inf,907.2,,604.8,3300000,,
PT,hc,con,dis,130,0.955,0.337,,0.43,1756.0,30000,8.2692318,0.04,35,1.3797,1.3797,0.06,8760000000.0,inf,1756.0,,,3845000,,
PT,lig,con,dis,130,0.953,0.399,,0.38,,30000,5.4992,0.04,35,2.29,2.29,0.04,8760000000.0,inf,,,,3845000,,
PT,nuc,con,dis,130,0.912,,,0.343,,30000,3.437,0.04,40,2.29,2.29,0.04,8760000000.0,inf,,,,7940000,,
PT,oil,con,dis,130,0.9,0.266,,0.35,,6960,29.0030452651587,0.04,25,0.69894,0.69894,0.15,8760000000.0,inf,,,,400000,,
PT,other,con,dis,130,0.9,0.35,,0.35,,30000,18.054,0.04,30,0.69894,0.69894,0.04,8760000000.0,inf,36.2,,,3845000,,
PT,pv,res,nondis,130,1.0,,,1.0,,25000,,0.04,25,,,,8760000000.0,inf,405076.992539106,,323.5,519000,,
PT,ror,res,nondis,130,1.0,,,0.9,,30000,,0.04,50,,,,8760000000.0,inf,3429.12,,2857.6,3312000,,
PT,wind_off,res,nondis,130,1.0,,,1.0,,100000,,0.04,25,,,,8760000000.0,inf,inf,,,1934000,,
PT,wind_on,res,nondis,130,1.0,,,1.0,,35000,,0.04,25,,,,8760000000.0,inf,30279.0909261288,,5126.6,1035000,,
RO,CCGT,con,dis,130,0.96,0.201,,0.542,1516.5,20000,30.0,0.04,25,0.26475,0.26475,0.08,8760000000.0,inf,inf,,,830000,,
RO,OCGT,con,dis,130,0.948,0.201,,0.4,1516.5,15000,30.0,0.04,25,0.69894,0.69894,0.15,8760000000.0,inf,inf,,,435000,,
RO,bio,res,dis,130,1.0,,,0.487,,100000,32.49719974,0.04,30,0.26475,0.26475,0.15,729557790.792615,inf,172.5,,115.0,3300000,,
RO,hc,con,dis,130,0.955,0.337,,0.43,1032.0,30000,8.2692318,0.04,35,1.3797,1.3797,0.06,8760000000.0,inf,1032.0,,,3845000,,
RO,lig,con,dis,130,0.953,0.399,,0.38,3096.0,30000,5.4992,0.04,35,2.29,2.29,0.04,8760000000.0,inf,3096.0,,,3845000,,
RO,nuc,con,dis,130,0.912,,,0.343,1300.0,30000,3.437,0.04,40,2.29,2.29,0.04,8760000000.0,inf,1300.0,,,7940000,,
RO,oil,con,dis,130,0.9,0.266,,0.35,,6960,29.0030452651587,0.04,25,0.69894,0.69894,0.15,8760000000.0,inf,,,,400000,,
RO,other,con,dis,130,0.9,0.35,,0.35,,30000,18.054,0.04,30,0.69894,0.69894,0.04,8760000000.0,inf,,,,3845000,,
RO,pv,res,nondis,130,1.0,,,1.0,,25000,,0.04,25,,,,8760000000.0,inf,1072791.70051378,,1150.0,519000,,
RO,ror,res,nondis,130,1.0,,,0.9,,30000,,0.04,50,,,,8760000000.0,inf,3324.0,,2770.0,3312000,,
RO,wind_off,res,nondis,130,1.0,,,1.0,,100000,,0.04,25,,,,8760000000.0,inf,inf,,,1934000,,
RO,wind_on,res,nondis,130,1.0,,,1.0,,35000,,0.04,25,,,,8760000000.0,inf,80236.4983763772,,2968.0,1035000,,
SE,CCGT,con,dis,130,0.96,0.201,,0.542,,20000,30.0,0.04,25,0.26475,0.26475,0.08,8760000000.0,inf,inf,,,830000,,
SE,OCGT,con,dis,130,0.948,0.201,,0.4,,15000,30.0,0.04,25,0.69894,0.69894,0.15,8760000000.0,inf,inf,,,435000,,
SE,bio,res,dis,130,1.0,,,0.487,,100000,32.49719974,0.04,30,0.26475,0.26475,0.15,1267000000.0,inf,,,,3300000,,
SE,hc,con,dis,130,0.955,0.337,,0.43,,30000,8.2692318,0.04,35,1.3797,1.3797,0.06,8760000000.0,inf,,,,3845000,,
SE,lig,con,dis,130,0.953,0.399,,0.38,,30000,5.4992,0.04,35,2.29,2.29,0.04,8760000000.0,inf,,,,3845000,,
SE,nuc,con,dis,130,0.912,,,0.343,8586.0,30000,3.437,0.04,40,2.29,2.29,0.04,8760000000.0,inf,8586.0,,,7940000,,
SE,oil,con,dis,130,0.9,0.266,,0.35,,6960,29.0030452651587,0.04,25,0.69894,0.69894,0.15,8760000000.0,inf,,,,400000,,
SE,other,con,dis,130,0.9,0.35,,0.35,,30000,18.054,0.04,30,0.69894,0.69894,0.04,8760000000.0,inf,8439.0,,,3845000,,
SE,pv,res,nondis,130,1.0,,,1.0,,25000,,0.04,25,,,,8760000000.0,inf,2026000.0,,,519000,,
SE,ror,res,nondis,130,1.0,,,0.9,,30000,,0.04,50,,,,8760000000.0,inf,,,,3312000,,
SE,wind_off,res,nondis,130,1.0,,,1.0,,100000,,0.04,25,,,,8760000000.0,inf,inf,,,1934000,,
SE,wind_on,res,nondis,130,1.0,,,1.0,,35000,,0.04,25,,,,8760000000.0,inf,151000.0,,7506.0,1035000,,
SI,CCGT,con,dis,130,0.96,0.201,,0.542,245.5,20000,30.0,0.04,25,0.26475,0.26475,0.08,8760000000.0,inf,inf,,,830000,,
SI,OCGT,con,dis,130,0.948,0.201,,0.4,245.5,15000,30.0,0.04,25,0.69894,0.69894,0.15,8760000000.0,inf,inf,,,435000,,
SI,bio,res,dis,130,1.0,,,0.487,,100000,32.49719974,0.04,30,0.26475,0.26475,0.15,21997066.3666055,inf,25.5,,17.0,3300000,,
SI,hc,con,dis,130,0.955,0.337,,0.43,,30000,8.2692318,0.04,35,1.3797,1.3797,0.06,8760000000.0,inf,,,,3845000,,
SI,lig,con,dis,130,0.953,0.399,,0.38,924.0,30000,5.4992,0.04,35,2.29,2.29,0.04,8760000000.0,inf,924.0,,,3845000,,
SI,nuc,con,dis,130,0.912,,,0.343,696.0,30000,3.437,0.04,40,2.29,2.29,0.04,8760000000.0,inf,696.0,,,7940000,,
SI,oil,con,dis,130,0.9,0.266,,0.35,58.0,6960,29.0030452651587,0.04,25,0.69894,0.69894,0.15,8760000000.0,inf,58.0,,,400000,,
SI,other,con,dis,130,0.9,0.35,,0.35,,30000,18.054,0.04,30,0.69894,0.69894,0.04,8760000000.0,inf,40.0,,,3845000,,
SI,pv,res,nondis,130,1.0,,,1.0,,25000,,0.04,25,,,,8760000000.0,inf,94876.235742834,,275.34,519000,,
SI,ror,res,nondis,130,1.0,,,0.9,,30000,,0.04,50,,,,8760000000.0,inf,1263.6,,1053.0,3312000,,
SI,wind_off,res,nondis,130,1.0,,,1.0,,100000,,0.04,25,,,,8760000000.0,inf,,,,1934000,,
SI,wind_on,res,nondis,130,1.0,,,1.0,,35000,,0.04,25,,,,8760000000.0,inf,7110.16286597351,,3.0,1035000,,
SK,CCGT,con,dis,130,0.96,0.201,,0.542,576.5,20000,30.0,0.04,25,0.26475,0.26475,0.08,8760000000.0,inf,inf,,,830000,,
SK,OCGT,con,dis,130,0.948,0.201,,0.4,576.5,15000,30.0,0.04,25,0.69894,0.69894,0.15,8760000000.0,inf,inf,,,435000,,
SK,bio,res,dis,130,1.0,,,0.487,,100000,32.49719974,0.04,30,0.26475,0.26475,0.15,358467107.629279,inf,321.0,,214.0,3300000,,
SK,hc,con,dis,130,0.955,0.337,,0.43,221.0,30000,8.2692318,0.04,35,1.3797,1.3797,0.06,8760000000.0,inf,221.0,,,3845000,,
SK,lig,con,dis,130,0.953,0.399,,0.38,320.0,30000,5.4992,0.04,35,2.29,2.29,0.04,8760000000.0,inf,320.0,,,3845000,,
SK,nuc,con,dis,130,0.912,,,0.343,1940.0,30000,3.437,0.04,40,2.29,2.29,0.04,8760000000.0,inf,1940.0,,,7940000,,
SK,oil,con,dis,130,0.9,0.266,,0.35,257.0,6960,29.0030452651587,0.04,25,0.69894,0.69894,0.15,8760000000.0,inf,257.0,,,400000,,
SK,other,con,dis,130,0.9,0.35,,0.35,,30000,18.054,0.04,30,0.69894,0.69894,0.04,8760000000.0,inf,418.0,,,3845000,,
SK,pv,res,nondis,130,1.0,,,1.0,,25000,,0.04,25,,,,8760000000.0,inf,220831.073790871,,531.0,519000,,
SK,ror,res,nondis,130,1.0,,,0.9,,30000,,0.04,50,,,,8760000000.0,inf,1449.6,,1208.0,3312000,,
SK,wind_off,res,nondis,130,1.0,,,1.0,,100000,,0.04,25,,,,8760000000.0,inf,,,,1934000,,
SK,wind_on,res,nondis,130,1.0,,,1.0,,35000,,0.04,25,,,,8760000000.0,inf,16485.653078138,,3.0,1035000,,
