{
    "iter_data": {
        "type": "par",
        "file_name": ["par_scenario_iter_data.csv"],
        "set_row": [
            "parameter",
            "identifier",
            "scenario"
        ],
        "set_col": "h",
        "col_loc": 0
    },
    "identifier": {
        "type": "set",
        "file_name": ["set_identifier.csv"]
    },
    "scenario": {
        "type": "set",
        "file_name": ["set_scenario.csv"]
    },
    "h": {
        "type": "set",
        "file_name": ["set_h.csv"]
    }
}